<?xml  version="1.0" encoding="UTF-8"?>
<!DOCTYPE svg PUBLIC "-//W3C//DTD SVG 1.0//EN" "http://www.w3.org/TR/2001/REC-SVG-20010904/DTD/svg10.dtd" >
<svg xmlns="http://www.w3.org/2000/svg" >
<metadata>
<version>1.0</version>
<id><![CDATA[Helvetica Neue LT W02 35 Thin]]></id>
<vendor>Monotype Imaging Inc.</vendor>
<credits>
<name>Fonts.com WebFonts</name>
<URL>http://webfonts.fonts.com</URL>
<role>Home of the Web fonts</role>
</credits>
<license>
<URL>http://webfonts.fonts.com/Legal</URL>
</license>
<copyright><![CDATA[Copyright © 2014 Monotype Imaging Inc. All rights reserved.]]></copyright>
<trademark><![CDATA[Neue Helvetica is a trademark of Monotype Imaging Inc. registered in the U.S. Patent and Trademark Office and may be registered in certain other jurisdictions.]]></trademark>
<licensee>
<name></name>
</licensee>
</metadata>
<defs >
<font horiz-adv-x="490" id="0cb85325-f0de-4961-88cd-36759752dddc">
<font-face font-family="Helvetica Neue LT W02 35 Thin" panose-1="2 11 4 3 2 2 2 2 2 4" ascent="949" descent="-217" units-per-em="1000" alphabetic="0">
</font-face>
<missing-glyph horiz-adv-x="512" d="M512 718V0H0V718H512ZM462 50V667H50V50H462ZM259 609Q313 609 348 573T383 478Q383 440 367 413T319 357Q285 325 278 309T271 234H225L223 271Q223 303 234 327T286 395Q301 411 316 428T332 474Q332 509 310 534T256 559Q186 559 174 464L124 472Q138 609 259 609ZM222 184H278V117H222V184Z"  />

<glyph unicode="&#xA;" />
<glyph unicode="&#xD;" horiz-adv-x="278" />
<glyph unicode=" " horiz-adv-x="278" />
<glyph unicode="!" horiz-adv-x="259" d="M106 714H154V473L142 183H118L106 473V714ZM104 103H155V0H104V103Z"  />
<glyph unicode="&quot;" horiz-adv-x="315" d="M80 714H118V485H80V714ZM197 714H235V485H197V714Z"  />
<glyph unicode="#" horiz-adv-x="556" d="M212 690H245L214 470H383L414 690H447L416 470H526V437H411L387 264H498V231H382L350 0H317L349 231H180L148 0H115L147 231H30V264H152L176 437H58V470H181L212 690ZM185 264H354L378 437H209L185 264Z"  />
<glyph unicode="$" horiz-adv-x="556" d="M258 780H290V731Q512 727 522 511H484Q479 603 432 647T290 694V384L363 366Q454 344 496 300T539 183Q539 88 474 38T290 -17V-105H258V-17Q132 -6 72 55T12 235H50Q51 137 103 82T258 21V354L188 371Q34 408 34 541Q34 628 91 677T258 731V780ZM72 541Q72 478 110 446T258 393V693Q72 685 72 541ZM290 21Q390 21 445 63T501 183Q501 295 351 332L290 347V21Z"  />
<glyph unicode="%" horiz-adv-x="778" d="M603 714H643L178 -24H138L603 714ZM207 702Q282 702 327 653T372 523Q372 447 325 397T206 346Q135 346 88 396T40 523Q40 601 86 651T207 702ZM78 523Q78 461 115 420T205 379Q258 379 296 420T334 523Q334 589 299 629T205 669Q150 669 114 629T78 523ZM573 344Q646 344 692 296T738 165Q738 90 691 39T572 -12Q499 -12 453 38T406 165Q406 245 453 294T573 344ZM444 165Q444 108 480 65T571 21Q626 21 663 63T700 165Q700 229 665 270T571 311Q516 311 480 271T444 165Z"  />
<glyph unicode="&amp;" horiz-adv-x="593" d="M545 0L458 106Q387 -12 254 -12Q158 -12 101 36T43 170Q43 213 60 246T105 306T229 394Q176 457 154 497T132 579Q132 630 176 666T282 702Q349 702 390 667T432 579Q432 493 342 426L284 384L454 175Q478 235 478 294H516Q512 222 480 143L596 0H545ZM262 412Q394 490 394 579Q394 617 359 643T281 669Q238 669 204 643T170 579Q170 526 222 464L262 412ZM249 366Q164 313 139 289T97 237T81 171Q81 105 132 63T255 21Q313 21 361 53T433 137L249 366Z"  />
<glyph unicode="&apos;" horiz-adv-x="204" d="M83 714H121V485H83V714Z"  />
<glyph unicode="(" horiz-adv-x="241" d="M231 731Q103 513 103 266Q103 18 228 -184H194Q65 27 65 266Q65 510 196 731H231Z"  />
<glyph unicode=")" horiz-adv-x="241" d="M47 731Q109 630 142 514T176 281Q176 39 45 -184H10Q72 -81 105 39T138 281Q138 525 13 731H47Z"  />
<glyph unicode="*" horiz-adv-x="352" d="M161 714H190V584L312 625L322 597L199 556L275 454L253 434L176 540L96 434L72 454L153 556L29 597L38 625L161 584V714Z"  />
<glyph unicode="+" horiz-adv-x="600" d="M281 504H319V271H552V233H319V0H281V233H48V271H281V504Z"  />
<glyph unicode="&#x2c;" horiz-adv-x="278" d="M113 103H164V0Q164 -100 100 -126V-93Q118 -84 126 -58T134 -5V0H113V103Z"  />
<glyph unicode="-" horiz-adv-x="352" d="M283 291V253H69V291H283Z"  />
<glyph unicode="." horiz-adv-x="278" d="M113 103H164V0H113V103Z"  />
<glyph unicode="/" horiz-adv-x="333" d="M305 731H346L28 -17H-13L305 731Z"  />
<glyph unicode="0" horiz-adv-x="556" d="M278 702Q397 702 462 611T528 345Q528 173 463 81T278 -12Q159 -12 94 80T28 345Q28 519 94 610T278 702ZM66 345Q66 191 121 106T278 21Q377 21 433 105T490 345Q490 501 433 585T277 669Q176 669 121 584T66 345Z"  />
<glyph unicode="1" horiz-adv-x="556" d="M331 690V0H293V616Q222 541 108 528V561Q232 580 297 690H331Z"  />
<glyph unicode="2" horiz-adv-x="556" d="M281 702Q378 702 436 652T495 513Q495 444 454 386T319 262L216 192Q101 114 94 38H506V0H46Q50 69 95 129T263 271Q352 329 385 361T437 431T457 514Q457 581 407 625T287 669Q201 669 152 613T101 457H63Q75 702 281 702Z"  />
<glyph unicode="3" horiz-adv-x="556" d="M274 702Q374 702 434 656T495 528Q495 464 458 421T360 370V368Q428 360 469 311T511 191Q511 96 445 42T274 -12Q162 -12 99 46T36 210V228H74V215Q74 126 127 74T274 21Q361 21 417 68T473 191Q473 351 262 351Q253 351 241 350V383Q249 382 259 382Q353 383 405 420T457 528Q457 590 406 629T274 669Q191 669 144 618T91 472H53Q53 574 113 638T274 702Z"  />
<glyph unicode="4" horiz-adv-x="556" d="M365 690H403V209H519V176H403V0H365V176H29V214L365 690ZM363 638L67 209H365V638H363Z"  />
<glyph unicode="5" horiz-adv-x="556" d="M479 690V657H160L101 382L103 380Q162 463 274 463Q377 463 442 396T508 228Q508 123 442 56T274 -12Q169 -12 103 47T37 197V211H75V202Q75 124 133 73T274 21Q357 21 413 80T470 228Q470 313 414 371T274 430Q162 430 97 333H58L130 690H479Z"  />
<glyph unicode="6" horiz-adv-x="556" d="M296 702Q384 702 440 655T507 520H469Q456 591 408 630T296 669Q190 669 135 577T80 310L82 308Q105 374 162 415T288 456Q387 456 453 390T519 220Q519 121 454 55T288 -12Q42 -12 42 312Q42 497 105 599T296 702ZM93 220Q93 135 149 78T288 21Q369 21 425 79T481 220Q481 303 426 363T287 423Q204 423 149 364T93 220Z"  />
<glyph unicode="7" horiz-adv-x="556" d="M501 690V652Q348 484 285 339T204 0H160Q174 189 242 339T463 657H56V690H501Z"  />
<glyph unicode="8" horiz-adv-x="556" d="M278 702Q378 702 434 658T491 529Q491 470 459 430T364 378V376Q439 367 478 319T517 198Q517 100 453 44T278 -12Q168 -12 104 44T39 198Q39 272 79 319T192 376V378Q129 391 97 430T65 529Q65 615 123 658T278 702ZM103 529Q103 465 150 429T278 392Q359 392 406 428T453 529Q453 596 408 632T277 669Q194 669 149 633T103 529ZM77 198Q77 116 131 69T278 21Q369 21 424 68T479 198Q479 276 425 317T277 359Q184 359 131 318T77 198Z"  />
<glyph unicode="9" horiz-adv-x="556" d="M279 702Q520 702 520 379Q520 190 457 89T266 -12Q175 -12 120 36T55 170H93Q107 98 153 60T266 21Q369 21 424 109T482 372L480 374Q454 308 403 271T279 234Q176 234 111 299T46 470Q46 572 111 637T279 702ZM84 470Q84 385 141 326T279 267Q362 267 418 325T474 470Q474 552 418 610T278 669Q198 669 141 610T84 470Z"  />
<glyph unicode=":" horiz-adv-x="278" d="M113 514H164V411H113V514ZM113 103H164V0H113V103Z"  />
<glyph unicode=";" horiz-adv-x="278" d="M113 514H164V411H113V514ZM113 103H164V2Q164 -102 100 -126V-93Q134 -77 134 0H113V103Z"  />
<glyph unicode="&lt;" horiz-adv-x="600" d="M554 514V472L79 254L554 34V-8L46 228V280L554 514Z"  />
<glyph unicode="=" horiz-adv-x="600" d="M552 369V331H48V369H552ZM552 175V137H48V175H552Z"  />
<glyph unicode="&gt;" horiz-adv-x="600" d="M46 514L554 278V226L46 -8V34L521 252L46 472V514Z"  />
<glyph unicode="?" horiz-adv-x="519" d="M265 731Q355 731 408 683T461 552Q461 499 439 459T362 373Q309 327 292 282T274 181H236V184Q236 246 256 294T328 390Q378 436 400 473T423 552Q423 621 378 657T262 693Q177 693 130 640T81 493H43Q43 607 102 669T265 731ZM231 103H282V0H231V103Z"  />
<glyph unicode="@" horiz-adv-x="800" d="M415 731Q507 731 585 691T709 581T754 420Q754 354 724 290T639 179T525 132Q497 132 479 150T459 203H457Q408 132 324 132Q270 132 233 174T195 283Q195 353 227 424T313 537T431 580Q476 580 505 554T543 489H545L568 560H609L505 241Q497 215 497 204Q497 190 508 180T537 170Q603 170 659 253T716 423Q716 537 628 617T417 698Q329 698 251 651T129 524T84 353Q84 217 183 117T419 16Q499 16 572 56T694 168H738Q694 85 607 34T419 -17Q318 -17 232 32T96 169T46 360Q46 457 95 543T231 680T415 731ZM233 287Q233 232 261 199T335 165Q377 165 419 206T489 312T517 429Q517 547 424 547Q376 547 332 509T261 408T233 287Z"  />
<glyph unicode="A" horiz-adv-x="593" d="M275 714H323L605 0H558L468 229H126L35 0H-12L275 714ZM299 671L140 267H454L301 671H299Z"  />
<glyph unicode="B" horiz-adv-x="630" d="M354 714Q458 714 516 665T574 529Q574 474 538 431T435 377L437 375Q514 365 556 316T598 200Q598 108 533 54T354 0H63V714H354ZM354 390Q435 390 482 428T530 537Q530 607 482 641T348 676H107V390H354ZM354 38Q449 38 501 80T554 200Q554 276 499 314T354 352H107V38H354Z"  />
<glyph unicode="C" horiz-adv-x="704" d="M376 731Q490 731 566 670T664 501H619Q606 586 538 639T376 693Q245 693 163 599T80 357Q80 211 161 116T375 21Q474 21 548 95T631 278H675Q664 154 580 69T375 -17Q221 -17 129 88T36 357Q36 521 129 626T376 731Z"  />
<glyph unicode="D" horiz-adv-x="667" d="M301 714Q454 714 540 625T627 358Q627 192 541 96T299 0H63V714H301ZM297 38Q431 38 507 121T583 358Q583 676 290 676H107V38H297Z"  />
<glyph unicode="E" horiz-adv-x="560" d="M543 714V676H107V390H517V352H107V38H548V0H63V714H543Z"  />
<glyph unicode="F" horiz-adv-x="514" d="M511 714V676H107V390H471V352H107V0H63V714H511Z"  />
<glyph unicode="G" horiz-adv-x="741" d="M374 731Q490 731 571 667T671 493H629Q603 588 538 640T375 693Q244 693 163 598T81 353Q81 204 161 113T375 21Q497 21 571 95T646 294V312H382V350H683V0H645V152H643Q615 74 543 29T373 -17Q221 -17 129 86T37 353Q37 458 78 545T196 681T374 731Z"  />
<glyph unicode="H" horiz-adv-x="670" d="M63 714H107V390H563V714H607V0H563V352H107V0H63V714Z"  />
<glyph unicode="I" horiz-adv-x="170" d="M63 714H107V0H63V714Z"  />
<glyph unicode="J" horiz-adv-x="481" d="M374 714H418V196Q418 86 370 35T222 -17Q116 -17 68 37T20 210V227H64Q63 211 63 195Q63 104 100 63T217 21Q300 21 337 61T374 201V714Z"  />
<glyph unicode="K" horiz-adv-x="613" d="M63 714H107V303L556 714H613L287 417L633 0H578L255 387L107 252V0H63V714Z"  />
<glyph unicode="L" horiz-adv-x="500" d="M63 714H107V38H512V0H63V714Z"  />
<glyph unicode="M" horiz-adv-x="809" d="M126 714L405 49H407L683 714H746V0H702V660H700L428 0H384L109 660H107V0H63V714H126Z"  />
<glyph unicode="N" horiz-adv-x="678" d="M63 714H118L569 59H571V714H615V0H563L109 660H107V0H63V714Z"  />
<glyph unicode="O" horiz-adv-x="741" d="M371 731Q521 731 615 628T710 357Q710 190 617 87T371 -17Q219 -17 125 86T31 357Q31 521 123 626T371 731ZM75 357Q75 209 156 115T371 21Q502 21 584 115T666 357Q666 501 585 597T370 693Q240 693 158 600T75 357Z"  />
<glyph unicode="P" horiz-adv-x="591" d="M370 714Q463 714 519 665T575 515Q575 417 516 368T351 318H107V0H63V714H370ZM362 356Q440 356 485 400T531 515Q531 590 487 633T362 676H107V356H362Z"  />
<glyph unicode="Q" horiz-adv-x="741" d="M371 731Q523 731 616 628T710 357Q710 177 603 74L714 -6L691 -37L573 48Q488 -17 371 -17Q219 -17 125 87T31 357Q31 522 125 626T371 731ZM75 357Q75 211 156 116T371 21Q470 21 538 74L430 151L453 182L568 99Q666 195 666 357Q666 501 585 597T370 693Q237 693 156 598T75 357Z"  />
<glyph unicode="R" horiz-adv-x="630" d="M364 714Q470 714 528 669T587 530Q587 458 547 409T434 347V345Q511 334 543 288T576 145V111Q576 21 597 0H548Q541 13 536 36T531 127Q531 191 528 207Q519 262 482 293T365 325H107V0H63V714H364ZM365 363Q445 363 494 404T543 527Q543 599 494 637T355 676H107V363H365Z"  />
<glyph unicode="S" horiz-adv-x="630" d="M300 731Q425 731 496 675T573 510H529Q526 598 464 645T300 693Q213 693 159 653T104 541Q104 485 146 449T342 383Q480 358 535 311T591 184Q591 94 522 39T339 -17Q197 -17 118 47T39 231V236H83V222Q83 123 151 72T339 21Q433 21 490 65T547 184Q547 249 497 287T310 350Q162 377 111 422T60 541Q60 629 126 680T300 731Z"  />
<glyph unicode="T" horiz-adv-x="519" d="M533 714V676H281V0H237V676H-14V714H533Z"  />
<glyph unicode="U" horiz-adv-x="672" d="M63 714H107V281Q107 158 162 90T332 21Q452 21 508 85T565 281V714H609V281Q609 -17 331 -17Q63 -17 63 281V714Z"  />
<glyph unicode="V" horiz-adv-x="556" d="M-14 714H32L277 38H279L526 714H570L303 0H252L-14 714Z"  />
<glyph unicode="W" horiz-adv-x="889" d="M39 714L225 47H227L416 714H471L663 47H665L848 714H895L690 0H640L444 676H442L249 0H200L-6 714H39Z"  />
<glyph unicode="X" horiz-adv-x="556" d="M1 714H52L278 400L509 714H559L307 367L573 0H520L278 334L35 0H-17L251 367L1 714Z"  />
<glyph unicode="Y" horiz-adv-x="574" d="M-21 714H29L287 336L546 714H595L308 299V0H264V299L-21 714Z"  />
<glyph unicode="Z" horiz-adv-x="537" d="M529 714V676L45 38H538V0H-1V38L481 676H28V714H529Z"  />
<glyph unicode="[" horiz-adv-x="241" d="M231 731V698H132V-151H231V-184H94V731H231Z"  />
<glyph unicode="\" horiz-adv-x="333" d="M-13 731H28L346 -17H305L-13 731Z"  />
<glyph unicode="]" horiz-adv-x="241" d="M147 731V-184H10V-151H109V698H10V731H147Z"  />
<glyph unicode="^" horiz-adv-x="600" d="M275 690H327L561 237H519L301 657L81 237H39L275 690Z"  />
<glyph unicode="_" horiz-adv-x="500" d="M500 -75V-125H0V-75H500Z"  />
<glyph unicode="`" horiz-adv-x="167" d="M-30 730H21L141 590H104L-30 730Z"  />
<glyph unicode="a" horiz-adv-x="500" d="M257 526Q351 526 393 489T435 396V79Q435 33 469 33Q480 33 497 36V4Q483 0 466 0Q428 0 413 17T397 69V102H395Q373 48 321 18T204 -12Q32 -12 32 133Q32 202 79 241T245 287Q350 294 374 311T398 386Q398 493 255 493Q186 493 144 460T97 356H59Q67 526 257 526ZM70 133Q70 79 104 50T205 21Q296 21 346 73T397 206V292Q381 274 349 268T247 256Q144 248 107 218T70 133Z"  />
<glyph unicode="b" horiz-adv-x="556" d="M65 714H103V405H105Q126 462 179 494T300 526Q403 526 463 458T523 269Q523 137 464 63T299 -12Q231 -12 176 24T105 115H103V0H65V714ZM104 269Q104 155 157 88T300 21Q385 21 435 87T485 269Q485 368 433 430T298 493Q207 493 156 433T104 269Z"  />
<glyph unicode="c" horiz-adv-x="519" d="M269 526Q359 526 416 481T481 355H443Q437 421 389 457T269 493Q183 493 127 429T71 262Q71 148 124 85T269 21Q339 21 389 66T448 181H486Q474 91 414 40T269 -12Q159 -12 96 61T33 262Q33 378 97 452T269 526Z"  />
<glyph unicode="d" horiz-adv-x="556" d="M453 714H491V0H453V110H451Q385 -12 254 -12Q150 -12 91 61T32 256Q32 383 93 454T261 526Q330 526 380 491T451 399H453V714ZM70 256Q70 152 121 87T262 21Q347 21 399 86T452 256Q452 363 399 428T260 493Q169 493 120 428T70 256Z"  />
<glyph unicode="e" horiz-adv-x="519" d="M265 526Q367 526 427 455T487 268L486 252H71Q71 143 122 82T260 21Q407 21 444 174H482Q444 -12 259 -12Q153 -12 93 60T32 253Q32 375 95 450T265 526ZM448 285Q444 378 394 435T264 493Q184 493 132 437T72 285H448Z"  />
<glyph unicode="f" horiz-adv-x="241" d="M205 722Q226 722 250 717V684Q221 689 205 689Q130 689 130 619V514H237V481H130V0H92V481H0V514H92V621Q92 671 123 696T205 722Z"  />
<glyph unicode="g" horiz-adv-x="537" d="M255 526Q318 526 369 494T441 407H443V514H481V23Q481 -79 428 -137T260 -196Q66 -196 58 -36H96Q102 -100 146 -131T260 -163Q352 -163 397 -114T443 15V136H441Q385 19 255 19Q150 19 92 87T33 273Q33 385 94 455T255 526ZM71 273Q71 175 121 114T255 52Q338 52 390 112T442 273Q442 374 391 433T254 493Q173 493 122 431T71 273Z"  />
<glyph unicode="h" horiz-adv-x="519" d="M56 714H94V404H96Q116 459 165 492T280 526Q463 526 463 325V0H425V330Q425 493 279 493Q197 493 146 436T94 282V0H56V714Z"  />
<glyph unicode="i" horiz-adv-x="168" d="M65 714H103V611H65V714ZM65 514H103V0H65V514Z"  />
<glyph unicode="j" horiz-adv-x="168" d="M65 714H103V611H65V714ZM65 514H103V-57Q103 -125 77 -154T-5 -184Q-21 -184 -34 -183V-150Q-20 -152 -7 -152Q34 -152 49 -129T65 -56V514Z"  />
<glyph unicode="k" horiz-adv-x="463" d="M58 714H96V241L413 514H468L243 322L484 0H432L213 293L96 194V0H58V714Z"  />
<glyph unicode="l" horiz-adv-x="168" d="M65 714H103V0H65V714Z"  />
<glyph unicode="m" horiz-adv-x="796" d="M258 526Q320 526 360 498T413 417H415Q441 475 480 500T578 526Q654 526 696 480T739 354V0H701V357Q701 423 667 458T578 493Q503 493 460 443T417 308V0H379V357Q379 424 345 458T258 493Q189 493 142 440T95 310V0H57V514H95V409H97Q111 461 157 493T258 526Z"  />
<glyph unicode="n" horiz-adv-x="519" d="M280 526Q463 526 463 326V0H425V330Q425 493 279 493Q196 493 145 434T94 277V0H56V514H94V404H96Q116 461 167 493T280 526Z"  />
<glyph unicode="o" horiz-adv-x="537" d="M268 526Q374 526 439 451T504 257Q504 138 440 63T268 -12Q162 -12 97 62T32 257Q32 376 97 451T268 526ZM70 257Q70 156 124 89T268 21Q355 21 410 86T466 257Q466 360 411 426T267 493Q180 493 125 426T70 257Z"  />
<glyph unicode="p" horiz-adv-x="556" d="M292 526Q399 526 461 451T523 256Q523 130 464 59T292 -12Q149 -12 105 107H103V-184H65V514H103V396H105Q125 454 174 490T292 526ZM104 256Q104 142 151 82T292 21Q382 21 433 84T485 256Q485 362 433 427T291 493Q202 493 153 430T104 256Z"  />
<glyph unicode="q" horiz-adv-x="556" d="M254 526Q388 526 451 404H453V514H491V-184H453V115H451Q430 54 377 21T261 -12Q152 -12 92 61T32 258Q32 380 91 453T254 526ZM70 258Q70 150 120 86T261 21Q347 21 399 86T452 258Q452 363 400 428T261 493Q174 493 122 428T70 258Z"  />
<glyph unicode="r" horiz-adv-x="278" d="M294 517V479L277 480Q203 480 149 425T94 282V0H56V514H94V400H97Q110 448 163 482T288 517H294Z"  />
<glyph unicode="s" horiz-adv-x="481" d="M240 526Q331 526 380 484T430 362H392Q392 426 352 459T240 493Q177 493 135 468T92 394Q92 353 125 326Q155 302 287 276Q370 259 407 226T445 130Q445 60 390 24T244 -12Q151 -12 95 36T36 171H74Q78 102 124 62T244 21Q319 21 363 48T407 130Q407 175 374 201T233 248Q135 265 95 299T54 394Q54 457 104 491T240 526Z"  />
<glyph unicode="t" horiz-adv-x="259" d="M95 674H133V514H245V481H133V118Q133 76 151 55T217 33H244V0Q231 -1 216 -1Q153 -1 124 26T95 111V481H0V514H95V674Z"  />
<glyph unicode="u" horiz-adv-x="519" d="M56 514H94V184Q94 21 240 21Q323 21 374 79T425 233V514H463V0H425V110H423Q401 51 350 20T238 -12Q56 -12 56 185V514Z"  />
<glyph unicode="v" horiz-adv-x="444" d="M-2 514H42L228 44H230L404 514H446L252 0H205L-2 514Z"  />
<glyph unicode="w" horiz-adv-x="704" d="M-2 514H39L184 44H186L326 514H377L518 44H520L664 514H706L541 0H494L353 466H351L209 0H161L-2 514Z"  />
<glyph unicode="x" horiz-adv-x="444" d="M8 514H61L222 299L384 514H433L247 270L450 0H398L222 241L42 0H-6L196 270L8 514Z"  />
<glyph unicode="y" horiz-adv-x="444" d="M-6 514H39L230 45L406 514H449L230 -52Q207 -110 191 -135T150 -172T61 -184H49V-151H57Q106 -151 133 -136T171 -97T209 3L-6 514Z"  />
<glyph unicode="z" horiz-adv-x="426" d="M401 514V478L55 33H417V0H9V36L354 481H36V514H401Z"  />
<glyph unicode="{" horiz-adv-x="333" d="M293 731V698H244Q216 698 205 677T193 601V434Q193 311 123 276Q158 252 175 215T193 112V-54Q193 -105 203 -128T243 -151H293V-184H240Q195 -184 175 -156T155 -70V99Q155 250 83 254V292Q155 296 155 447V615Q155 672 174 701T242 731H293Z"  />
<glyph unicode="|" horiz-adv-x="222" d="M92 786H130V-214H92V786Z"  />
<glyph unicode="}" horiz-adv-x="333" d="M40 731H92Q140 731 159 702T178 617V452Q178 295 250 292V254Q178 249 178 94V-70Q178 -127 158 -155T93 -184H40V-151H90Q118 -151 129 -129T140 -54V109Q140 232 210 276Q140 311 140 437V601Q140 655 129 676T89 698H40V731Z"  />
<glyph unicode="~" horiz-adv-x="600" d="M528 284Q475 199 407 199Q365 199 299 233Q235 267 201 267Q135 267 102 192L73 222Q100 267 128 286T195 305Q245 305 308 271Q370 237 408 237Q434 237 458 259T500 312L528 284Z"  />
<glyph unicode="&#xA0;" horiz-adv-x="278" />
<glyph unicode="&#xA1;" horiz-adv-x="259" d="M104 535H155V432H104V535ZM117 347H141L153 57V-184H105V57L117 347Z"  />
<glyph unicode="&#xA2;" horiz-adv-x="556" d="M272 615H304V526Q387 522 438 479T499 355H461Q456 414 416 450T304 493V21Q370 27 412 70T466 181H504Q493 99 441 47T304 -12V-118H272V-12Q167 -6 109 67T51 262Q51 376 112 448T272 526V615ZM89 262Q89 159 135 94T272 21V493Q190 487 140 422T89 262Z"  />
<glyph unicode="&#xA3;" horiz-adv-x="556" d="M277 731Q512 731 512 495V484H474Q472 591 425 642T278 693Q190 693 139 653T88 541Q88 484 127 413L153 363H313V330H172Q195 293 195 223Q195 169 168 119T96 31L98 29Q151 65 192 65Q236 65 294 43Q350 21 387 21Q422 21 451 35T522 89L544 56Q473 -17 393 -17Q346 -17 285 5Q225 27 189 27Q134 27 69 -17L44 17Q107 77 132 125T157 224Q157 280 128 330H50V363H110Q76 423 63 462T50 539Q50 626 114 678T277 731Z"  />
<glyph unicode="&#xA4;" horiz-adv-x="556" d="M277 593Q367 593 439 532L493 587L520 560L465 506Q526 434 526 345Q526 248 465 185L519 131L492 104L439 158Q367 97 277 97Q189 97 117 158L62 102L35 129L91 184Q30 258 30 347Q30 435 91 506L34 562L61 589L117 533Q189 593 277 593ZM74 345Q74 259 135 197T278 135Q361 135 421 197T482 345Q482 429 421 492T277 555Q195 555 135 492T74 345Z"  />
<glyph unicode="&#xA5;" horiz-adv-x="556" d="M41 714L279 340L518 714H563L325 342H417V309H297V231H417V198H297V0H259V198H139V231H259V309H139V342H231L-7 714H41Z"  />
<glyph unicode="&#xA6;" horiz-adv-x="222" d="M92 661H130V411H92V661ZM92 161H130V-89H92V161Z"  />
<glyph unicode="&#xA7;" horiz-adv-x="556" d="M137 9Q139 -63 176 -107T280 -151Q411 -151 411 -46Q411 -3 381 33T286 104Q132 186 92 230T52 331Q52 429 163 471Q137 489 123 520T108 585Q108 648 154 689T273 731Q445 731 449 536H411V542Q411 609 373 653T270 698Q221 698 184 667T147 591Q147 557 164 529T213 478T327 412Q427 362 465 316T503 212Q503 106 392 77Q429 40 439 15T449 -45Q449 -114 404 -149T280 -184Q198 -184 149 -132T99 9H137ZM364 100Q403 108 434 140T465 210Q465 252 435 287T334 362L187 449Q139 430 115 401T90 337Q90 268 180 213L364 100Z"  />
<glyph unicode="&#xA8;" horiz-adv-x="167" d="M-18 706H26V603H-18V706ZM140 706H184V603H140V706Z"  />
<glyph unicode="&#xA9;" horiz-adv-x="800" d="M400 731Q498 731 585 682T723 545T774 357Q774 258 724 170T588 33T400 -17Q300 -17 213 33T76 170T26 357Q26 456 76 543T213 680T400 731ZM64 358Q64 266 107 187T229 62T401 16Q538 16 637 113T736 358Q736 501 641 599T399 698Q259 698 162 602T64 358ZM408 593Q484 593 537 551T599 438H561Q549 498 507 529T409 560Q323 560 273 505T223 359Q223 266 278 210T411 153Q528 153 561 281H599Q589 209 538 165T411 120Q311 120 248 186T185 358Q185 464 246 528T408 593Z"  />
<glyph unicode="&#xAA;" horiz-adv-x="310" d="M161 702Q282 702 282 619V426Q282 402 301 402Q311 402 318 404V377Q306 375 298 375Q275 375 264 384T253 418V434H251Q242 406 210 386T127 366Q68 366 41 389T13 462Q13 504 40 528T138 557Q216 563 233 572T251 621Q251 647 226 661T159 675Q116 675 90 655T61 597V596H29Q41 702 161 702ZM45 462Q45 431 66 412T125 393Q184 393 217 423T250 503V554Q235 536 169 533Q103 529 74 514T45 462Z"  />
<glyph unicode="&#xAB;" horiz-adv-x="389" d="M181 423V372L96 272L181 170V121L67 252V292L181 423ZM309 423V372L224 272L309 170V121L195 252V292L309 423Z"  />
<glyph unicode="&#xAC;" horiz-adv-x="600" d="M552 369V108H514V331H48V369H552Z"  />
<glyph unicode="&#xAD;" horiz-adv-x="352" d="M283 291V253H69V291H283Z"  />
<glyph unicode="&#xAE;" horiz-adv-x="800" d="M400 731Q499 731 585 682T723 547T774 357Q774 257 725 171T588 34T400 -17Q301 -17 215 32T77 167T26 357Q26 456 75 543T211 681T400 731ZM64 357Q64 265 108 186T230 62T401 16Q491 16 568 60T690 184T736 358Q736 502 641 600T399 698Q260 698 162 601T64 357ZM433 578Q574 578 574 457Q574 355 460 339L592 136H550L417 340H302V136H264V578H433ZM402 373Q474 373 505 393T536 458Q536 503 505 524T426 545H302V373H402Z"  />
<glyph unicode="&#xAF;" horiz-adv-x="167" d="M205 671V638H-37V671H205Z"  />
<glyph unicode="&#xB0;" horiz-adv-x="400" d="M200 702Q259 702 301 661T343 559Q343 500 303 458T200 416Q141 416 99 456T57 559Q57 621 99 661T200 702ZM95 559Q95 511 125 480T200 449Q243 449 274 481T305 559Q305 605 274 637T200 669Q157 669 126 637T95 559Z"  />
<glyph unicode="&#xB1;" horiz-adv-x="600" d="M281 504H319V315H552V277H319V88H281V277H48V315H281V504ZM552 38V0H48V38H552Z"  />
<glyph unicode="&#xB2;" horiz-adv-x="360" d="M186 829Q244 829 279 797T314 707Q314 631 241 583L165 533Q125 507 104 484T77 428H313V397H40Q43 454 68 489T147 558L221 606Q280 646 280 708Q280 750 254 774T186 799Q85 799 81 686H47Q47 753 84 791T186 829Z"  />
<glyph unicode="&#xB3;" horiz-adv-x="360" d="M184 829Q242 829 275 799T308 717Q308 682 287 657T231 623Q276 617 300 588T325 517Q325 458 285 423T179 388Q112 388 74 424T36 524V527H70Q70 475 98 447T178 418Q230 418 260 443T291 516Q291 554 265 579T178 605H150V636H179Q221 636 247 657T274 716Q274 756 251 777T183 799Q84 799 80 697H46Q48 760 84 794T184 829Z"  />
<glyph unicode="&#xB4;" horiz-adv-x="167" d="M146 730H197L63 590H26L146 730Z"  />
<glyph unicode="&#xB5;" horiz-adv-x="528" d="M65 514H103V184Q103 21 249 21Q331 21 382 79T434 232V514H472V0H434V110H432Q410 52 361 20T248 -12Q146 -12 103 56V-184H65V514Z"  />
<glyph unicode="&#xB6;" horiz-adv-x="600" d="M506 714V-146H468V681H311V-146H273V324Q188 324 127 380T66 519Q66 613 123 663T284 714H506Z"  />
<glyph unicode="&#xB7;" horiz-adv-x="278" d="M139 371Q161 371 177 355T194 317Q194 294 178 278T139 262Q117 262 101 278T85 317Q85 337 101 354T139 371Z"  />
<glyph unicode="&#xB8;" horiz-adv-x="167" d="M83 0H117L69 -56L70 -57Q88 -50 108 -50Q143 -50 162 -68T182 -117Q182 -153 157 -174T84 -196Q33 -196 -8 -171L3 -147Q44 -169 83 -169Q112 -169 128 -155T144 -119Q144 -100 130 -88T92 -76Q69 -76 43 -88L27 -75L83 0Z"  />
<glyph unicode="&#xB9;" horiz-adv-x="360" d="M219 820V397H185V759Q136 712 66 706V736Q159 749 192 820H219Z"  />
<glyph unicode="&#xBA;" horiz-adv-x="334" d="M167 702Q239 702 282 656T325 534Q325 459 283 413T167 366Q93 366 51 412T9 534Q9 609 52 655T167 702ZM41 534Q41 470 75 432T167 393Q226 393 259 431T293 534Q293 598 260 636T166 675Q109 675 75 637T41 534Z"  />
<glyph unicode="&#xBB;" horiz-adv-x="389" d="M80 423L194 292V252L80 121V170L165 272L80 372V423ZM208 423L322 292V252L208 121V170L293 272L208 372V423Z"  />
<glyph unicode="&#xBC;" horiz-adv-x="834" d="M211 697V274H177V636Q128 589 58 583V613Q151 626 184 697H211ZM653 423H684V132H752V101H684V0H650V101H435V132L653 423ZM650 372L469 132H650V372ZM594 714H634L169 -24H129L594 714Z"  />
<glyph unicode="&#xBD;" horiz-adv-x="834" d="M211 697V274H177V636Q128 589 58 583V613Q151 626 184 697H211ZM633 432Q691 432 726 400T761 310Q761 234 688 186L612 136Q572 110 551 87T524 31H760V0H487Q490 57 515 92T594 161L668 209Q727 249 727 311Q727 353 701 377T633 402Q532 402 528 289H494Q494 356 531 394T633 432ZM580 714H620L155 -24H115L580 714Z"  />
<glyph unicode="&#xBE;" horiz-adv-x="834" d="M222 706Q280 706 313 676T346 594Q346 559 325 534T269 500Q314 494 338 465T363 394Q363 335 323 300T217 265Q150 265 112 301T74 401V404H108Q108 352 136 324T216 295Q268 295 298 320T329 393Q329 431 303 456T216 482H188V513H217Q259 513 285 534T312 593Q312 633 289 654T221 676Q122 676 118 574H84Q86 637 122 671T222 706ZM674 423H705V132H773V101H705V0H671V101H456V132L674 423ZM671 372L490 132H671V372ZM677 714H717L252 -24H212L677 714Z"  />
<glyph unicode="&#xBF;" horiz-adv-x="519" d="M236 535H287V432H236V535ZM282 354Q282 291 262 242T191 146Q138 98 117 61T95 -17Q95 -83 139 -120T256 -158Q341 -158 388 -105T437 42H475Q474 -71 416 -133T253 -196Q164 -196 111 -149T57 -17Q57 36 79 74T164 169Q209 210 226 252T244 354H282Z"  />
<glyph unicode="&#xC0;" horiz-adv-x="593" d="M275 714H323L605 0H558L468 229H126L35 0H-12L275 714ZM299 671L140 267H454L301 671H299ZM156 920H207L327 780H290L156 920Z"  />
<glyph unicode="&#xC1;" horiz-adv-x="593" d="M275 714H323L605 0H558L468 229H126L35 0H-12L275 714ZM299 671L140 267H454L301 671H299ZM394 920H445L311 780H274L394 920Z"  />
<glyph unicode="&#xC2;" horiz-adv-x="593" d="M275 714H323L605 0H558L468 229H126L35 0H-12L275 714ZM299 671L140 267H454L301 671H299ZM280 920H320L436 780H398L300 895L203 780H165L280 920Z"  />
<glyph unicode="&#xC3;" horiz-adv-x="593" d="M275 714H323L605 0H558L468 229H126L35 0H-12L275 714ZM299 671L140 267H454L301 671H299ZM233 889Q263 889 307 860Q349 832 370 832Q406 832 415 889H444Q438 843 418 821T368 799Q340 799 294 831Q257 856 231 856Q195 856 184 799H155Q158 838 180 863T233 889Z"  />
<glyph unicode="&#xC4;" horiz-adv-x="593" d="M275 714H323L605 0H558L468 229H126L35 0H-12L275 714ZM299 671L140 267H454L301 671H299ZM199 896H243V793H199V896ZM357 896H401V793H357V896Z"  />
<glyph unicode="&#xC5;" horiz-adv-x="593" d="M275 714H323L605 0H558L468 229H126L35 0H-12L275 714ZM299 671L140 267H454L301 671H299ZM300 949Q342 949 370 921T399 850Q399 807 371 779T300 751Q258 751 230 779T201 850Q201 892 229 920T300 949ZM228 850Q228 819 249 799T300 778Q331 778 351 799T372 850Q372 881 351 901T300 922Q272 922 250 902T228 850Z"  />
<glyph unicode="&#xC6;" horiz-adv-x="870" d="M854 714V676H475V390H825V352H475V38H855V0H431V254H163L31 0H-9L364 714H854ZM384 676L183 292H431V676H384Z"  />
<glyph unicode="&#xC7;" horiz-adv-x="704" d="M376 731Q491 731 568 669T663 501H619Q606 586 538 639T376 693Q244 693 162 599T80 357Q80 210 161 116T375 21Q477 21 550 96T631 278H675Q663 149 580 67T375 -17L342 -56L343 -57Q361 -50 381 -50Q414 -50 434 -67T455 -117Q455 -154 430 -175T357 -196Q305 -196 265 -171L276 -147Q317 -169 356 -169Q385 -169 401 -155T417 -119Q417 -99 403 -88T365 -76Q343 -76 316 -88L300 -75L344 -16Q205 -4 121 98T36 357Q36 463 77 548T197 682T376 731Z"  />
<glyph unicode="&#xC8;" horiz-adv-x="560" d="M543 714V676H107V390H517V352H107V38H548V0H63V714H543ZM164 920H215L335 780H298L164 920Z"  />
<glyph unicode="&#xC9;" horiz-adv-x="560" d="M543 714V676H107V390H517V352H107V38H548V0H63V714H543ZM382 920H433L299 780H262L382 920Z"  />
<glyph unicode="&#xCA;" horiz-adv-x="560" d="M543 714V676H107V390H517V352H107V38H548V0H63V714H543ZM278 920H318L434 780H396L298 895L201 780H163L278 920Z"  />
<glyph unicode="&#xCB;" horiz-adv-x="560" d="M543 714V676H107V390H517V352H107V38H548V0H63V714H543ZM197 896H241V793H197V896ZM355 896H399V793H355V896Z"  />
<glyph unicode="&#xCC;" horiz-adv-x="170" d="M63 714H107V0H63V714ZM-58 920H-7L113 780H76L-58 920Z"  />
<glyph unicode="&#xCD;" horiz-adv-x="170" d="M63 714H107V0H63V714ZM179 920H230L96 780H59L179 920Z"  />
<glyph unicode="&#xCE;" horiz-adv-x="170" d="M63 714H107V0H63V714ZM65 920H105L221 780H183L85 895L-12 780H-50L65 920Z"  />
<glyph unicode="&#xCF;" horiz-adv-x="170" d="M63 714H107V0H63V714ZM-16 896H28V793H-16V896ZM142 896H186V793H142V896Z"  />
<glyph unicode="&#xD0;" horiz-adv-x="667" d="M302 714Q456 714 541 624T627 358Q627 189 541 95T300 0H63V355H-13V388H63V714H302ZM353 388V355H107V38H298Q433 38 508 122T583 358Q583 676 290 676H107V388H353Z"  />
<glyph unicode="&#xD1;" horiz-adv-x="678" d="M63 714H118L569 59H571V714H615V0H563L109 660H107V0H63V714ZM277 889Q307 889 351 860Q393 832 414 832Q450 832 459 889H488Q482 843 462 821T412 799Q384 799 338 831Q301 856 275 856Q239 856 228 799H199Q202 838 224 863T277 889Z"  />
<glyph unicode="&#xD2;" horiz-adv-x="741" d="M371 731Q521 731 615 628T710 357Q710 190 617 87T371 -17Q219 -17 125 86T31 357Q31 521 123 626T371 731ZM75 357Q75 209 156 115T371 21Q502 21 584 115T666 357Q666 501 585 597T370 693Q240 693 158 600T75 357ZM237 920H288L408 780H371L237 920Z"  />
<glyph unicode="&#xD3;" horiz-adv-x="741" d="M371 731Q521 731 615 628T710 357Q710 190 617 87T371 -17Q219 -17 125 86T31 357Q31 521 123 626T371 731ZM75 357Q75 209 156 115T371 21Q502 21 584 115T666 357Q666 501 585 597T370 693Q240 693 158 600T75 357ZM455 920H506L372 780H335L455 920Z"  />
<glyph unicode="&#xD4;" horiz-adv-x="741" d="M371 731Q521 731 615 628T710 357Q710 190 617 87T371 -17Q219 -17 125 86T31 357Q31 521 123 626T371 731ZM75 357Q75 209 156 115T371 21Q502 21 584 115T666 357Q666 501 585 597T370 693Q240 693 158 600T75 357ZM351 920H391L507 780H469L371 895L274 780H236L351 920Z"  />
<glyph unicode="&#xD5;" horiz-adv-x="741" d="M371 731Q521 731 615 628T710 357Q710 190 617 87T371 -17Q219 -17 125 86T31 357Q31 521 123 626T371 731ZM75 357Q75 209 156 115T371 21Q502 21 584 115T666 357Q666 501 585 597T370 693Q240 693 158 600T75 357ZM304 889Q334 889 378 860Q420 832 441 832Q477 832 486 889H515Q509 843 489 821T439 799Q411 799 365 831Q328 856 302 856Q266 856 255 799H226Q229 838 251 863T304 889Z"  />
<glyph unicode="&#xD6;" horiz-adv-x="741" d="M371 731Q521 731 615 628T710 357Q710 190 617 87T371 -17Q219 -17 125 86T31 357Q31 521 123 626T371 731ZM75 357Q75 209 156 115T371 21Q502 21 584 115T666 357Q666 501 585 597T370 693Q240 693 158 600T75 357ZM270 896H314V793H270V896ZM428 896H472V793H428V896Z"  />
<glyph unicode="&#xD7;" horiz-adv-x="600" d="M300 279L494 474L521 447L327 252L521 58L494 31L300 226L105 31L79 58L273 252L79 447L105 474L300 279Z"  />
<glyph unicode="&#xD8;" horiz-adv-x="741" d="M371 731Q509 731 603 640L671 714L697 690L627 614Q710 513 710 357Q710 193 618 88T371 -17Q223 -17 136 76L60 -8L34 16L113 102Q31 207 31 357Q31 522 125 626T371 731ZM75 357Q75 225 143 134L575 609Q493 693 370 693Q239 693 157 599T75 357ZM165 108Q246 21 371 21Q502 21 584 115T666 357Q666 490 598 582L165 108Z"  />
<glyph unicode="&#xD9;" horiz-adv-x="672" d="M63 714H107V281Q107 158 162 90T332 21Q452 21 508 85T565 281V714H609V281Q609 -17 331 -17Q63 -17 63 281V714ZM202 920H253L373 780H336L202 920Z"  />
<glyph unicode="&#xDA;" horiz-adv-x="672" d="M63 714H107V281Q107 158 162 90T332 21Q452 21 508 85T565 281V714H609V281Q609 -17 331 -17Q63 -17 63 281V714ZM420 920H471L337 780H300L420 920Z"  />
<glyph unicode="&#xDB;" horiz-adv-x="672" d="M63 714H107V281Q107 158 162 90T332 21Q452 21 508 85T565 281V714H609V281Q609 -17 331 -17Q63 -17 63 281V714ZM316 920H356L472 780H434L336 895L239 780H201L316 920Z"  />
<glyph unicode="&#xDC;" horiz-adv-x="672" d="M63 714H107V281Q107 158 162 90T332 21Q452 21 508 85T565 281V714H609V281Q609 -17 331 -17Q63 -17 63 281V714ZM235 896H279V793H235V896ZM393 896H437V793H393V896Z"  />
<glyph unicode="&#xDD;" horiz-adv-x="574" d="M-21 714H29L287 336L546 714H595L308 299V0H264V299L-21 714ZM372 920H423L289 780H252L372 920Z"  />
<glyph unicode="&#xDE;" horiz-adv-x="593" d="M63 714H107V594H369Q468 594 521 542T575 395Q575 298 516 248T354 198H107V0H63V714ZM358 236Q439 236 485 279T531 396Q531 469 487 512T367 556H107V236H358Z"  />
<glyph unicode="&#xDF;" horiz-adv-x="500" d="M240 726Q326 726 377 682T428 560Q428 430 309 403V401Q384 392 423 344T463 214Q463 111 411 56T266 0H207V33H224Q285 33 314 42Q425 77 425 214Q425 299 374 338T207 378V412Q298 414 344 452T390 560Q390 623 348 658T240 693Q96 693 96 536V0H58V537Q58 726 240 726Z"  />
<glyph unicode="&#xE0;" horiz-adv-x="500" d="M257 526Q351 526 393 489T435 396V79Q435 33 469 33Q480 33 497 36V4Q483 0 466 0Q428 0 413 17T397 69V102H395Q373 48 321 18T204 -12Q32 -12 32 133Q32 202 79 241T245 287Q350 294 374 311T398 386Q398 493 255 493Q186 493 144 460T97 356H59Q67 526 257 526ZM70 133Q70 79 104 50T205 21Q296 21 346 73T397 206V292Q381 274 349 268T247 256Q144 248 107 218T70 133ZM123 730H174L294 590H257L123 730Z"  />
<glyph unicode="&#xE1;" horiz-adv-x="500" d="M257 526Q351 526 393 489T435 396V79Q435 33 469 33Q480 33 497 36V4Q483 0 466 0Q428 0 413 17T397 69V102H395Q373 48 321 18T204 -12Q32 -12 32 133Q32 202 79 241T245 287Q350 294 374 311T398 386Q398 493 255 493Q186 493 144 460T97 356H59Q67 526 257 526ZM70 133Q70 79 104 50T205 21Q296 21 346 73T397 206V292Q381 274 349 268T247 256Q144 248 107 218T70 133ZM341 730H392L258 590H221L341 730Z"  />
<glyph unicode="&#xE2;" horiz-adv-x="500" d="M257 526Q351 526 393 489T435 396V79Q435 33 469 33Q480 33 497 36V4Q483 0 466 0Q428 0 413 17T397 69V102H395Q373 48 321 18T204 -12Q32 -12 32 133Q32 202 79 241T245 287Q350 294 374 311T398 386Q398 493 255 493Q186 493 144 460T97 356H59Q67 526 257 526ZM70 133Q70 79 104 50T205 21Q296 21 346 73T397 206V292Q381 274 349 268T247 256Q144 248 107 218T70 133ZM237 730H277L393 590H355L257 705L160 590H122L237 730Z"  />
<glyph unicode="&#xE3;" horiz-adv-x="500" d="M257 526Q351 526 393 489T435 396V79Q435 33 469 33Q480 33 497 36V4Q483 0 466 0Q428 0 413 17T397 69V102H395Q373 48 321 18T204 -12Q32 -12 32 133Q32 202 79 241T245 287Q350 294 374 311T398 386Q398 493 255 493Q186 493 144 460T97 356H59Q67 526 257 526ZM70 133Q70 79 104 50T205 21Q296 21 346 73T397 206V292Q381 274 349 268T247 256Q144 248 107 218T70 133ZM190 699Q220 699 264 670Q306 642 327 642Q363 642 372 699H401Q395 653 375 631T325 609Q297 609 251 641Q214 666 188 666Q152 666 141 609H112Q115 648 137 673T190 699Z"  />
<glyph unicode="&#xE4;" horiz-adv-x="500" d="M257 526Q351 526 393 489T435 396V79Q435 33 469 33Q480 33 497 36V4Q483 0 466 0Q428 0 413 17T397 69V102H395Q373 48 321 18T204 -12Q32 -12 32 133Q32 202 79 241T245 287Q350 294 374 311T398 386Q398 493 255 493Q186 493 144 460T97 356H59Q67 526 257 526ZM70 133Q70 79 104 50T205 21Q296 21 346 73T397 206V292Q381 274 349 268T247 256Q144 248 107 218T70 133ZM156 706H200V603H156V706ZM314 706H358V603H314V706Z"  />
<glyph unicode="&#xE5;" horiz-adv-x="500" d="M257 526Q351 526 393 489T435 396V79Q435 33 469 33Q480 33 497 36V4Q483 0 466 0Q428 0 413 17T397 69V102H395Q373 48 321 18T204 -12Q32 -12 32 133Q32 202 79 241T245 287Q350 294 374 311T398 386Q398 493 255 493Q186 493 144 460T97 356H59Q67 526 257 526ZM70 133Q70 79 104 50T205 21Q296 21 346 73T397 206V292Q381 274 349 268T247 256Q144 248 107 218T70 133ZM257 769Q299 769 327 741T356 670Q356 627 328 599T257 571Q215 571 187 599T158 670Q158 712 186 740T257 769ZM185 670Q185 640 206 619T257 598Q288 598 308 619T329 670Q329 700 308 721T257 742Q229 742 207 722T185 670Z"  />
<glyph unicode="&#xE6;" horiz-adv-x="889" d="M256 526Q426 526 436 396V395H438Q487 526 633 526Q733 526 795 460T857 283L856 252H445Q444 237 444 226Q446 133 497 77T633 21Q706 21 753 59T812 171H850Q836 83 779 36T633 -12Q556 -12 502 24T427 137H425Q401 68 346 28T216 -12Q130 -12 81 26T32 131Q32 258 172 278Q197 282 241 285T302 289Q362 293 384 310T406 368Q406 431 372 462T256 493Q183 493 140 459T92 354V353H54Q69 526 256 526ZM818 285V291Q818 378 766 435T632 493Q555 493 504 441T444 285H818ZM404 289Q395 274 363 267T252 256Q148 251 109 221T70 131Q70 79 110 50T216 21Q292 21 349 75T406 203V289H404Z"  />
<glyph unicode="&#xE7;" horiz-adv-x="519" d="M269 526Q362 526 418 480T481 355H443Q437 421 389 457T269 493Q182 493 127 427T71 262Q71 150 123 86T269 21Q339 21 389 66T448 181H486Q475 97 421 45T281 -12L243 -56L244 -57Q260 -50 282 -50Q314 -50 335 -67T356 -117Q356 -153 331 -174T258 -196Q206 -196 166 -171L177 -147Q218 -169 257 -169Q286 -169 302 -155T318 -119Q318 -100 304 -88T266 -76Q244 -76 217 -88L201 -75L248 -11Q147 -4 90 68T33 262Q33 380 98 453T269 526Z"  />
<glyph unicode="&#xE8;" horiz-adv-x="519" d="M265 526Q367 526 427 455T487 268L486 252H71Q71 143 122 82T260 21Q407 21 444 174H482Q444 -12 259 -12Q153 -12 93 60T32 253Q32 375 95 450T265 526ZM448 285Q444 378 394 435T264 493Q184 493 132 437T72 285H448ZM127 730H178L298 590H261L127 730Z"  />
<glyph unicode="&#xE9;" horiz-adv-x="519" d="M265 526Q367 526 427 455T487 268L486 252H71Q71 143 122 82T260 21Q407 21 444 174H482Q444 -12 259 -12Q153 -12 93 60T32 253Q32 375 95 450T265 526ZM448 285Q444 378 394 435T264 493Q184 493 132 437T72 285H448ZM345 730H396L262 590H225L345 730Z"  />
<glyph unicode="&#xEA;" horiz-adv-x="519" d="M265 526Q367 526 427 455T487 268L486 252H71Q71 143 122 82T260 21Q407 21 444 174H482Q444 -12 259 -12Q153 -12 93 60T32 253Q32 375 95 450T265 526ZM448 285Q444 378 394 435T264 493Q184 493 132 437T72 285H448ZM241 730H281L397 590H359L261 705L164 590H126L241 730Z"  />
<glyph unicode="&#xEB;" horiz-adv-x="519" d="M265 526Q367 526 427 455T487 268L486 252H71Q71 143 122 82T260 21Q407 21 444 174H482Q444 -12 259 -12Q153 -12 93 60T32 253Q32 375 95 450T265 526ZM448 285Q444 378 394 435T264 493Q184 493 132 437T72 285H448ZM160 706H204V603H160V706ZM318 706H362V603H318V706Z"  />
<glyph unicode="&#xEC;" horiz-adv-x="168" d="M65 514H103V0H65V514ZM-60 730H-9L111 590H74L-60 730Z"  />
<glyph unicode="&#xED;" horiz-adv-x="168" d="M65 514H103V0H65V514ZM179 730H230L96 590H59L179 730Z"  />
<glyph unicode="&#xEE;" horiz-adv-x="168" d="M65 514H103V0H65V514ZM64 730H104L220 590H182L84 705L-13 590H-51L64 730Z"  />
<glyph unicode="&#xEF;" horiz-adv-x="168" d="M65 514H103V0H65V514ZM-17 706H27V603H-17V706ZM141 706H185V603H141V706Z"  />
<glyph unicode="&#xF0;" horiz-adv-x="537" d="M179 731Q250 692 287 660L402 724L422 702L313 641Q410 563 457 468T504 250Q504 130 441 59T269 -12Q158 -12 95 57T32 249Q32 363 98 434T269 506Q322 506 360 489T432 432L434 434Q392 534 279 622L167 560L146 582L254 642Q227 663 195 683T151 707L179 731ZM70 249Q70 148 123 85T269 21Q361 21 413 82T466 249Q466 349 412 411T268 473Q181 473 126 410T70 249Z"  />
<glyph unicode="&#xF1;" horiz-adv-x="519" d="M280 526Q463 526 463 326V0H425V330Q425 493 279 493Q196 493 145 434T94 277V0H56V514H94V404H96Q116 461 167 493T280 526ZM193 699Q223 699 267 670Q309 642 330 642Q366 642 375 699H404Q398 653 378 631T328 609Q300 609 254 641Q217 666 191 666Q155 666 144 609H115Q118 648 140 673T193 699Z"  />
<glyph unicode="&#xF2;" horiz-adv-x="537" d="M268 526Q374 526 439 451T504 257Q504 138 440 63T268 -12Q162 -12 97 62T32 257Q32 376 97 451T268 526ZM70 257Q70 156 124 89T268 21Q355 21 410 86T466 257Q466 360 411 426T267 493Q180 493 125 426T70 257ZM139 730H190L310 590H273L139 730Z"  />
<glyph unicode="&#xF3;" horiz-adv-x="537" d="M268 526Q374 526 439 451T504 257Q504 138 440 63T268 -12Q162 -12 97 62T32 257Q32 376 97 451T268 526ZM70 257Q70 156 124 89T268 21Q355 21 410 86T466 257Q466 360 411 426T267 493Q180 493 125 426T70 257ZM347 730H398L264 590H227L347 730Z"  />
<glyph unicode="&#xF4;" horiz-adv-x="537" d="M268 526Q374 526 439 451T504 257Q504 138 440 63T268 -12Q162 -12 97 62T32 257Q32 376 97 451T268 526ZM70 257Q70 156 124 89T268 21Q355 21 410 86T466 257Q466 360 411 426T267 493Q180 493 125 426T70 257ZM248 730H288L404 590H366L268 705L171 590H133L248 730Z"  />
<glyph unicode="&#xF5;" horiz-adv-x="537" d="M268 526Q374 526 439 451T504 257Q504 138 440 63T268 -12Q162 -12 97 62T32 257Q32 376 97 451T268 526ZM70 257Q70 156 124 89T268 21Q355 21 410 86T466 257Q466 360 411 426T267 493Q180 493 125 426T70 257ZM201 699Q231 699 275 670Q317 642 338 642Q374 642 383 699H412Q406 653 386 631T336 609Q308 609 262 641Q225 666 199 666Q163 666 152 609H123Q126 648 148 673T201 699Z"  />
<glyph unicode="&#xF6;" horiz-adv-x="537" d="M268 526Q374 526 439 451T504 257Q504 138 440 63T268 -12Q162 -12 97 62T32 257Q32 376 97 451T268 526ZM70 257Q70 156 124 89T268 21Q355 21 410 86T466 257Q466 360 411 426T267 493Q180 493 125 426T70 257ZM167 706H211V603H167V706ZM325 706H369V603H325V706Z"  />
<glyph unicode="&#xF7;" horiz-adv-x="600" d="M301 504Q323 504 338 488T353 452Q353 432 338 417T301 401Q280 401 265 416T250 452Q250 472 264 488T301 504ZM552 271V233H48V271H552ZM301 103Q322 103 337 88T353 51Q353 30 338 15T301 0Q280 0 265 15T250 51Q250 72 265 87T301 103Z"  />
<glyph unicode="&#xF8;" horiz-adv-x="537" d="M268 526Q373 526 434 455L489 513L513 490L455 428Q504 351 504 257Q504 138 439 63T268 -12Q166 -12 103 57L49 0L25 23L82 84Q32 157 32 257Q32 377 97 451T268 526ZM70 257Q70 172 109 112L408 428Q357 493 267 493Q180 493 125 426T70 257ZM129 84Q183 21 268 21Q355 21 410 87T466 257Q466 339 428 400L129 84Z"  />
<glyph unicode="&#xF9;" horiz-adv-x="519" d="M56 514H94V184Q94 21 240 21Q323 21 374 79T425 233V514H463V0H425V110H423Q401 51 350 20T238 -12Q56 -12 56 185V514ZM125 730H176L296 590H259L125 730Z"  />
<glyph unicode="&#xFA;" horiz-adv-x="519" d="M56 514H94V184Q94 21 240 21Q323 21 374 79T425 233V514H463V0H425V110H423Q401 51 350 20T238 -12Q56 -12 56 185V514ZM343 730H394L260 590H223L343 730Z"  />
<glyph unicode="&#xFB;" horiz-adv-x="519" d="M56 514H94V184Q94 21 240 21Q323 21 374 79T425 233V514H463V0H425V110H423Q401 51 350 20T238 -12Q56 -12 56 185V514ZM239 730H279L395 590H357L259 705L162 590H124L239 730Z"  />
<glyph unicode="&#xFC;" horiz-adv-x="519" d="M56 514H94V184Q94 21 240 21Q323 21 374 79T425 233V514H463V0H425V110H423Q401 51 350 20T238 -12Q56 -12 56 185V514ZM158 706H202V603H158V706ZM316 706H360V603H316V706Z"  />
<glyph unicode="&#xFD;" horiz-adv-x="444" d="M-6 514H39L230 45L406 514H449L230 -52Q207 -110 191 -135T150 -172T61 -184H49V-151H57Q106 -151 133 -136T171 -97T209 3L-6 514ZM313 730H364L230 590H193L313 730Z"  />
<glyph unicode="&#xFE;" horiz-adv-x="556" d="M65 714H103V396H105Q125 453 174 489T292 526Q398 526 460 452T523 256Q523 128 463 58T292 -12Q149 -12 105 107H103V-184H65V714ZM104 256Q104 142 151 82T292 21Q382 21 433 84T485 256Q485 363 433 428T291 493Q202 493 153 430T104 256Z"  />
<glyph unicode="&#xFF;" horiz-adv-x="444" d="M-6 514H39L230 45L406 514H449L230 -52Q207 -110 191 -135T150 -172T61 -184H49V-151H57Q106 -151 133 -136T171 -97T209 3L-6 514ZM128 706H172V603H128V706ZM286 706H330V603H286V706Z"  />
<glyph unicode="&#x100;" horiz-adv-x="593" d="M275 714H323L605 0H558L468 229H126L35 0H-12L275 714ZM299 671L140 267H454L301 671H299ZM421 861V828H179V861H421Z"  />
<glyph unicode="&#x101;" horiz-adv-x="500" d="M257 526Q351 526 393 489T435 396V79Q435 33 469 33Q480 33 497 36V4Q483 0 466 0Q428 0 413 17T397 69V102H395Q373 48 321 18T204 -12Q32 -12 32 133Q32 202 79 241T245 287Q350 294 374 311T398 386Q398 493 255 493Q186 493 144 460T97 356H59Q67 526 257 526ZM70 133Q70 79 104 50T205 21Q296 21 346 73T397 206V292Q381 274 349 268T247 256Q144 248 107 218T70 133ZM378 671V638H136V671H378Z"  />
<glyph unicode="&#x102;" horiz-adv-x="593" d="M275 714H323L605 0H558L468 229H126L35 0H-12L275 714ZM299 671L140 267H454L301 671H299ZM198 910Q209 865 237 844T304 823Q341 823 368 845T403 910H436Q430 860 392 825T304 790Q247 790 210 822T165 910H198Z"  />
<glyph unicode="&#x103;" horiz-adv-x="500" d="M257 526Q351 526 393 489T435 396V79Q435 33 469 33Q480 33 497 36V4Q483 0 466 0Q428 0 413 17T397 69V102H395Q373 48 321 18T204 -12Q32 -12 32 133Q32 202 79 241T245 287Q350 294 374 311T398 386Q398 493 255 493Q186 493 144 460T97 356H59Q67 526 257 526ZM70 133Q70 79 104 50T205 21Q296 21 346 73T397 206V292Q381 274 349 268T247 256Q144 248 107 218T70 133ZM155 720Q166 675 194 654T261 633Q298 633 325 655T360 720H393Q387 670 349 635T261 600Q204 600 167 632T122 720H155Z"  />
<glyph unicode="&#x104;" horiz-adv-x="593" d="M275 714H323L605 0H583Q543 -35 522 -63T501 -121Q501 -140 513 -151T544 -163Q578 -163 602 -128L625 -136Q601 -196 539 -196Q500 -196 479 -178T457 -128Q457 -67 558 0L468 229H126L35 0H-12L275 714ZM299 671L140 267H454L301 671H299Z"  />
<glyph unicode="&#x105;" horiz-adv-x="500" d="M257 526Q351 526 393 489T435 396V85Q435 33 469 33Q480 33 497 36V4Q482 0 469 0H456Q416 -35 395 -63T374 -121Q374 -140 386 -151T417 -163Q452 -163 475 -128L498 -136Q472 -196 412 -196Q373 -196 352 -178T330 -128Q330 -66 437 3Q397 14 397 68V102H395Q373 48 322 18T204 -12Q32 -12 32 133Q32 183 56 216T123 265T255 288Q316 292 346 300T387 326T398 389Q398 493 255 493Q186 493 144 459T97 356H59Q67 526 257 526ZM70 133Q70 79 104 50T205 21Q264 21 307 44T374 110T397 199V292Q381 275 348 268T246 256Q141 248 106 217T70 133Z"  />
<glyph unicode="&#x106;" horiz-adv-x="704" d="M376 731Q490 731 566 670T664 501H619Q606 586 538 639T376 693Q245 693 163 599T80 357Q80 211 161 116T375 21Q474 21 548 95T631 278H675Q664 154 580 69T375 -17Q221 -17 129 88T36 357Q36 521 129 626T376 731ZM456 920H507L373 780H336L456 920Z"  />
<glyph unicode="&#x107;" horiz-adv-x="519" d="M269 526Q359 526 416 481T481 355H443Q437 421 389 457T269 493Q183 493 127 429T71 262Q71 148 124 85T269 21Q339 21 389 66T448 181H486Q474 91 414 40T269 -12Q159 -12 96 61T33 262Q33 378 97 452T269 526ZM352 730H403L269 590H232L352 730Z"  />
<glyph unicode="&#x108;" horiz-adv-x="704" d="M376 731Q490 731 566 670T664 501H619Q606 586 538 639T376 693Q245 693 163 599T80 357Q80 211 161 116T375 21Q474 21 548 95T631 278H675Q664 154 580 69T375 -17Q221 -17 129 88T36 357Q36 521 129 626T376 731ZM352 920H392L508 780H470L372 895L275 780H237L352 920Z"  />
<glyph unicode="&#x109;" horiz-adv-x="519" d="M269 526Q359 526 416 481T481 355H443Q437 421 389 457T269 493Q183 493 127 429T71 262Q71 148 124 85T269 21Q339 21 389 66T448 181H486Q474 91 414 40T269 -12Q159 -12 96 61T33 262Q33 378 97 452T269 526ZM248 730H288L404 590H366L268 705L171 590H133L248 730Z"  />
<glyph unicode="&#x10A;" horiz-adv-x="704" d="M376 731Q490 731 566 670T664 501H619Q606 586 538 639T376 693Q245 693 163 599T80 357Q80 211 161 116T375 21Q474 21 548 95T631 278H675Q664 154 580 69T375 -17Q221 -17 129 88T36 357Q36 521 129 626T376 731ZM351 896H395V793H351V896Z"  />
<glyph unicode="&#x10B;" horiz-adv-x="519" d="M269 526Q359 526 416 481T481 355H443Q437 421 389 457T269 493Q183 493 127 429T71 262Q71 148 124 85T269 21Q339 21 389 66T448 181H486Q474 91 414 40T269 -12Q159 -12 96 61T33 262Q33 378 97 452T269 526ZM246 706H290V603H246V706Z"  />
<glyph unicode="&#x10C;" horiz-adv-x="704" d="M376 731Q490 731 566 670T664 501H619Q606 586 538 639T376 693Q245 693 163 599T80 357Q80 211 161 116T375 21Q474 21 548 95T631 278H675Q664 154 580 69T375 -17Q221 -17 129 88T36 357Q36 521 129 626T376 731ZM237 920H275L372 805L470 920H508L392 780H352L237 920Z"  />
<glyph unicode="&#x10D;" horiz-adv-x="519" d="M269 526Q359 526 416 481T481 355H443Q437 421 389 457T269 493Q183 493 127 429T71 262Q71 148 124 85T269 21Q339 21 389 66T448 181H486Q474 91 414 40T269 -12Q159 -12 96 61T33 262Q33 378 97 452T269 526ZM133 730H171L268 615L366 730H404L288 590H248L133 730Z"  />
<glyph unicode="&#x10E;" horiz-adv-x="667" d="M301 714Q454 714 540 625T627 358Q627 192 541 96T299 0H63V714H301ZM297 38Q431 38 507 121T583 358Q583 676 290 676H107V38H297ZM155 920H193L290 805L388 920H426L310 780H270L155 920Z"  />
<glyph unicode="&#x10F;" horiz-adv-x="556" d="M453 714H491V0H453V110H451Q385 -12 254 -12Q150 -12 91 61T32 256Q32 383 93 454T261 526Q330 526 380 491T451 399H453V714ZM70 256Q70 152 121 87T262 21Q347 21 399 86T452 256Q452 363 399 428T260 493Q169 493 120 428T70 256ZM597 714H648L561 574H532L597 714Z"  />
<glyph unicode="&#x110;" horiz-adv-x="667" d="M302 714Q456 714 541 624T627 358Q627 189 541 95T300 0H63V355H-13V388H63V714H302ZM353 388V355H107V38H298Q433 38 508 122T583 358Q583 676 290 676H107V388H353Z"  />
<glyph unicode="&#x111;" horiz-adv-x="556" d="M453 714H491V620H573V589H491V0H453V110H451Q387 -12 254 -12Q150 -12 91 61T32 256Q32 383 93 454T261 526Q328 526 380 491T451 399H453V589H258V620H453V714ZM70 256Q70 150 122 86T262 21Q347 21 399 86T452 256Q452 363 399 428T260 493Q169 493 120 428T70 256Z"  />
<glyph unicode="&#x112;" horiz-adv-x="560" d="M543 714V676H107V390H517V352H107V38H548V0H63V714H543ZM419 861V828H177V861H419Z"  />
<glyph unicode="&#x113;" horiz-adv-x="519" d="M265 526Q367 526 427 455T487 268L486 252H71Q71 143 122 82T260 21Q407 21 444 174H482Q444 -12 259 -12Q153 -12 93 60T32 253Q32 375 95 450T265 526ZM448 285Q444 378 394 435T264 493Q184 493 132 437T72 285H448ZM382 671V638H140V671H382Z"  />
<glyph unicode="&#x114;" horiz-adv-x="560" d="M543 714V676H107V390H517V352H107V38H548V0H63V714H543ZM196 910Q207 865 235 844T302 823Q339 823 366 845T401 910H434Q428 860 390 825T302 790Q245 790 208 822T163 910H196Z"  />
<glyph unicode="&#x115;" horiz-adv-x="519" d="M265 526Q367 526 427 455T487 268L486 252H71Q71 143 122 82T260 21Q407 21 444 174H482Q444 -12 259 -12Q153 -12 93 60T32 253Q32 375 95 450T265 526ZM448 285Q444 378 394 435T264 493Q184 493 132 437T72 285H448ZM159 720Q170 675 198 654T265 633Q302 633 329 655T364 720H397Q391 670 353 635T265 600Q208 600 171 632T126 720H159Z"  />
<glyph unicode="&#x116;" horiz-adv-x="560" d="M543 714V676H107V390H517V352H107V38H548V0H63V714H543ZM277 896H321V793H277V896Z"  />
<glyph unicode="&#x117;" horiz-adv-x="519" d="M265 526Q367 526 427 455T487 268L486 252H71Q71 143 122 82T260 21Q407 21 444 174H482Q444 -12 259 -12Q153 -12 93 60T32 253Q32 375 95 450T265 526ZM448 285Q444 378 394 435T264 493Q184 493 132 437T72 285H448ZM239 706H283V603H239V706Z"  />
<glyph unicode="&#x118;" horiz-adv-x="560" d="M543 714V676H107V390H517V352H107V38H548V0H502Q462 -35 441 -63T420 -121Q420 -140 432 -151T463 -163Q497 -163 521 -128L544 -136Q520 -196 458 -196Q419 -196 398 -178T376 -128Q376 -68 478 0H63V714H543Z"  />
<glyph unicode="&#x119;" horiz-adv-x="519" d="M265 526Q366 526 426 457T487 270L486 252H71Q71 147 121 84T260 21Q407 21 444 174H482Q449 6 289 -11Q218 -73 218 -121Q218 -140 230 -151T261 -163Q295 -163 319 -128L342 -136Q317 -196 256 -196Q217 -196 196 -178T174 -128Q174 -72 258 -12Q151 -10 92 60T32 253Q32 376 95 451T265 526ZM448 285Q444 378 394 435T264 493Q184 493 132 437T72 285H448Z"  />
<glyph unicode="&#x11A;" horiz-adv-x="560" d="M543 714V676H107V390H517V352H107V38H548V0H63V714H543ZM163 920H201L298 805L396 920H434L318 780H278L163 920Z"  />
<glyph unicode="&#x11B;" horiz-adv-x="519" d="M265 526Q367 526 427 455T487 268L486 252H71Q71 143 122 82T260 21Q407 21 444 174H482Q444 -12 259 -12Q153 -12 93 60T32 253Q32 375 95 450T265 526ZM448 285Q444 378 394 435T264 493Q184 493 132 437T72 285H448ZM126 730H164L261 615L359 730H397L281 590H241L126 730Z"  />
<glyph unicode="&#x11C;" horiz-adv-x="741" d="M374 731Q490 731 571 667T671 493H629Q603 588 538 640T375 693Q244 693 163 598T81 353Q81 204 161 113T375 21Q497 21 571 95T646 294V312H382V350H683V0H645V152H643Q615 74 543 29T373 -17Q221 -17 129 86T37 353Q37 458 78 545T196 681T374 731ZM352 920H392L508 780H470L372 895L275 780H237L352 920Z"  />
<glyph unicode="&#x11D;" horiz-adv-x="537" d="M255 526Q318 526 369 494T441 407H443V514H481V23Q481 -79 428 -137T260 -196Q66 -196 58 -36H96Q102 -100 146 -131T260 -163Q352 -163 397 -114T443 15V136H441Q385 19 255 19Q150 19 92 87T33 273Q33 385 94 455T255 526ZM71 273Q71 175 121 114T255 52Q338 52 390 112T442 273Q442 374 391 433T254 493Q173 493 122 431T71 273ZM248 730H288L404 590H366L268 705L171 590H133L248 730Z"  />
<glyph unicode="&#x11E;" horiz-adv-x="741" d="M374 731Q490 731 571 667T671 493H629Q603 588 538 640T375 693Q244 693 163 598T81 353Q81 204 161 113T375 21Q497 21 571 95T646 294V312H382V350H683V0H645V152H643Q615 74 543 29T373 -17Q221 -17 129 86T37 353Q37 458 78 545T196 681T374 731ZM270 910Q281 865 309 844T376 823Q413 823 440 845T475 910H508Q502 860 464 825T376 790Q319 790 282 822T237 910H270Z"  />
<glyph unicode="&#x11F;" horiz-adv-x="537" d="M255 526Q318 526 369 494T441 407H443V514H481V23Q481 -79 428 -137T260 -196Q66 -196 58 -36H96Q102 -100 146 -131T260 -163Q352 -163 397 -114T443 15V136H441Q385 19 255 19Q150 19 92 87T33 273Q33 385 94 455T255 526ZM71 273Q71 175 121 114T255 52Q338 52 390 112T442 273Q442 374 391 433T254 493Q173 493 122 431T71 273ZM166 720Q177 675 205 654T272 633Q309 633 336 655T371 720H404Q398 670 360 635T272 600Q215 600 178 632T133 720H166Z"  />
<glyph unicode="&#x120;" horiz-adv-x="741" d="M374 731Q490 731 571 667T671 493H629Q603 588 538 640T375 693Q244 693 163 598T81 353Q81 204 161 113T375 21Q497 21 571 95T646 294V312H382V350H683V0H645V152H643Q615 74 543 29T373 -17Q221 -17 129 86T37 353Q37 458 78 545T196 681T374 731ZM351 896H395V793H351V896Z"  />
<glyph unicode="&#x121;" horiz-adv-x="537" d="M255 526Q318 526 369 494T441 407H443V514H481V23Q481 -79 428 -137T260 -196Q66 -196 58 -36H96Q102 -100 146 -131T260 -163Q352 -163 397 -114T443 15V136H441Q385 19 255 19Q150 19 92 87T33 273Q33 385 94 455T255 526ZM71 273Q71 175 121 114T255 52Q338 52 390 112T442 273Q442 374 391 433T254 493Q173 493 122 431T71 273ZM247 706H291V603H247V706Z"  />
<glyph unicode="&#x122;" horiz-adv-x="741" d="M374 731Q490 731 571 667T671 493H629Q603 588 538 640T375 693Q244 693 163 598T81 353Q81 204 161 113T375 21Q497 21 571 95T646 294V312H382V350H683V0H645V152H643Q615 74 543 29T373 -17Q221 -17 129 86T37 353Q37 458 78 545T196 681T374 731ZM341 -50H398V-132Q398 -192 335 -196V-176Q363 -169 366 -143H341V-50Z"  />
<glyph unicode="&#x123;" horiz-adv-x="537" d="M255 526Q318 526 369 494T441 407H443V514H481V23Q481 -79 428 -137T260 -196Q66 -196 58 -36H96Q102 -100 146 -131T260 -163Q352 -163 397 -114T443 15V136H441Q385 19 255 19Q150 19 92 87T33 273Q33 385 94 455T255 526ZM71 273Q71 175 121 114T255 52Q338 52 390 112T442 273Q442 374 391 433T254 493Q173 493 122 431T71 273ZM302 747Q275 741 271 714H296V621H239V700Q239 763 302 767V747Z"  />
<glyph unicode="&#x124;" horiz-adv-x="670" d="M63 714H107V390H563V714H607V0H563V352H107V0H63V714ZM315 920H355L471 780H433L335 895L238 780H200L315 920Z"  />
<glyph unicode="&#x125;" horiz-adv-x="519" d="M56 714H94V404H96Q116 459 165 492T280 526Q463 526 463 325V0H425V330Q425 493 279 493Q197 493 146 436T94 282V0H56V714ZM230 920H270L386 780H348L250 895L153 780H115L230 920Z"  />
<glyph unicode="&#x126;" horiz-adv-x="670" d="M63 714H107V554H563V714H607V0H563V333H107V0H63V714ZM563 371V521H107V371H563Z"  />
<glyph unicode="&#x127;" horiz-adv-x="519" d="M56 714H94V620H289V589H94V404H96Q116 461 167 493T280 526Q369 526 416 479T463 326V0H425V330Q425 493 279 493Q197 493 146 435T94 282V0H56V589H-26V620H56V714Z"  />
<glyph unicode="&#x128;" horiz-adv-x="170" d="M63 714H107V0H63V714ZM18 889Q48 889 92 860Q134 832 155 832Q191 832 200 889H229Q223 843 203 821T153 799Q125 799 79 831Q42 856 16 856Q-20 856 -31 799H-60Q-57 838 -35 863T18 889Z"  />
<glyph unicode="&#x129;" horiz-adv-x="168" d="M65 514H103V0H65V514ZM17 699Q47 699 91 670Q133 642 154 642Q190 642 199 699H228Q222 653 202 631T152 609Q124 609 78 641Q41 666 15 666Q-21 666 -32 609H-61Q-58 648 -36 673T17 699Z"  />
<glyph unicode="&#x12A;" horiz-adv-x="170" d="M63 714H107V0H63V714ZM206 861V828H-36V861H206Z"  />
<glyph unicode="&#x12B;" horiz-adv-x="168" d="M65 514H103V0H65V514ZM205 671V638H-37V671H205Z"  />
<glyph unicode="&#x12E;" horiz-adv-x="170" d="M63 714H107V0Q73 -35 54 -63T35 -121Q35 -140 45 -151T73 -163Q103 -163 126 -128L149 -136Q125 -196 69 -196Q34 -196 14 -178T-7 -128Q-7 -69 83 0H63V714Z"  />
<glyph unicode="&#x12F;" horiz-adv-x="168" d="M65 714H103V611H65V714ZM65 514H103V0Q67 -41 51 -67T34 -121Q34 -140 45 -151T72 -163Q100 -163 125 -128L148 -136Q124 -196 68 -196Q33 -196 13 -179T-8 -128Q-8 -70 79 0H65V514Z"  />
<glyph unicode="&#x130;" horiz-adv-x="170" d="M63 714H107V0H63V714ZM63 896H107V793H63V896Z"  />
<glyph unicode="&#x131;" horiz-adv-x="168" d="M65 514H103V0H65V514Z"  />
<glyph unicode="&#x132;" horiz-adv-x="646" d="M63 714H107V0H63V714ZM539 714H583V196Q583 86 535 35T387 -17Q281 -17 233 37T185 210V227H229Q228 211 228 195Q228 104 265 63T382 21Q465 21 502 61T539 201V714Z"  />
<glyph unicode="&#x133;" horiz-adv-x="332" d="M65 714H103V611H65V714ZM65 514H103V0H65V514ZM229 714H267V611H229V714ZM229 514H267V-57Q267 -125 241 -154T159 -184Q143 -184 130 -183V-150Q144 -152 157 -152Q198 -152 213 -129T229 -56V514Z"  />
<glyph unicode="&#x134;" horiz-adv-x="481" d="M374 714H418V196Q418 86 370 35T222 -17Q116 -17 68 37T20 210V227H64Q63 211 63 195Q63 104 100 63T217 21Q300 21 337 61T374 201V714ZM374 920H414L530 780H492L394 895L297 780H259L374 920Z"  />
<glyph unicode="&#x135;" horiz-adv-x="168" d="M65 514H103V-57Q103 -125 77 -154T-5 -184Q-21 -184 -34 -183V-150Q-20 -152 -7 -152Q34 -152 49 -129T65 -56V514ZM63 730H103L219 590H181L83 705L-14 590H-52L63 730Z"  />
<glyph unicode="&#x136;" horiz-adv-x="613" d="M63 714H107V303L556 714H613L287 417L633 0H578L255 387L107 252V0H63V714ZM301 -50H358V-132Q358 -192 295 -196V-176Q323 -169 326 -143H301V-50Z"  />
<glyph unicode="&#x137;" horiz-adv-x="463" d="M58 714H96V241L413 514H468L243 322L484 0H432L213 293L96 194V0H58V714ZM231 -50H288V-132Q288 -192 225 -196V-176Q253 -169 256 -143H231V-50Z"  />
<glyph unicode="&#x139;" horiz-adv-x="500" d="M63 714H107V38H512V0H63V714ZM189 920H240L106 780H69L189 920Z"  />
<glyph unicode="&#x13A;" horiz-adv-x="168" d="M65 714H103V0H65V714ZM179 920H230L96 780H59L179 920Z"  />
<glyph unicode="&#x13B;" horiz-adv-x="500" d="M63 714H107V38H512V0H63V714ZM252 -50H309V-132Q309 -192 246 -196V-176Q274 -169 277 -143H252V-50Z"  />
<glyph unicode="&#x13C;" horiz-adv-x="168" d="M65 714H103V0H65V714ZM56 -50H113V-132Q113 -192 50 -196V-176Q78 -169 81 -143H56V-50Z"  />
<glyph unicode="&#x13D;" horiz-adv-x="500" d="M63 714H107V38H512V0H63V714ZM279 714H330L243 574H214L279 714Z"  />
<glyph unicode="&#x13E;" horiz-adv-x="168" d="M65 714H103V0H65V714ZM209 714H260L173 574H144L209 714Z"  />
<glyph unicode="&#x13F;" horiz-adv-x="500" d="M63 714H107V38H512V0H63V714ZM271 433H315V330H271V433Z"  />
<glyph unicode="&#x140;" horiz-adv-x="248" d="M65 714H103V0H65V714ZM178 432H222V329H178V432Z"  />
<glyph unicode="&#x141;" horiz-adv-x="500" d="M63 714H107V331L342 474V438L107 296V38H512V0H63V269L-22 216V254L63 305V714Z"  />
<glyph unicode="&#x142;" horiz-adv-x="168" d="M65 714H103V428L173 482V447L103 393V0H65V363L-5 309V344L65 398V714Z"  />
<glyph unicode="&#x143;" horiz-adv-x="678" d="M63 714H118L569 59H571V714H615V0H563L109 660H107V0H63V714ZM428 920H479L345 780H308L428 920Z"  />
<glyph unicode="&#x144;" horiz-adv-x="519" d="M280 526Q463 526 463 326V0H425V330Q425 493 279 493Q196 493 145 434T94 277V0H56V514H94V404H96Q116 461 167 493T280 526ZM344 730H395L261 590H224L344 730Z"  />
<glyph unicode="&#x145;" horiz-adv-x="678" d="M63 714H118L569 59H571V714H615V0H563L109 660H107V0H63V714ZM308 -50H365V-132Q365 -192 302 -196V-176Q330 -169 333 -143H308V-50Z"  />
<glyph unicode="&#x146;" horiz-adv-x="519" d="M280 526Q463 526 463 326V0H425V330Q425 493 279 493Q196 493 145 434T94 277V0H56V514H94V404H96Q116 461 167 493T280 526ZM231 -50H288V-132Q288 -192 225 -196V-176Q253 -169 256 -143H231V-50Z"  />
<glyph unicode="&#x147;" horiz-adv-x="678" d="M63 714H118L569 59H571V714H615V0H563L109 660H107V0H63V714ZM209 920H247L344 805L442 920H480L364 780H324L209 920Z"  />
<glyph unicode="&#x148;" horiz-adv-x="519" d="M280 526Q463 526 463 326V0H425V330Q425 493 279 493Q196 493 145 434T94 277V0H56V514H94V404H96Q116 461 167 493T280 526ZM125 730H163L260 615L358 730H396L280 590H240L125 730Z"  />
<glyph unicode="&#x149;" horiz-adv-x="598" d="M359 526Q542 526 542 326V0H504V330Q504 493 358 493Q275 493 224 434T173 277V0H135V514H173V404H175Q195 461 246 493T359 526ZM29 714H80V611Q80 511 16 485V518Q47 532 50 611H29V714Z"  />
<glyph unicode="&#x14C;" horiz-adv-x="741" d="M371 731Q521 731 615 628T710 357Q710 190 617 87T371 -17Q219 -17 125 86T31 357Q31 521 123 626T371 731ZM75 357Q75 209 156 115T371 21Q502 21 584 115T666 357Q666 501 585 597T370 693Q240 693 158 600T75 357ZM492 861V828H250V861H492Z"  />
<glyph unicode="&#x14D;" horiz-adv-x="537" d="M268 526Q374 526 439 451T504 257Q504 138 440 63T268 -12Q162 -12 97 62T32 257Q32 376 97 451T268 526ZM70 257Q70 156 124 89T268 21Q355 21 410 86T466 257Q466 360 411 426T267 493Q180 493 125 426T70 257ZM389 671V638H147V671H389Z"  />
<glyph unicode="&#x14E;" horiz-adv-x="741" d="M371 731Q521 731 615 628T710 357Q710 190 617 87T371 -17Q219 -17 125 86T31 357Q31 521 123 626T371 731ZM75 357Q75 209 156 115T371 21Q502 21 584 115T666 357Q666 501 585 597T370 693Q240 693 158 600T75 357ZM269 910Q280 865 308 844T375 823Q412 823 439 845T474 910H507Q501 860 463 825T375 790Q318 790 281 822T236 910H269Z"  />
<glyph unicode="&#x14F;" horiz-adv-x="537" d="M268 526Q374 526 439 451T504 257Q504 138 440 63T268 -12Q162 -12 97 62T32 257Q32 376 97 451T268 526ZM70 257Q70 156 124 89T268 21Q355 21 410 86T466 257Q466 360 411 426T267 493Q180 493 125 426T70 257ZM166 720Q177 675 205 654T272 633Q309 633 336 655T371 720H404Q398 670 360 635T272 600Q215 600 178 632T133 720H166Z"  />
<glyph unicode="&#x150;" horiz-adv-x="741" d="M371 731Q521 731 615 628T710 357Q710 190 617 87T371 -17Q219 -17 125 86T31 357Q31 521 123 626T371 731ZM75 357Q75 209 156 115T371 21Q502 21 584 115T666 357Q666 501 585 597T370 693Q240 693 158 600T75 357ZM385 920H436L302 780H265L385 920ZM543 920H594L460 780H423L543 920Z"  />
<glyph unicode="&#x151;" horiz-adv-x="537" d="M268 526Q374 526 439 451T504 257Q504 138 440 63T268 -12Q162 -12 97 62T32 257Q32 376 97 451T268 526ZM70 257Q70 156 124 89T268 21Q355 21 410 86T466 257Q466 360 411 426T267 493Q180 493 125 426T70 257ZM282 730H333L199 590H162L282 730ZM440 730H491L357 590H320L440 730Z"  />
<glyph unicode="&#x152;" horiz-adv-x="1056" d="M368 731Q496 731 573 648V714H1039V676H617V390H995V352H617V38H1041V0H573V66H571Q542 28 486 6T360 -17Q210 -17 121 86T31 354Q31 460 73 547T191 683T368 731ZM75 354Q75 202 152 112T363 21Q416 21 463 38T541 81T573 126V578Q573 600 544 627T468 674T371 693Q239 693 157 600T75 354Z"  />
<glyph unicode="&#x153;" horiz-adv-x="889" d="M254 526Q329 526 378 487T444 374H446Q486 526 645 526Q742 526 799 459T858 278Q858 266 857 252H464L463 229Q463 132 513 77T645 21Q778 21 815 169H853Q834 82 781 35T645 -12Q566 -12 514 26T445 139H443Q402 -12 251 -12Q144 -12 88 58T32 250Q32 376 92 451T254 526ZM70 250Q70 146 118 84T252 21Q337 21 381 81T426 250Q426 368 381 430T252 493Q167 493 119 428T70 250ZM464 285H819Q819 380 771 436T644 493Q563 493 514 436T464 292V285Z"  />
<glyph unicode="&#x154;" horiz-adv-x="630" d="M364 714Q470 714 528 669T587 530Q587 458 547 409T434 347V345Q511 334 543 288T576 145V111Q576 21 597 0H548Q541 13 536 36T531 127Q531 191 528 207Q519 262 482 293T365 325H107V0H63V714H364ZM365 363Q445 363 494 404T543 527Q543 599 494 637T355 676H107V363H365ZM381 920H432L298 780H261L381 920Z"  />
<glyph unicode="&#x155;" horiz-adv-x="278" d="M294 517V479L277 480Q203 480 149 425T94 282V0H56V514H94V400H97Q110 448 163 482T288 517H294ZM256 730H307L173 590H136L256 730Z"  />
<glyph unicode="&#x156;" horiz-adv-x="630" d="M364 714Q470 714 528 669T587 530Q587 458 547 409T434 347V345Q511 334 543 288T576 145V111Q576 21 597 0H548Q541 13 536 36T531 127Q531 191 528 207Q519 262 482 293T365 325H107V0H63V714H364ZM365 363Q445 363 494 404T543 527Q543 599 494 637T355 676H107V363H365ZM292 -50H349V-132Q349 -192 286 -196V-176Q314 -169 317 -143H292V-50Z"  />
<glyph unicode="&#x157;" horiz-adv-x="278" d="M294 517V479L277 480Q203 480 149 425T94 282V0H56V514H94V400H97Q110 448 163 482T288 517H294ZM46 -50H103V-132Q103 -192 40 -196V-176Q68 -169 71 -143H46V-50Z"  />
<glyph unicode="&#x158;" horiz-adv-x="630" d="M364 714Q470 714 528 669T587 530Q587 458 547 409T434 347V345Q511 334 543 288T576 145V111Q576 21 597 0H548Q541 13 536 36T531 127Q531 191 528 207Q519 262 482 293T365 325H107V0H63V714H364ZM365 363Q445 363 494 404T543 527Q543 599 494 637T355 676H107V363H365ZM162 920H200L297 805L395 920H433L317 780H277L162 920Z"  />
<glyph unicode="&#x159;" horiz-adv-x="278" d="M294 517V479L277 480Q203 480 149 425T94 282V0H56V514H94V400H97Q110 448 163 482T288 517H294ZM42 730H80L177 615L275 730H313L197 590H157L42 730Z"  />
<glyph unicode="&#x15A;" horiz-adv-x="630" d="M300 731Q425 731 496 675T573 510H529Q526 598 464 645T300 693Q213 693 159 653T104 541Q104 485 146 449T342 383Q480 358 535 311T591 184Q591 94 522 39T339 -17Q197 -17 118 47T39 231V236H83V222Q83 123 151 72T339 21Q433 21 490 65T547 184Q547 249 497 287T310 350Q162 377 111 422T60 541Q60 629 126 680T300 731ZM403 920H454L320 780H283L403 920Z"  />
<glyph unicode="&#x15B;" horiz-adv-x="481" d="M240 526Q331 526 380 484T430 362H392Q392 426 352 459T240 493Q177 493 135 468T92 394Q92 353 125 326Q155 302 287 276Q370 259 407 226T445 130Q445 60 390 24T244 -12Q151 -12 95 36T36 171H74Q78 102 124 62T244 21Q319 21 363 48T407 130Q407 175 374 201T233 248Q135 265 95 299T54 394Q54 457 104 491T240 526ZM327 730H378L244 590H207L327 730Z"  />
<glyph unicode="&#x15C;" horiz-adv-x="630" d="M300 731Q425 731 496 675T573 510H529Q526 598 464 645T300 693Q213 693 159 653T104 541Q104 485 146 449T342 383Q480 358 535 311T591 184Q591 94 522 39T339 -17Q197 -17 118 47T39 231V236H83V222Q83 123 151 72T339 21Q433 21 490 65T547 184Q547 249 497 287T310 350Q162 377 111 422T60 541Q60 629 126 680T300 731ZM299 920H339L455 780H417L319 895L222 780H184L299 920Z"  />
<glyph unicode="&#x15D;" horiz-adv-x="481" d="M240 526Q331 526 380 484T430 362H392Q392 426 352 459T240 493Q177 493 135 468T92 394Q92 353 125 326Q155 302 287 276Q370 259 407 226T445 130Q445 60 390 24T244 -12Q151 -12 95 36T36 171H74Q78 102 124 62T244 21Q319 21 363 48T407 130Q407 175 374 201T233 248Q135 265 95 299T54 394Q54 457 104 491T240 526ZM223 730H263L379 590H341L243 705L146 590H108L223 730Z"  />
<glyph unicode="&#x15E;" horiz-adv-x="630" d="M300 731Q425 731 496 675T573 510H529Q527 596 465 644T300 693Q210 693 157 652T104 541Q104 482 148 447T342 383Q482 358 536 311T591 184Q591 94 522 39T340 -17H317L285 -56L286 -57Q300 -50 324 -50Q356 -50 376 -67T397 -117Q397 -153 372 -174T299 -196Q248 -196 208 -171L219 -147Q258 -169 298 -169Q327 -169 343 -155T359 -119Q359 -100 345 -88T308 -76Q287 -76 258 -88L243 -75L287 -14Q166 -3 103 58T39 229V236H83V221Q83 125 151 73T339 21Q433 21 490 65T547 184Q547 246 503 283T311 350Q205 370 158 392T85 451T60 541Q60 629 126 680T300 731Z"  />
<glyph unicode="&#x15F;" horiz-adv-x="481" d="M240 526Q331 526 380 484T430 362H392Q392 425 352 459T240 493Q176 493 134 468T92 394Q92 353 124 327Q153 303 287 276Q370 259 407 226T445 130Q445 64 395 28T251 -12L214 -56L215 -57Q233 -50 253 -50Q287 -50 307 -68T327 -117Q327 -153 302 -174T229 -196Q178 -196 137 -171L148 -147Q189 -169 228 -169Q257 -169 273 -155T289 -119Q289 -100 275 -88T237 -76Q214 -76 188 -88L172 -75L219 -11Q134 -3 86 44T36 171H74Q78 102 124 62T244 21Q319 21 363 48T407 130Q407 173 376 200T231 248Q137 266 96 298T54 394Q54 457 104 491T240 526Z"  />
<glyph unicode="&#x160;" horiz-adv-x="630" d="M300 731Q425 731 496 675T573 510H529Q526 598 464 645T300 693Q213 693 159 653T104 541Q104 485 146 449T342 383Q480 358 535 311T591 184Q591 94 522 39T339 -17Q197 -17 118 47T39 231V236H83V222Q83 123 151 72T339 21Q433 21 490 65T547 184Q547 249 497 287T310 350Q162 377 111 422T60 541Q60 629 126 680T300 731ZM184 920H222L319 805L417 920H455L339 780H299L184 920Z"  />
<glyph unicode="&#x161;" horiz-adv-x="481" d="M240 526Q331 526 380 484T430 362H392Q392 426 352 459T240 493Q177 493 135 468T92 394Q92 353 125 326Q155 302 287 276Q370 259 407 226T445 130Q445 60 390 24T244 -12Q151 -12 95 36T36 171H74Q78 102 124 62T244 21Q319 21 363 48T407 130Q407 175 374 201T233 248Q135 265 95 299T54 394Q54 457 104 491T240 526ZM108 730H146L243 615L341 730H379L263 590H223L108 730Z"  />
<glyph unicode="&#x162;" horiz-adv-x="519" d="M533 714V676H281V0H237V676H-14V714H533ZM230 -50H287V-132Q287 -192 224 -196V-176Q252 -169 255 -143H230V-50Z"  />
<glyph unicode="&#x163;" horiz-adv-x="259" d="M95 674H133V514H245V481H133V118Q133 76 151 55T217 33H244V0Q231 -1 216 -1Q153 -1 124 26T95 111V481H0V514H95V674ZM134 -50H191V-132Q191 -192 128 -196V-176Q156 -169 159 -143H134V-50Z"  />
<glyph unicode="&#x164;" horiz-adv-x="519" d="M533 714V676H281V0H237V676H-14V714H533ZM125 920H163L260 805L358 920H396L280 780H240L125 920Z"  />
<glyph unicode="&#x165;" horiz-adv-x="259" d="M95 674H133V514H245V481H133V118Q133 76 151 55T217 33H244V0Q231 -1 216 -1Q153 -1 124 26T95 111V481H0V514H95V674ZM273 714H324L237 574H208L273 714Z"  />
<glyph unicode="&#x166;" horiz-adv-x="519" d="M533 714V676H281V490H450V457H281V0H237V457H68V490H237V676H-14V714H533Z"  />
<glyph unicode="&#x167;" horiz-adv-x="259" d="M95 674H133V514H245V481H133V354H235V323H133V119Q133 77 150 55T219 33H244V0Q234 -1 216 -1Q153 -1 124 26T95 106V323H8V354H95V481H0V514H95V674Z"  />
<glyph unicode="&#x168;" horiz-adv-x="672" d="M63 714H107V281Q107 158 162 90T332 21Q452 21 508 85T565 281V714H609V281Q609 -17 331 -17Q63 -17 63 281V714ZM269 889Q299 889 343 860Q385 832 406 832Q442 832 451 889H480Q474 843 454 821T404 799Q376 799 330 831Q293 856 267 856Q231 856 220 799H191Q194 838 216 863T269 889Z"  />
<glyph unicode="&#x169;" horiz-adv-x="519" d="M56 514H94V184Q94 21 240 21Q323 21 374 79T425 233V514H463V0H425V110H423Q401 51 350 20T238 -12Q56 -12 56 185V514ZM192 699Q222 699 266 670Q308 642 329 642Q365 642 374 699H403Q397 653 377 631T327 609Q299 609 253 641Q216 666 190 666Q154 666 143 609H114Q117 648 139 673T192 699Z"  />
<glyph unicode="&#x16A;" horiz-adv-x="672" d="M63 714H107V281Q107 158 162 90T332 21Q452 21 508 85T565 281V714H609V281Q609 -17 331 -17Q63 -17 63 281V714ZM457 861V828H215V861H457Z"  />
<glyph unicode="&#x16B;" horiz-adv-x="519" d="M56 514H94V184Q94 21 240 21Q323 21 374 79T425 233V514H463V0H425V110H423Q401 51 350 20T238 -12Q56 -12 56 185V514ZM380 671V638H138V671H380Z"  />
<glyph unicode="&#x16C;" horiz-adv-x="672" d="M63 714H107V281Q107 158 162 90T332 21Q452 21 508 85T565 281V714H609V281Q609 -17 331 -17Q63 -17 63 281V714ZM234 910Q245 865 273 844T340 823Q377 823 404 845T439 910H472Q466 860 428 825T340 790Q283 790 246 822T201 910H234Z"  />
<glyph unicode="&#x16D;" horiz-adv-x="519" d="M56 514H94V184Q94 21 240 21Q323 21 374 79T425 233V514H463V0H425V110H423Q401 51 350 20T238 -12Q56 -12 56 185V514ZM157 720Q168 675 196 654T263 633Q300 633 327 655T362 720H395Q389 670 351 635T263 600Q206 600 169 632T124 720H157Z"  />
<glyph unicode="&#x16E;" horiz-adv-x="672" d="M63 714H107V281Q107 158 162 90T332 21Q452 21 508 85T565 281V714H609V281Q609 -17 331 -17Q63 -17 63 281V714ZM336 949Q378 949 406 921T435 850Q435 807 407 779T336 751Q294 751 266 779T237 850Q237 892 265 920T336 949ZM264 850Q264 819 285 799T336 778Q367 778 387 799T408 850Q408 881 387 901T336 922Q308 922 286 902T264 850Z"  />
<glyph unicode="&#x16F;" horiz-adv-x="519" d="M56 514H94V184Q94 21 240 21Q323 21 374 79T425 233V514H463V0H425V110H423Q401 51 350 20T238 -12Q56 -12 56 185V514ZM259 769Q301 769 329 741T358 670Q358 627 330 599T259 571Q217 571 189 599T160 670Q160 712 188 740T259 769ZM187 670Q187 640 208 619T259 598Q290 598 310 619T331 670Q331 700 310 721T259 742Q231 742 209 722T187 670Z"  />
<glyph unicode="&#x170;" horiz-adv-x="672" d="M63 714H107V281Q107 158 162 90T332 21Q452 21 508 85T565 281V714H609V281Q609 -17 331 -17Q63 -17 63 281V714ZM350 920H401L267 780H230L350 920ZM508 920H559L425 780H388L508 920Z"  />
<glyph unicode="&#x171;" horiz-adv-x="519" d="M56 514H94V184Q94 21 240 21Q323 21 374 79T425 233V514H463V0H425V110H423Q401 51 350 20T238 -12Q56 -12 56 185V514ZM273 730H324L190 590H153L273 730ZM431 730H482L348 590H311L431 730Z"  />
<glyph unicode="&#x172;" horiz-adv-x="672" d="M63 714H107V281Q107 159 162 90T332 21Q452 21 508 85T565 281V714H609V281Q609 0 361 -16Q297 -74 297 -121Q297 -140 309 -151T340 -163Q374 -163 398 -128L421 -136Q397 -196 335 -196Q296 -196 275 -178T253 -128Q253 -76 331 -17Q63 -17 63 281V714Z"  />
<glyph unicode="&#x173;" horiz-adv-x="519" d="M56 514H94V184Q94 21 240 21Q322 21 373 79T425 232V514H463V0H452Q405 -41 388 -68T370 -121Q370 -141 382 -152T413 -163Q448 -163 471 -128L494 -136Q470 -196 408 -196Q369 -196 348 -178T326 -128Q326 -70 425 -1V110H423Q402 51 351 20T238 -12Q56 -12 56 188V514Z"  />
<glyph unicode="&#x174;" horiz-adv-x="889" d="M39 714L225 47H227L416 714H471L663 47H665L848 714H895L690 0H640L444 676H442L249 0H200L-6 714H39ZM423 920H463L579 780H541L443 895L346 780H308L423 920Z"  />
<glyph unicode="&#x175;" horiz-adv-x="704" d="M-2 514H39L184 44H186L326 514H377L518 44H520L664 514H706L541 0H494L353 466H351L209 0H161L-2 514ZM332 730H372L488 590H450L352 705L255 590H217L332 730Z"  />
<glyph unicode="&#x176;" horiz-adv-x="574" d="M-21 714H29L287 336L546 714H595L308 299V0H264V299L-21 714ZM268 920H308L424 780H386L288 895L191 780H153L268 920Z"  />
<glyph unicode="&#x177;" horiz-adv-x="444" d="M-6 514H39L230 45L406 514H449L230 -52Q207 -110 191 -135T150 -172T61 -184H49V-151H57Q106 -151 133 -136T171 -97T209 3L-6 514ZM209 730H249L365 590H327L229 705L132 590H94L209 730Z"  />
<glyph unicode="&#x178;" horiz-adv-x="574" d="M-21 714H29L287 336L546 714H595L308 299V0H264V299L-21 714ZM187 896H231V793H187V896ZM345 896H389V793H345V896Z"  />
<glyph unicode="&#x179;" horiz-adv-x="537" d="M529 714V676L45 38H538V0H-1V38L481 676H28V714H529ZM357 920H408L274 780H237L357 920Z"  />
<glyph unicode="&#x17A;" horiz-adv-x="426" d="M401 514V478L55 33H417V0H9V36L354 481H36V514H401ZM300 730H351L217 590H180L300 730Z"  />
<glyph unicode="&#x17B;" horiz-adv-x="537" d="M529 714V676L45 38H538V0H-1V38L481 676H28V714H529ZM251 896H295V793H251V896Z"  />
<glyph unicode="&#x17C;" horiz-adv-x="426" d="M401 514V478L55 33H417V0H9V36L354 481H36V514H401ZM194 706H238V603H194V706Z"  />
<glyph unicode="&#x17D;" horiz-adv-x="537" d="M529 714V676L45 38H538V0H-1V38L481 676H28V714H529ZM138 920H176L273 805L371 920H409L293 780H253L138 920Z"  />
<glyph unicode="&#x17E;" horiz-adv-x="426" d="M401 514V478L55 33H417V0H9V36L354 481H36V514H401ZM81 730H119L216 615L314 730H352L236 590H196L81 730Z"  />
<glyph unicode="&#x192;" horiz-adv-x="556" d="M433 731Q466 731 493 725L485 687Q452 693 431 693Q389 693 362 667T327 597L294 429H414L409 396H288L208 -14Q190 -107 153 -145T58 -184Q33 -184 5 -178L12 -141Q47 -146 62 -146Q140 -146 167 -9L246 396H134L141 429H252L286 601Q297 660 334 695T433 731Z"  />
<glyph unicode="&#x218;" horiz-adv-x="630" d="M300 731Q425 731 496 675T573 510H529Q526 598 464 645T300 693Q213 693 159 653T104 541Q104 485 146 449T342 383Q480 358 535 311T591 184Q591 94 522 39T339 -17Q197 -17 118 47T39 231V236H83V222Q83 123 151 72T339 21Q433 21 490 65T547 184Q547 249 497 287T310 350Q162 377 111 422T60 541Q60 629 126 680T300 731ZM292 -50H349V-132Q349 -192 286 -196V-176Q314 -169 317 -143H292V-50Z"  />
<glyph unicode="&#x219;" horiz-adv-x="481" d="M240 526Q331 526 380 484T430 362H392Q392 426 352 459T240 493Q177 493 135 468T92 394Q92 353 125 326Q155 302 287 276Q370 259 407 226T445 130Q445 60 390 24T244 -12Q151 -12 95 36T36 171H74Q78 102 124 62T244 21Q319 21 363 48T407 130Q407 175 374 201T233 248Q135 265 95 299T54 394Q54 457 104 491T240 526ZM221 -50H278V-132Q278 -192 215 -196V-176Q243 -169 246 -143H221V-50Z"  />
<glyph unicode="&#x21A;" horiz-adv-x="519" d="M533 714V676H281V0H237V676H-14V714H533ZM230 -50H287V-132Q287 -192 224 -196V-176Q252 -169 255 -143H230V-50Z"  />
<glyph unicode="&#x21B;" horiz-adv-x="259" d="M95 674H133V514H245V481H133V118Q133 76 151 55T217 33H244V0Q231 -1 216 -1Q153 -1 124 26T95 111V481H0V514H95V674ZM134 -50H191V-132Q191 -192 128 -196V-176Q156 -169 159 -143H134V-50Z"  />
<glyph unicode="&#x2C6;" horiz-adv-x="167" d="M63 730H103L219 590H181L83 705L-14 590H-52L63 730Z"  />
<glyph unicode="&#x2C7;" horiz-adv-x="167" d="M-52 730H-14L83 615L181 730H219L103 590H63L-52 730Z"  />
<glyph unicode="&#x2C9;" horiz-adv-x="167" d="M205 671V638H-37V671H205Z"  />
<glyph unicode="&#x2D8;" horiz-adv-x="167" d="M-19 720Q-8 675 20 654T87 633Q124 633 151 655T186 720H219Q213 670 175 635T87 600Q30 600 -7 632T-52 720H-19Z"  />
<glyph unicode="&#x2D9;" horiz-adv-x="167" d="M61 706H105V603H61V706Z"  />
<glyph unicode="&#x2DA;" horiz-adv-x="167" d="M83 769Q125 769 153 741T182 670Q182 627 154 599T83 571Q41 571 13 599T-16 670Q-16 712 12 740T83 769ZM11 670Q11 640 32 619T83 598Q114 598 134 619T155 670Q155 700 134 721T83 742Q55 742 33 722T11 670Z"  />
<glyph unicode="&#x2DB;" horiz-adv-x="167" d="M132 0Q49 -70 50 -121Q50 -140 62 -151T93 -163Q130 -163 151 -128L174 -136Q150 -196 88 -196Q49 -196 28 -178T6 -128Q6 -67 108 0H132Z"  />
<glyph unicode="&#x2DC;" horiz-adv-x="167" d="M17 699Q47 699 91 670Q133 642 154 642Q190 642 199 699H228Q222 653 202 631T152 609Q124 609 78 641Q41 666 15 666Q-21 666 -32 609H-61Q-58 648 -36 673T17 699Z"  />
<glyph unicode="&#x2DD;" horiz-adv-x="167" d="M64 730H115L-19 590H-56L64 730ZM222 730H273L139 590H102L222 730Z"  />
<glyph unicode="&#x394;" horiz-adv-x="593" d="M275 714H323L605 0H-12L275 714ZM299 671L50 38H542L301 671H299Z"  />
<glyph unicode="&#x3A9;" horiz-adv-x="741" d="M370 731Q461 731 538 687T659 563T703 386Q703 166 511 41V38H703V0H450V39Q557 104 607 187T658 386Q658 516 577 604T370 693Q245 693 164 606T83 386Q83 273 131 189T288 39V0H39V38H224V41Q38 162 38 386Q38 534 130 632T370 731Z"  />
<glyph unicode="&#x3BC;" horiz-adv-x="528" d="M65 514H103V184Q103 21 249 21Q331 21 382 79T434 232V514H472V0H434V110H432Q410 52 361 20T248 -12Q146 -12 103 56V-184H65V514Z"  />
<glyph unicode="&#x3C0;" horiz-adv-x="560" d="M540 514V481H449V67Q449 27 487 27Q504 27 526 31V-1Q503 -6 481 -6Q442 -6 427 12T411 64V481H135V0H97V481H12V514H540Z"  />
<glyph unicode="&#x2013;" horiz-adv-x="500" d="M500 291V253H0V291H500Z"  />
<glyph unicode="&#x2014;" horiz-adv-x="1000" d="M870 291V253H130V291H870Z"  />
<glyph unicode="&#x2018;" horiz-adv-x="204" d="M143 681Q127 675 118 648T109 588H130V485H79V592Q79 636 95 669T143 714V681Z"  />
<glyph unicode="&#x2019;" horiz-adv-x="204" d="M74 714H125V611Q125 511 61 485V518Q92 532 95 611H74V714Z"  />
<glyph unicode="&#x201A;" horiz-adv-x="204" d="M74 103H125V-4Q125 -98 61 -126V-93Q94 -76 95 0H74V103Z"  />
<glyph unicode="&#x201C;" horiz-adv-x="315" d="M128 681Q95 664 94 588H115V485H64V591Q66 690 128 714V681ZM254 681Q221 664 220 588H241V485H190V591Q190 686 254 714V681Z"  />
<glyph unicode="&#x201D;" horiz-adv-x="315" d="M74 714H125V607Q124 512 61 485V518Q93 533 95 611H74V714ZM200 714H251V607Q249 511 187 485V518Q219 533 221 611H200V714Z"  />
<glyph unicode="&#x201E;" horiz-adv-x="315" d="M74 103H125V-4Q125 -98 61 -126V-93Q94 -76 95 0H74V103ZM200 103H251V-4Q250 -99 187 -126V-93Q221 -75 221 0H200V103Z"  />
<glyph unicode="&#x2020;" horiz-adv-x="556" d="M259 714H297V514H502V481H297V-146H259V481H54V514H259V714Z"  />
<glyph unicode="&#x2021;" horiz-adv-x="556" d="M259 714H297V514H502V481H297V87H502V54H297V-146H259V54H54V87H259V481H54V514H259V714Z"  />
<glyph unicode="&#x2022;" horiz-adv-x="500" d="M250 535Q323 535 376 484T429 357Q429 284 377 231T250 178Q176 178 124 230T72 357Q72 433 124 484T250 535Z"  />
<glyph unicode="&#x2026;" horiz-adv-x="1000" d="M141 103H192V0H141V103ZM474 103H525V0H474V103ZM807 103H858V0H807V103Z"  />
<glyph unicode="&#x2030;" horiz-adv-x="1074" d="M570 714H610L145 -24H105L570 714ZM193 702Q261 702 302 656T344 535Q344 460 305 412T193 364Q121 364 81 408T40 535Q40 607 82 654T193 702ZM78 535Q78 469 107 433T192 397Q246 397 276 435T306 535Q306 594 275 631T191 669Q138 669 108 633T78 535ZM527 326Q595 326 636 280T678 158Q678 82 639 35T527 -12Q453 -12 414 33T374 158Q374 230 416 278T527 326ZM882 326Q950 326 992 279T1034 158Q1034 82 994 35T882 -12Q807 -12 769 33T730 158Q730 232 772 279T882 326ZM412 158Q412 91 441 56T525 21Q579 21 609 59T640 158Q640 217 609 255T524 293Q473 293 443 258T412 158ZM768 158Q768 92 798 57T882 21Q936 21 966 58T996 158Q996 218 965 255T881 293Q829 293 799 257T768 158Z"  />
<glyph unicode="&#x2039;" horiz-adv-x="259" d="M181 423V372L96 272L181 170V121L67 252V292L181 423Z"  />
<glyph unicode="&#x203A;" horiz-adv-x="259" d="M78 423L192 292V252L78 121V170L163 272L78 372V423Z"  />
<glyph unicode="&#x2044;" horiz-adv-x="167" d="M296 714H336L-129 -24H-169L296 714Z"  />
<glyph unicode="&#x20AC;" horiz-adv-x="556" d="M337 702Q485 702 530 595L509 557Q494 610 449 639T336 669Q236 669 182 606T116 430H448L433 397H113Q111 371 111 346Q111 326 113 301H396L381 268H117Q130 149 189 85T339 21Q454 21 522 99V53Q453 -12 336 -12Q228 -12 160 60T77 268H12L27 301H74Q73 325 73 343Q73 368 75 397H12L27 430H77Q89 560 157 631T337 702Z"  />
<glyph unicode="&#x2113;" horiz-adv-x="500" d="M282 721Q322 721 347 691T372 603Q372 464 211 279V107Q211 65 232 40T292 15Q343 15 381 55L396 35Q349 -14 286 -14Q235 -14 206 16T176 105V253L115 184L99 204L176 287V561Q176 633 205 677T282 721ZM211 314Q342 472 342 599Q342 643 325 668T282 694Q253 694 232 662T211 553V314Z"  />
<glyph unicode="&#x2122;" horiz-adv-x="990" d="M404 714V681H261V302H229V681H85V714H404ZM483 714H542L694 368L846 714H905V302H873V681H870L703 302H685L518 681H515V302H483V714Z"  />
<glyph unicode="&#x2126;" horiz-adv-x="741" d="M370 731Q461 731 538 687T659 563T703 386Q703 166 511 41V38H703V0H450V39Q557 104 607 187T658 386Q658 516 577 604T370 693Q245 693 164 606T83 386Q83 273 131 189T288 39V0H39V38H224V41Q38 162 38 386Q38 534 130 632T370 731Z"  />
<glyph unicode="&#x212E;" horiz-adv-x="760" d="M381 706Q532 706 624 606T719 345H192V109Q269 32 381 32Q466 32 526 70T633 189L679 161Q618 66 550 26T381 -15Q233 -15 139 87T44 345Q44 505 139 605T381 706ZM192 393H572V582Q491 660 379 660Q270 660 192 582V393Z"  />
<glyph unicode="&#x2202;" horiz-adv-x="463" d="M199 721Q309 721 366 622T424 369Q424 187 368 88T210 -12Q130 -12 79 53T27 210Q27 304 78 362T212 421Q314 421 388 324L389 384Q389 517 339 602T200 688Q170 688 145 679T85 643L65 669Q129 721 199 721ZM63 209Q63 131 105 75T211 19Q282 19 327 87T384 284Q306 389 212 389Q147 389 105 338T63 209Z"  />
<glyph unicode="&#x2206;" horiz-adv-x="593" d="M275 714H323L605 0H-12L275 714ZM299 671L50 38H542L301 671H299Z"  />
<glyph unicode="&#x220F;" horiz-adv-x="704" d="M621 786V-214H585V751H119V-214H83V786H621Z"  />
<glyph unicode="&#x2211;" horiz-adv-x="593" d="M546 786V751H95L417 289L79 -179H558V-214H35V-182L373 289L49 753V786H546Z"  />
<glyph unicode="&#x2212;" horiz-adv-x="600" d="M552 271V233H48V271H552Z"  />
<glyph unicode="&#x2215;" horiz-adv-x="167" d="M296 714H336L-129 -24H-169L296 714Z"  />
<glyph unicode="&#x2219;" horiz-adv-x="278" d="M139 371Q161 371 177 355T194 317Q194 294 178 278T139 262Q117 262 101 278T85 317Q85 337 101 354T139 371Z"  />
<glyph unicode="&#x221A;" horiz-adv-x="463" d="M434 782H467L252 -217H220L42 149L-2 128L-15 155L58 191L231 -168L434 782Z"  />
<glyph unicode="&#x221E;" horiz-adv-x="722" d="M170 376Q197 376 235 360T361 265L409 307Q488 376 549 376Q606 376 640 340T675 246Q675 186 641 150T549 113Q511 113 472 133T361 222L309 176Q238 114 173 114Q117 114 82 150T47 244Q47 300 82 338T170 376ZM80 245Q80 200 105 174T173 147Q210 147 247 168T338 243Q280 295 241 319T167 343Q128 343 104 315T80 245ZM549 146Q593 146 617 172T642 245Q642 286 619 314T550 343Q493 343 383 243Q452 182 484 164T549 146Z"  />
<glyph unicode="&#x222B;" horiz-adv-x="534" d="M325 786Q345 786 359 777T374 750Q374 739 367 732T347 724Q331 724 320 740Q309 755 304 755Q261 755 261 585L263 2Q263 -106 239 -159T161 -213Q141 -213 130 -203T119 -179Q119 -169 127 -162T145 -154Q155 -154 167 -167Q178 -180 185 -180Q204 -180 215 -135T226 -4L225 584Q225 691 249 738T325 786Z"  />
<glyph unicode="&#x2248;" horiz-adv-x="600" d="M557 382Q534 327 503 302T426 277Q393 277 361 288T299 312T237 337T174 349Q111 349 76 274L43 282Q84 385 174 385Q224 385 302 349Q380 313 426 313Q460 313 483 331T524 390L557 382ZM557 213Q534 159 503 135T426 110Q393 110 361 121T299 145T236 170T174 182Q109 182 76 105L43 113Q84 218 174 218Q224 218 302 182Q380 146 426 146Q491 146 524 221L557 213Z"  />
<glyph unicode="&#x2260;" horiz-adv-x="600" d="M433 506L465 488L392 369H552V331H369L274 175H552V137H251L167 0L135 18L207 137H48V175H230L326 331H48V369H349L433 506Z"  />
<glyph unicode="&#x2264;" horiz-adv-x="600" d="M552 514V472L86 304L552 134V92L48 281V327L552 514ZM551 38V0H48V38H551Z"  />
<glyph unicode="&#x2265;" horiz-adv-x="600" d="M48 514L552 327V281L48 92V134L514 304L48 472V514ZM552 38V0H48L49 38H552Z"  />
<glyph unicode="&#x25CA;" horiz-adv-x="593" d="M281 747H311L481 356L311 -35H281L112 355L281 747ZM148 356L296 10L444 356L296 702L148 356Z"  />
<glyph unicode="&#xE0D6;" horiz-adv-x="168" d="M65 514H103V-57Q103 -125 77 -154T-5 -184Q-21 -184 -34 -183V-150Q-20 -152 -7 -152Q34 -152 49 -129T65 -56V514Z"  />
<glyph unicode="&#xE300;" horiz-adv-x="167" d="M-30 920H21L141 780H104L-30 920Z"  />
<glyph unicode="&#xE301;" horiz-adv-x="167" d="M146 920H197L63 780H26L146 920Z"  />
<glyph unicode="&#xE302;" horiz-adv-x="167" d="M63 920H103L219 780H181L83 895L-14 780H-52L63 920Z"  />
<glyph unicode="&#xE303;" horiz-adv-x="167" d="M-52 920H-14L83 805L181 920H219L103 780H63L-52 920Z"  />
<glyph unicode="&#xE304;" horiz-adv-x="167" d="M17 889Q47 889 91 860Q133 832 154 832Q190 832 199 889H228Q222 843 202 821T152 799Q124 799 78 831Q41 856 15 856Q-21 856 -32 799H-61Q-58 838 -36 863T17 889Z"  />
<glyph unicode="&#xE305;" horiz-adv-x="167" d="M-18 896H26V793H-18V896ZM140 896H184V793H140V896Z"  />
<glyph unicode="&#xE306;" horiz-adv-x="167" d="M205 861V828H-37V861H205Z"  />
<glyph unicode="&#xE307;" horiz-adv-x="167" d="M-19 910Q-8 865 20 844T87 823Q124 823 151 845T186 910H219Q213 860 175 825T87 790Q30 790 -7 822T-52 910H-19Z"  />
<glyph unicode="&#xE308;" horiz-adv-x="167" d="M83 949Q125 949 153 921T182 850Q182 807 154 779T83 751Q41 751 13 779T-16 850Q-16 892 12 920T83 949ZM11 850Q11 819 32 799T83 778Q114 778 134 799T155 850Q155 881 134 901T83 922Q55 922 33 902T11 850Z"  />
<glyph unicode="&#xE309;" horiz-adv-x="167" d="M64 920H115L-19 780H-56L64 920ZM222 920H273L139 780H102L222 920Z"  />
<glyph unicode="&#xE30A;" horiz-adv-x="167" d="M61 896H105V793H61V896Z"  />
<glyph unicode="&#xE30B;" horiz-adv-x="167" d="M96 714H147L60 574H31L96 714Z"  />
<glyph unicode="&#xE30C;" horiz-adv-x="278" d="M119 -50H176V-132Q176 -192 113 -196V-176Q141 -169 144 -143H119V-50Z"  />
<glyph unicode="&#xE30D;" horiz-adv-x="278" d="M165 747Q138 741 134 714H159V621H102V700Q102 763 165 767V747Z"  />
<glyph unicode="&#xFB01;" horiz-adv-x="389" d="M205 722Q226 722 250 717V684Q221 689 205 689Q130 689 130 619V514H237V481H130V0H92V481H0V514H92V621Q92 671 123 696T205 722ZM286 714H324V611H286V714ZM286 514H324V0H286V514Z"  />
<glyph unicode="&#xFB02;" horiz-adv-x="389" d="M205 722Q226 722 250 717V684Q221 689 205 689Q130 689 130 619V514H237V481H130V0H92V481H0V514H92V621Q92 671 123 696T205 722ZM286 714H324V0H286V714Z"  />


</font>
</defs>
<text x="40" y="40" font-family="Helvetica Neue LT W02 35 Thin" font-size="30" fill="#933" >ABCDEFGHIJKLMNOPQRSTUVWXYZ abcdefghijklmnopqrstuvwxyz AÁÀÂÄÅÃÆ CÇ DÐ EÉÈÊË I Í Ì Î Ï NÑ</text>
<text x="40" y="80" font-family="Helvetica Neue LT W02 35 Thin" font-size="30" fill="#933" >OÓÒÔÖÕØŒ SŠ UÚÙÛÜ YÝŸ ZŽ Þ aáàâäåãæ cç dð eéèêë i ı í ì î ï nñ oóòôöõøœ sšß uúùûü yýÿ zž</text>
<text x="40" y="120" font-family="Helvetica Neue LT W02 35 Thin" font-size="30" fill="#933" >þ 1234567890 ½ ¼ ¾ % ‰ $¢£¥ƒ€¤ † ‡ § ¶ # ^~µ +×± &lt; = &gt; ÷¬ !¡?¿ &quot; &amp; &apos; * ° . , : ; () [ \ ] {} / |</text>
<text x="40" y="160" font-family="Helvetica Neue LT W02 35 Thin" font-size="30" fill="#933" >¦ _ ‚ „ … ‹› «» ‘ ’ “ ” • ­ - – — @ © ® ™ ªº ¹²³ ´ ` ˆ ˜ ¨ ¯ · ¸</text>
</svg>
