<?xml  version="1.0" encoding="UTF-8"?>
<!DOCTYPE svg PUBLIC "-//W3C//DTD SVG 1.0//EN" "http://www.w3.org/TR/2001/REC-SVG-20010904/DTD/svg10.dtd" >
<svg xmlns="http://www.w3.org/2000/svg" >
<metadata>
<version>1.0</version>
<id><![CDATA[Helvetica Neue LT W02 55 Roman]]></id>
<vendor>Monotype Imaging Inc.</vendor>
<credits>
<name>Fonts.com WebFonts</name>
<URL>http://webfonts.fonts.com</URL>
<role>Home of the Web fonts</role>
</credits>
<license>
<URL>http://webfonts.fonts.com/Legal</URL>
</license>
<copyright><![CDATA[Copyright © 2014 Monotype Imaging Inc. All rights reserved.]]></copyright>
<trademark><![CDATA[Neue Helvetica is a trademark of Monotype Imaging Inc. registered in the U.S. Patent and Trademark Office and may be registered in certain other jurisdictions.]]></trademark>
<licensee>
<name></name>
</licensee>
</metadata>
<defs >
<font horiz-adv-x="527" id="ea22c7fc-8a36-484f-85e6-d014662a2273">
<font-face font-family="Helvetica Neue LT W02 55 Roman" panose-1="2 11 6 4 2 2 2 2 2 4" ascent="973" descent="-214" units-per-em="1000" alphabetic="0">
</font-face>
<missing-glyph horiz-adv-x="512" d="M512 718V0H0V718H512ZM462 50V667H50V50H462ZM259 609Q313 609 348 573T383 478Q383 446 372 421T319 357Q285 326 278 311Q271 294 271 234H225L223 253Q223 304 236 332T286 395Q332 436 332 474Q332 508 309 533T256 559Q186 559 174 464L124 472Q138 609 259 609ZM222 184H278V117H222V184Z"  />

<glyph unicode="&#xA;" />
<glyph unicode="&#xD;" horiz-adv-x="278" />
<glyph unicode=" " horiz-adv-x="278" />
<glyph unicode="!" horiz-adv-x="259" d="M177 714V494L152 183H107L82 494V714H177ZM185 111V0H74V111H185Z"  />
<glyph unicode="&quot;" horiz-adv-x="426" d="M177 714V456H109V714H177ZM317 714V456H249V714H317Z"  />
<glyph unicode="#" horiz-adv-x="556" d="M269 697L240 492H364L394 697H462L433 492H522V424H424L403 274H494V206H393L364 0H295L324 206H200L171 0H102L131 206H34V274H141L162 424H60V492H171L201 697H269ZM210 274H334L355 424H231L210 274Z"  />
<glyph unicode="$" horiz-adv-x="556" d="M251 797H306V730Q459 713 503 532H418Q397 631 306 648V402L369 385Q440 364 482 316T525 200Q525 108 467 51T307 -17V-99H251V-17Q148 -6 91 54T25 218H110Q113 153 149 114T251 63V328Q134 356 90 397T46 521Q46 604 101 662T251 731V797ZM136 530Q136 485 161 460T251 417V651Q198 646 167 615T136 530ZM306 63Q435 73 435 191Q435 235 410 262T306 314V63Z"  />
<glyph unicode="%" horiz-adv-x="1000" d="M811 722L274 -22H188L726 722H811ZM254 709Q414 709 414 509Q414 417 373 363T254 308Q174 308 133 359T92 506Q92 603 133 656T254 709ZM167 507Q167 363 251 363Q339 363 339 509Q339 654 253 654Q167 654 167 507ZM748 389Q908 389 908 189Q908 96 864 42T748 -12Q670 -12 628 38T586 186Q586 283 627 336T748 389ZM661 188Q661 43 745 43Q833 43 833 189Q833 334 748 334Q661 334 661 188Z"  />
<glyph unicode="&amp;" horiz-adv-x="630" d="M282 714Q358 714 406 673T455 568Q455 459 321 383L450 226Q469 282 473 337H554Q549 283 541 251T506 161L645 0H534L458 88Q427 41 372 15T255 -12Q144 -12 89 44T33 184Q33 251 72 301T200 399L167 444Q121 506 121 567Q121 632 167 673T282 714ZM206 563Q206 539 220 513T275 439Q330 474 350 502T370 563Q370 594 348 616T288 639Q256 639 231 618T206 563ZM123 185Q123 136 162 100T259 63Q355 63 411 148L247 345Q177 306 150 271T123 185Z"  />
<glyph unicode="&apos;" horiz-adv-x="278" d="M173 714V456H105V714H173Z"  />
<glyph unicode="(" horiz-adv-x="259" d="M269 731Q137 525 137 270Q137 141 167 30T269 -198H204Q121 -68 84 43T47 270Q47 388 87 508T204 731H269Z"  />
<glyph unicode=")" horiz-adv-x="259" d="M55 731Q137 604 174 494T212 263Q212 142 171 24T55 -198H-10Q57 -92 89 19T122 263Q122 518 -10 731H55Z"  />
<glyph unicode="*" horiz-adv-x="352" d="M148 714H201V601L308 641L328 593L219 555L285 464L244 433L175 529L110 433L65 464L130 555L24 593L42 641L148 601V714Z"  />
<glyph unicode="+" horiz-adv-x="600" d="M334 506V287H552V219H334V0H266V219H48V287H266V506H334Z"  />
<glyph unicode="&#x2c;" horiz-adv-x="278" d="M194 111V4Q194 -52 168 -90T84 -147V-97Q111 -88 126 -63T142 -5V0H83V111H194Z"  />
<glyph unicode="-" horiz-adv-x="389" d="M339 318V238H50V318H339Z"  />
<glyph unicode="." horiz-adv-x="278" d="M194 111V0H83V111H194Z"  />
<glyph unicode="/" horiz-adv-x="333" d="M351 731L55 -17H-18L278 731H351Z"  />
<glyph unicode="0" horiz-adv-x="556" d="M278 709Q394 709 454 632T514 348Q514 141 454 65T278 -12Q159 -12 101 68T42 348Q42 551 101 630T278 709ZM132 349Q132 188 167 126T278 63Q356 63 390 128T424 346Q424 458 409 516T361 604T277 634Q210 634 171 577T132 349Z"  />
<glyph unicode="1" horiz-adv-x="556" d="M356 709V0H271V508H87V576H90Q180 576 229 608T291 709H356Z"  />
<glyph unicode="2" horiz-adv-x="556" d="M272 709Q373 709 433 652T494 505Q494 432 453 373T279 237Q203 193 168 157T123 75H487V0H24Q31 92 69 156T213 284Q317 346 360 391T404 505Q404 559 366 596T267 634Q204 634 167 587T129 465V458H44L43 476Q43 581 104 645T272 709Z"  />
<glyph unicode="3" horiz-adv-x="556" d="M264 709Q366 709 422 659T479 520Q479 476 454 439T381 378V376Q444 362 476 317T509 204Q509 108 442 49T266 -12Q157 -12 94 48T29 216V219H115Q118 144 158 104T266 63Q312 63 347 82T400 132T419 200Q419 263 378 299T265 336Q243 334 217 333V405Q231 404 249 404Q312 404 350 436T390 520Q390 572 357 602T264 634Q201 634 166 594T129 480H44Q50 592 107 650T264 709Z"  />
<glyph unicode="4" horiz-adv-x="556" d="M419 709V241H515V166H419V0H339V166H28V248L351 709H419ZM337 588L101 241H339V588H337Z"  />
<glyph unicode="5" horiz-adv-x="556" d="M470 697V622H184L146 418L148 416Q194 467 280 467Q386 467 447 402T509 225Q509 121 440 55T261 -12Q162 -12 100 45T35 190V191H120Q124 135 165 99T269 63Q337 63 378 109T419 231Q419 300 374 346T259 392Q184 392 127 325L54 329L120 697H470Z"  />
<glyph unicode="6" horiz-adv-x="556" d="M299 709Q387 709 439 662T499 528H414Q407 579 376 606T295 634Q129 634 123 365L125 363Q183 456 302 456Q399 456 459 391T519 227Q519 122 457 55T282 -12Q38 -12 38 330Q38 514 104 611T299 709ZM139 221Q139 151 179 107T286 63Q347 63 388 107T429 220Q429 294 391 337T285 381Q220 381 180 337T139 221Z"  />
<glyph unicode="7" horiz-adv-x="556" d="M509 697V624Q402 517 326 346T237 0H142Q154 166 224 323T422 617H50V697H509Z"  />
<glyph unicode="8" horiz-adv-x="556" d="M273 709Q374 709 431 660T488 528Q488 482 463 443T390 381Q516 341 516 204Q516 106 450 47T281 -12Q172 -12 106 46T40 204Q40 267 72 314T164 381Q117 401 91 440T65 528Q65 606 123 657T273 709ZM155 525Q155 474 188 443T281 411Q335 411 366 442T398 525Q398 577 367 605T278 634Q224 634 190 604T155 525ZM130 200Q130 137 172 100T281 63Q344 63 385 102T426 201Q426 255 384 295T279 336Q217 336 174 298T130 200Z"  />
<glyph unicode="9" horiz-adv-x="556" d="M267 709Q391 709 450 626T510 370Q510 173 449 81T264 -12Q172 -12 116 34T49 171H134Q141 119 176 91T264 63Q342 63 380 130T424 337L422 339Q397 293 354 267T257 241Q152 241 93 306T34 478Q34 579 99 644T267 709ZM124 466Q124 406 165 361T264 316Q324 316 366 360T409 472Q409 545 369 589T262 634Q197 634 161 589T124 466Z"  />
<glyph unicode=":" horiz-adv-x="278" d="M194 517V406H83V517H194ZM194 111V0H83V111H194Z"  />
<glyph unicode=";" horiz-adv-x="278" d="M194 517V406H83V517H194ZM194 111V-1Q194 -48 168 -89T84 -147V-97Q110 -88 126 -63T142 -5V0H83V111H194Z"  />
<glyph unicode="&lt;" horiz-adv-x="600" d="M554 446L129 253L554 60V-8L46 222V284L554 514V446Z"  />
<glyph unicode="=" horiz-adv-x="600" d="M552 388V320H48V388H552ZM552 186V118H48V186H552Z"  />
<glyph unicode="&gt;" horiz-adv-x="600" d="M46 514L554 284V222L46 -8V60L471 253L46 446V514Z"  />
<glyph unicode="?" horiz-adv-x="556" d="M278 731Q376 731 432 676T489 531Q489 481 468 441T396 354Q350 311 333 280T316 204V174H231V217Q231 267 251 304T319 386Q369 431 384 462T399 527Q399 585 368 620T278 656Q212 656 176 613T140 491H54V502Q54 600 115 665T278 731ZM328 111V0H217V111H328Z"  />
<glyph unicode="@" horiz-adv-x="800" d="M413 731Q558 731 655 642T753 423Q753 350 718 284T627 175T519 133Q491 133 474 150T455 198H452Q393 131 328 131Q265 131 225 177T185 290Q185 403 253 488T420 573Q500 573 532 491L555 554H618L535 272Q523 230 523 219Q523 188 547 188Q594 188 639 264T685 418Q685 531 604 603T414 676Q287 676 199 580T110 355Q110 223 201 131T419 38Q489 38 557 71T667 159H730Q681 75 596 29T417 -17Q314 -17 227 33T91 171T42 360Q42 510 149 620T413 731ZM260 296Q260 256 283 228T346 199Q405 199 453 269T501 412Q501 449 476 477T419 505Q355 505 308 436T260 296Z"  />
<glyph unicode="A" horiz-adv-x="648" d="M377 714L656 0H551L473 215H171L91 0H-7L272 714H377ZM322 628L201 295H443L324 628H322Z"  />
<glyph unicode="B" horiz-adv-x="685" d="M383 714Q515 714 562 660T610 539Q610 482 583 441T504 379V377Q570 363 605 317T640 205Q640 117 579 59T427 0H78V714H383ZM368 407Q440 407 477 433T515 521Q515 577 484 605T369 634H173V407H368ZM415 80Q473 80 509 114T545 208Q545 327 386 327H173V80H415Z"  />
<glyph unicode="C" horiz-adv-x="722" d="M381 731Q500 731 579 669T675 499H580Q564 573 512 612T380 651Q272 651 205 573T138 362Q138 222 203 143T381 63Q471 63 526 120T587 269H682Q667 130 587 57T373 -17Q221 -17 132 83T43 355Q43 522 134 626T381 731Z"  />
<glyph unicode="D" horiz-adv-x="704" d="M329 714Q491 714 578 629T666 374Q666 0 329 0H78V714H329ZM334 80Q447 80 509 153T571 361Q571 503 512 568T338 634H173V80H334Z"  />
<glyph unicode="E" horiz-adv-x="611" d="M571 714V634H173V407H544V327H173V80H574V0H78V714H571Z"  />
<glyph unicode="F" horiz-adv-x="574" d="M547 714V634H173V407H501V327H173V0H78V714H547Z"  />
<glyph unicode="G" horiz-adv-x="759" d="M383 731Q510 731 591 671T690 494H595Q581 570 526 610T383 651Q272 651 205 569T138 348Q138 227 205 145T383 63Q482 63 547 124T612 285V296H384V376H697V0H637L612 89Q573 38 513 11T383 -17Q237 -17 140 87T43 343Q43 513 133 622T383 731Z"  />
<glyph unicode="H" horiz-adv-x="722" d="M173 714V407H549V714H644V0H549V327H173V0H78V714H173Z"  />
<glyph unicode="I" horiz-adv-x="259" d="M177 714V0H82V714H177Z"  />
<glyph unicode="J" horiz-adv-x="519" d="M441 714V175Q441 84 386 34T230 -17Q133 -17 78 34T22 210V235H117V211Q117 130 143 97T232 63Q346 63 346 188V714H441Z"  />
<glyph unicode="K" horiz-adv-x="667" d="M173 714V358L535 714H658L357 426L670 0H550L292 361L173 250V0H78V714H173Z"  />
<glyph unicode="L" horiz-adv-x="556" d="M173 714V80H551V0H78V714H173Z"  />
<glyph unicode="M" horiz-adv-x="871" d="M210 714L435 114L661 714H791V0H701V594H699L476 0H395L172 594H170V0H80V714H210Z"  />
<glyph unicode="N" horiz-adv-x="722" d="M178 714L554 135H556V714H646V0H542L169 573H167V0H77V714H178Z"  />
<glyph unicode="O" horiz-adv-x="760" d="M380 731Q535 731 628 626T722 357Q722 191 627 87T380 -17Q226 -17 132 88T38 357Q38 517 130 624T380 731ZM133 357Q133 226 200 145T380 63Q492 63 559 143T627 357Q627 486 561 568T379 651Q265 651 199 568T133 357Z"  />
<glyph unicode="P" horiz-adv-x="648" d="M396 714Q493 714 551 661T610 503Q610 402 555 347T402 292H173V0H78V714H396ZM369 372Q437 372 476 404T515 503Q515 634 363 634H173V372H369Z"  />
<glyph unicode="Q" horiz-adv-x="760" d="M380 731Q534 731 628 628T722 357Q722 179 614 73L708 -2L660 -62L551 26Q480 -17 380 -17Q226 -17 132 88T38 357Q38 517 130 624T380 731ZM133 357Q133 226 200 145T380 63Q431 63 479 83L400 146L450 204L545 128Q627 210 627 357Q627 486 561 568T379 651Q265 651 199 568T133 357Z"  />
<glyph unicode="R" horiz-adv-x="685" d="M418 714Q515 714 573 663T631 527Q631 381 507 346V344Q563 334 587 293T616 157Q618 94 627 59T656 0H550Q541 12 539 23T533 55L529 133Q527 202 502 253T408 305H173V0H78V714H418ZM376 385Q536 385 536 512Q536 570 504 602T413 634H173V385H376Z"  />
<glyph unicode="S" horiz-adv-x="648" d="M318 731Q439 731 510 671T581 505H491Q475 651 314 651Q237 651 196 620T154 529Q154 492 185 464T383 402Q498 379 554 331T611 196Q611 96 529 40T332 -17Q197 -17 117 50T37 235H127Q128 152 185 108T335 63Q422 63 469 96T516 193Q516 245 471 275T315 327Q158 358 109 403T59 522Q59 617 130 674T318 731Z"  />
<glyph unicode="T" horiz-adv-x="574" d="M573 714V634H335V0H240V634H2V714H573Z"  />
<glyph unicode="U" horiz-adv-x="722" d="M169 714V254Q169 166 218 115T367 63Q460 63 506 115T553 254V714H648V253Q648 123 575 53T367 -17Q220 -17 147 53T74 253V714H169Z"  />
<glyph unicode="V" horiz-adv-x="611" d="M102 714L306 95H308L514 714H613L359 0H251L-1 714H102Z"  />
<glyph unicode="W" horiz-adv-x="926" d="M109 714L249 120H251L411 714H514L672 120H674L819 714H914L723 0H624L461 600H459L294 0H195L12 714H109Z"  />
<glyph unicode="X" horiz-adv-x="611" d="M127 714L305 435L491 714H597L361 367L612 0H496L304 295L106 0H-1L248 367L13 714H127Z"  />
<glyph unicode="Y" horiz-adv-x="648" d="M115 714L329 374L538 714H646L373 292V0H278V292L2 714H115Z"  />
<glyph unicode="Z" horiz-adv-x="611" d="M578 714V634L135 80H590V0H22V80L466 634H56V714H578Z"  />
<glyph unicode="[" horiz-adv-x="259" d="M259 731V663H152V-130H259V-198H72V731H259Z"  />
<glyph unicode="\" horiz-adv-x="333" d="M55 731L351 -17H278L-18 731H55Z"  />
<glyph unicode="]" horiz-adv-x="259" d="M187 731V-198H0V-130H107V663H0V731H187Z"  />
<glyph unicode="^" horiz-adv-x="600" d="M332 697L550 264H480L299 624L121 264H50L268 697H332Z"  />
<glyph unicode="_" horiz-adv-x="500" d="M500 -75V-125H0V-75H500Z"  />
<glyph unicode="`" horiz-adv-x="222" d="M86 732L172 589H108L-23 732H86Z"  />
<glyph unicode="a" horiz-adv-x="537" d="M276 529Q469 529 469 390V92Q469 63 496 63Q509 63 522 68V2Q497 -12 461 -12Q389 -12 389 68Q321 -12 207 -12Q127 -12 82 25T36 133Q36 202 81 243T290 305Q346 312 365 326T385 369Q385 454 270 454Q207 454 176 431T141 356H56Q66 529 276 529ZM126 139Q126 103 152 83T226 63Q295 63 339 97T384 178V267Q361 251 324 246L237 233Q180 225 153 203T126 139Z"  />
<glyph unicode="b" horiz-adv-x="593" d="M152 714V447H154Q195 529 319 529Q427 529 492 454T557 257Q557 136 493 62T321 -12Q273 -12 227 7T154 69H152V0H67V714H152ZM149 259Q149 169 191 116T312 63Q386 63 426 115T467 263Q467 348 424 401T306 454Q234 454 192 401T149 259Z"  />
<glyph unicode="c" horiz-adv-x="537" d="M280 529Q374 529 433 485T503 351H415Q393 454 287 454Q208 454 167 402T126 252Q126 167 166 115T277 63Q339 63 375 96T419 189H506Q492 92 434 40T278 -12Q166 -12 101 58T36 252Q36 380 101 454T280 529Z"  />
<glyph unicode="d" horiz-adv-x="593" d="M526 714V0H441V70H439Q419 30 376 9T274 -12Q167 -12 102 63T36 260Q36 382 99 455T271 529Q322 529 368 508T439 448H441V714H526ZM126 254Q126 169 170 116T286 63Q359 63 401 116T444 258Q444 346 402 400T280 454Q206 454 166 401T126 254Z"  />
<glyph unicode="e" horiz-adv-x="537" d="M279 529Q389 529 451 450T513 243V233H126V227Q126 152 169 108T287 63Q398 63 421 164H505Q488 77 430 33T284 -12Q162 -12 99 68T36 262Q36 377 105 453T279 529ZM423 308Q419 371 378 412T273 454Q214 454 173 415T126 308H423Z"  />
<glyph unicode="f" horiz-adv-x="296" d="M241 722Q273 722 297 714V640Q279 647 249 647Q184 647 184 591V517H284V442H184V0H99V442H12V517H99V598Q99 655 134 688T241 722Z"  />
<glyph unicode="g" horiz-adv-x="574" d="M274 529Q380 529 429 443H430V517H510V39Q510 -210 271 -210Q174 -210 117 -169T56 -58H141Q143 -95 181 -118T275 -142Q430 -142 430 56V88H428Q408 45 365 20T267 -6Q162 -6 99 66T36 256Q36 378 99 453T274 529ZM126 266Q126 175 164 122T272 69Q342 69 384 124T426 269Q426 352 387 403T278 454Q206 454 166 403T126 266Z"  />
<glyph unicode="h" horiz-adv-x="556" d="M149 714V441H151Q169 483 214 506T314 529Q492 529 492 344V0H407V353Q407 396 380 425T301 454Q229 454 189 410T149 295V0H64V714H149Z"  />
<glyph unicode="i" horiz-adv-x="222" d="M154 714V610H69V714H154ZM154 517V0H69V517H154Z"  />
<glyph unicode="j" horiz-adv-x="222" d="M154 714V610H69V714H154ZM154 517V-69Q154 -132 123 -164T30 -198Q4 -198 -14 -194V-121Q-9 -123 14 -123Q31 -123 43 -119T62 -102T69 -56V517H154Z"  />
<glyph unicode="k" horiz-adv-x="519" d="M154 714V291L390 517H504L299 329L519 0H411L234 270L154 196V0H69V714H154Z"  />
<glyph unicode="l" horiz-adv-x="222" d="M154 714V0H69V714H154Z"  />
<glyph unicode="m" horiz-adv-x="853" d="M313 529Q426 529 455 441Q481 483 523 506T618 529Q706 529 747 490T789 382V0H704V343Q704 399 681 426T604 454Q544 454 507 419T469 325V0H384V343Q384 399 361 426T287 454Q250 454 220 437T170 386T149 324V0H64V517H144V441H146Q204 529 313 529Z"  />
<glyph unicode="n" horiz-adv-x="556" d="M314 529Q492 529 492 344V0H407V353Q407 396 380 425T301 454Q228 454 189 410T149 295V0H64V517H144V435H146Q202 529 314 529Z"  />
<glyph unicode="o" horiz-adv-x="574" d="M287 529Q403 529 470 455T538 258Q538 140 471 64T287 -12Q173 -12 105 61T36 258Q36 382 103 455T287 529ZM126 258Q126 171 171 117T287 63Q357 63 402 116T448 258Q448 345 403 399T286 454Q217 454 172 399T126 258Z"  />
<glyph unicode="p" horiz-adv-x="593" d="M319 529Q429 529 493 455T557 257Q557 136 493 62T321 -12Q273 -12 227 7T154 69H152V-198H67V517H152V447H154Q195 529 319 529ZM149 259Q149 169 191 116T312 63Q386 63 426 115T467 263Q467 348 424 401T306 454Q234 454 192 402T149 259Z"  />
<glyph unicode="q" horiz-adv-x="593" d="M271 529Q322 529 368 508T439 448H441V517H526V-198H441V70H439Q419 30 376 9T274 -12Q167 -12 102 63T36 260Q36 383 100 456T271 529ZM126 254Q126 169 170 116T286 63Q359 63 401 116T444 258Q444 346 402 400T280 454Q206 454 166 401T126 254Z"  />
<glyph unicode="r" horiz-adv-x="333" d="M333 529V439Q237 439 192 389T146 231V0H61V517H141V408H143Q202 529 321 529H333Z"  />
<glyph unicode="s" horiz-adv-x="500" d="M236 529Q341 529 391 489T447 367H362V368Q358 410 326 432T242 454Q191 454 162 437T132 388Q132 359 158 342T237 312L317 294Q392 277 431 244T470 151Q470 74 411 31T250 -12Q151 -12 93 31T31 163H116Q118 115 154 89T255 63Q380 63 380 140Q380 174 350 194T219 235Q124 254 83 288T42 382Q42 448 94 488T236 529Z"  />
<glyph unicode="t" horiz-adv-x="315" d="M182 672V517H285V442H182V118Q182 95 191 85T236 75H285V0H215Q149 0 123 22T97 108V442H9V517H97V672H182Z"  />
<glyph unicode="u" horiz-adv-x="556" d="M149 517V165Q149 120 177 92T254 63Q329 63 368 107T407 222V517H492V0H412V82H410Q357 -12 242 -12Q64 -12 64 172V517H149Z"  />
<glyph unicode="v" horiz-adv-x="500" d="M109 517L254 86H256L397 517H486L297 0H206L14 517H109Z"  />
<glyph unicode="w" horiz-adv-x="758" d="M111 517L228 94H230L334 517H427L536 94H537L653 517H741L577 1L576 0H486L380 411H379L275 0H183L17 517H111Z"  />
<glyph unicode="x" horiz-adv-x="518" d="M132 517L255 337H256L385 517H487L309 279L509 0H400L256 214L112 0H9L203 272L23 517H132Z"  />
<glyph unicode="y" horiz-adv-x="500" d="M104 517L255 94H257L402 517H492L272 -55Q237 -148 205 -177T117 -207Q83 -207 58 -198V-120Q94 -132 108 -132Q161 -132 180 -80L213 3L8 517H104Z"  />
<glyph unicode="z" horiz-adv-x="480" d="M444 517V459L128 75H458V0H22V65L334 442H42V517H444Z"  />
<glyph unicode="{" horiz-adv-x="333" d="M309 731V671H259Q211 671 211 588V398Q211 353 187 317T124 268V265Q162 257 186 220T211 134V-55Q211 -138 259 -138H309V-198H237Q196 -198 164 -161T131 -70V119Q131 161 109 195T48 232V300Q83 302 107 335T131 415V603Q131 655 163 693T237 731H309Z"  />
<glyph unicode="|" horiz-adv-x="222" d="M145 786V-214H77V786H145Z"  />
<glyph unicode="}" horiz-adv-x="333" d="M91 731Q134 731 168 695T202 603V415Q202 370 224 336T285 300V232Q250 230 226 197T202 118V-70Q202 -122 170 -160T96 -198H24V-138H73Q122 -138 122 -55V134Q122 182 148 218T209 265V268Q171 276 147 311T122 398V586Q122 671 73 671H24V731H91Z"  />
<glyph unicode="~" horiz-adv-x="600" d="M495 319L531 269Q502 224 472 204T406 183Q359 183 299 219Q235 255 189 255Q163 255 144 238T105 179L69 229Q112 314 194 315Q242 315 307 282Q384 243 407 243Q441 243 471 285L495 319Z"  />
<glyph unicode="&#xA0;" horiz-adv-x="278" />
<glyph unicode="&#xA1;" horiz-adv-x="259" d="M185 517V406H74V517H185ZM107 333H152L177 22V-198H82V22L107 333Z"  />
<glyph unicode="&#xA2;" horiz-adv-x="556" d="M272 624H311V529Q492 523 514 351H427Q406 450 311 454V63Q411 73 432 189H517Q504 99 448 44T311 -12V-116H272V-12Q166 -6 106 65T46 252Q46 371 107 446T272 529V624ZM136 252Q136 172 171 121T272 63V454Q209 447 173 397T136 252Z"  />
<glyph unicode="&#xA3;" horiz-adv-x="556" d="M286 731Q401 731 461 666T522 483V473H437Q433 656 291 656Q228 656 188 617T148 524Q148 486 160 454T200 372H359V327H222Q242 288 242 251Q242 197 216 156T126 64L128 62L165 77Q198 91 233 91Q291 91 354 68Q386 58 412 58Q456 58 501 95L544 29Q488 -17 398 -17Q360 -17 298 3Q238 24 194 24Q142 24 94 -11L47 55Q157 130 157 233Q157 270 132 327H47V372H105Q58 450 58 528Q58 615 122 673T286 731Z"  />
<glyph unicode="&#xA4;" horiz-adv-x="556" d="M481 605L531 554L476 499Q528 445 528 351Q528 261 476 201L531 145L484 98L428 156Q367 101 280 101Q188 101 128 155L73 97L25 145L80 203Q28 267 28 349Q28 441 82 497L25 555L74 604L130 548Q189 599 281 599Q319 599 358 585T424 549L481 605ZM113 349Q113 275 162 226T280 176Q347 176 395 227T443 351Q443 420 397 472T280 524Q212 524 163 474T113 349Z"  />
<glyph unicode="&#xA5;" horiz-adv-x="556" d="M109 714L283 361L452 714H556L378 369H471V309H345L327 276V234H471V174H327V0H232V174H91V234H232V276L214 309H91V369H183L0 714H109Z"  />
<glyph unicode="&#xA6;" horiz-adv-x="222" d="M145 661V411H77V661H145ZM145 161V-89H77V161H145Z"  />
<glyph unicode="&#xA7;" horiz-adv-x="556" d="M281 731Q368 731 415 683T465 546H380Q379 596 352 626T279 656Q234 656 209 633T184 570Q184 538 213 509T314 442Q431 385 473 337T516 229Q516 183 489 143T412 82Q471 38 471 -38Q471 -109 418 -153T284 -198Q199 -198 145 -150T83 -9H168Q170 -62 200 -92T282 -123Q324 -123 353 -101T383 -40Q383 -15 367 6T324 48T190 126Q111 168 73 215T35 325Q35 368 64 408T142 463Q119 489 108 513T96 569Q96 638 149 684T281 731ZM117 329Q117 291 143 263T256 189Q314 158 362 124Q434 155 434 217Q434 243 412 271T306 349Q237 387 190 420Q156 408 137 383T117 329Z"  />
<glyph unicode="&#xA8;" horiz-adv-x="222" d="M62 706V602H-28V706H62ZM250 706V602H160V706H250Z"  />
<glyph unicode="&#xA9;" horiz-adv-x="800" d="M401 731Q553 731 664 624T776 359Q776 203 667 93T401 -17Q244 -17 134 93T24 359Q24 512 134 621T401 731ZM92 359Q92 225 179 132T401 38Q531 38 619 130T708 359Q708 491 620 583T400 676Q269 676 181 584T92 359ZM410 585Q484 585 535 546T598 433H535Q524 479 492 504T411 530Q340 530 300 482T259 359Q259 283 303 233T413 183Q460 183 493 210T535 285H599Q582 210 532 169T413 128Q317 128 254 191T191 357Q191 459 251 522T410 585Z"  />
<glyph unicode="&#xAA;" horiz-adv-x="378" d="M187 709Q253 709 285 687T317 625V461Q317 444 319 437T334 430Q350 430 353 432V388Q335 380 310 380Q263 380 259 425Q214 380 142 380Q90 380 58 403T25 469Q25 512 55 537T135 567Q229 577 244 584T260 610Q260 636 243 647T183 659Q140 659 122 646T100 603H40Q42 652 80 680T187 709ZM93 471Q93 449 108 440T155 430Q203 430 230 449T257 500V546Q245 535 165 525Q125 519 109 507T93 471Z"  />
<glyph unicode="&#xAB;" horiz-adv-x="463" d="M202 442V356L102 278L202 200V114L50 234V322L202 442ZM398 442V356L298 278L398 200V114L246 234V322L398 442Z"  />
<glyph unicode="&#xAC;" horiz-adv-x="600" d="M552 388V109H484V320H48V388H552Z"  />
<glyph unicode="&#xAD;" horiz-adv-x="389" d="M339 318V238H50V318H339Z"  />
<glyph unicode="&#xAE;" horiz-adv-x="800" d="M401 731Q553 731 664 624T776 359Q776 203 667 93T401 -17Q244 -17 134 93T24 359Q24 512 134 621T401 731ZM92 359Q92 225 179 132T401 38Q531 38 619 130T708 359Q708 493 620 584T400 676Q268 676 180 584T92 359ZM428 576Q577 576 577 451Q577 347 462 332L587 139H514L395 327H323V139H255V576H428ZM401 382Q463 382 486 398T509 454Q509 521 417 521H323V382H401Z"  />
<glyph unicode="&#xAF;" horiz-adv-x="222" d="M282 682V627H-59V682H282Z"  />
<glyph unicode="&#xB0;" horiz-adv-x="400" d="M200 709Q260 709 302 666T344 565Q344 504 302 463T200 421Q139 421 98 462T56 565Q56 625 98 667T200 709ZM106 565Q106 528 131 500T200 471Q243 471 268 499T294 565Q294 604 267 631T200 659Q159 659 133 632T106 565Z"  />
<glyph unicode="&#xB1;" horiz-adv-x="600" d="M334 505V339H552V271H334V104H266V271H48V339H266V505H334ZM552 68V0H48V68H552Z"  />
<glyph unicode="&#xB2;" horiz-adv-x="370" d="M194 829Q256 829 295 794T334 703Q334 652 307 618T208 547Q157 521 135 499T107 452H328V397H31Q35 471 68 515T170 594Q230 624 248 645T266 701Q266 733 247 753T193 774Q111 774 107 675H39Q39 744 81 786T194 829Z"  />
<glyph unicode="&#xB3;" horiz-adv-x="370" d="M188 829Q250 829 287 797T325 714Q325 685 306 661T256 626V624Q342 603 342 523Q342 463 298 426T185 388Q112 388 71 425T29 530H95Q95 488 119 465T187 442Q229 442 252 463T275 520Q275 555 252 574T187 594H154V644H165Q189 644 203 646T233 658T253 681T258 710Q258 740 239 757T188 775Q110 775 105 686H39Q41 753 82 791T188 829Z"  />
<glyph unicode="&#xB4;" horiz-adv-x="222" d="M245 732L114 589H50L136 732H245Z"  />
<glyph unicode="&#xB5;" horiz-adv-x="556" d="M152 517V164Q152 119 179 91T255 63Q325 63 366 107T407 222V517H492V0H412V82H410Q353 -12 253 -12Q187 -12 154 23H152V-198H67V517H152Z"  />
<glyph unicode="&#xB6;" horiz-adv-x="600" d="M515 714V-155H447V659H325V-155H257V322Q163 323 106 376T48 508Q48 601 108 657T271 714H515Z"  />
<glyph unicode="&#xB7;" horiz-adv-x="278" d="M139 375Q167 375 185 356T203 311Q203 286 184 267T140 247Q114 247 95 266T75 311Q75 338 94 356T139 375Z"  />
<glyph unicode="&#xB8;" horiz-adv-x="222" d="M102 0H144L102 -53L104 -55Q117 -48 137 -48Q173 -48 196 -67T221 -121Q221 -163 187 -186T97 -210Q49 -210 5 -191L23 -147Q56 -160 88 -160Q145 -159 146 -129Q146 -116 133 -107T99 -98Q76 -98 58 -106L41 -78L102 0Z"  />
<glyph unicode="&#xB9;" horiz-adv-x="370" d="M242 822V397H174V701H59V751Q177 751 192 822H242Z"  />
<glyph unicode="&#xBA;" horiz-adv-x="384" d="M192 709Q268 709 313 664T359 543Q359 466 315 424T193 380Q118 380 72 424T25 543Q25 618 70 663T192 709ZM93 543Q93 492 118 462T193 430Q241 430 266 460T291 542Q291 600 265 629T191 659Q147 659 121 630T93 543Z"  />
<glyph unicode="&#xBB;" horiz-adv-x="463" d="M65 442L217 322V234L65 114V200L165 278L65 356V442ZM261 442L413 322V234L261 114V200L361 278L261 356V442Z"  />
<glyph unicode="&#xBC;" horiz-adv-x="834" d="M649 725L214 -28H150L585 725H649ZM229 709V280H161V588H46V638H49Q162 638 179 709H229ZM717 423V157H773V102H717V0H651V102H459V170L651 423H717ZM649 338L514 157H651V338H649Z"  />
<glyph unicode="&#xBD;" horiz-adv-x="834" d="M629 725L194 -28H130L565 725H629ZM229 709V280H161V588H46V638H49Q162 638 179 709H229ZM647 432Q709 432 748 398T787 306Q787 263 764 228T658 148Q568 102 560 55H781V0H484Q487 69 519 115T617 194Q681 225 700 247T719 304Q719 336 700 356T646 377Q564 377 560 278H492Q493 351 536 391T647 432Z"  />
<glyph unicode="&#xBE;" horiz-adv-x="834" d="M700 725L265 -28H201L636 725H700ZM207 712Q270 712 307 680T344 598Q344 570 327 546T275 509V507Q361 487 361 406Q361 347 316 309T204 271Q132 271 91 307T48 413H114Q118 325 206 325Q247 325 270 345T294 403Q294 437 272 457T209 477H173V527H184Q226 527 245 537T270 560T277 593Q277 622 258 640T207 658Q128 658 124 569H58Q60 636 101 674T207 712ZM717 423V157H773V102H717V0H651V102H459V170L651 423H717ZM649 338L514 157H651V338H649Z"  />
<glyph unicode="&#xBF;" horiz-adv-x="556" d="M337 517V406H226V517H337ZM326 339V318Q326 256 308 221T235 132Q194 93 176 63T158 -6Q158 -66 190 -100T279 -135Q345 -135 381 -92T418 30H503V28Q503 -80 440 -145T279 -210Q184 -210 126 -156T68 -10Q68 41 87 78T161 167Q214 215 227 244T241 323V339H326Z"  />
<glyph unicode="&#xC0;" horiz-adv-x="648" d="M377 714L656 0H551L473 215H171L91 0H-7L272 714H377ZM322 628L201 295H443L324 628H322ZM287 922L373 779H309L178 922H287Z"  />
<glyph unicode="&#xC1;" horiz-adv-x="648" d="M377 714L656 0H551L473 215H171L91 0H-7L272 714H377ZM322 628L201 295H443L324 628H322ZM467 922L336 779H272L358 922H467Z"  />
<glyph unicode="&#xC2;" horiz-adv-x="648" d="M377 714L656 0H551L473 215H171L91 0H-7L272 714H377ZM322 628L201 295H443L324 628H322ZM372 922L476 779H392L323 875L253 779H176L279 922H372Z"  />
<glyph unicode="&#xC3;" horiz-adv-x="648" d="M377 714L656 0H551L473 215H171L91 0H-7L272 714H377ZM322 628L201 295H443L324 628H322ZM498 907Q479 797 397 796Q379 796 353 804T301 824Q276 835 256 835Q222 835 207 793H155Q179 903 261 903Q291 903 335 883Q379 863 400 863Q433 863 446 907H498Z"  />
<glyph unicode="&#xC4;" horiz-adv-x="648" d="M377 714L656 0H551L473 215H171L91 0H-7L272 714H377ZM322 628L201 295H443L324 628H322ZM276 897V793H186V897H276ZM464 897V793H374V897H464Z"  />
<glyph unicode="&#xC5;" horiz-adv-x="648" d="M377 714L656 0H551L473 215H171L91 0H-7L272 714H377ZM322 628L201 295H443L324 628H322ZM324 973Q371 973 404 941T437 861Q437 815 404 782T324 749Q277 749 244 782T211 861Q211 908 244 940T324 973ZM257 860Q257 831 276 812T324 792Q354 792 372 812T391 860Q391 888 372 908T323 928Q296 928 277 909T257 860Z"  />
<glyph unicode="&#xC6;" horiz-adv-x="926" d="M889 714V634H538V407H868V327H538V80H895V0H448V208H202L100 0H-7L354 714H889ZM239 288H448V634H407L239 288Z"  />
<glyph unicode="&#xC7;" horiz-adv-x="722" d="M381 731Q500 731 579 669T675 499H580Q564 573 512 612T380 651Q272 651 205 573T138 362Q138 222 203 143T381 63Q471 63 526 120T587 269H682Q667 133 590 60T381 -16L352 -53L354 -55Q367 -48 387 -48Q423 -48 447 -68T471 -121Q471 -163 436 -186T347 -210Q302 -210 255 -191L273 -147Q306 -160 338 -160Q396 -160 396 -129Q396 -115 383 -107T349 -98Q328 -98 308 -106L291 -78L340 -15Q198 -3 121 96T43 355Q43 525 136 628T381 731Z"  />
<glyph unicode="&#xC8;" horiz-adv-x="611" d="M571 714V634H173V407H544V327H173V80H574V0H78V714H571ZM275 922L361 779H297L166 922H275Z"  />
<glyph unicode="&#xC9;" horiz-adv-x="611" d="M571 714V634H173V407H544V327H173V80H574V0H78V714H571ZM465 922L334 779H270L356 922H465Z"  />
<glyph unicode="&#xCA;" horiz-adv-x="611" d="M571 714V634H173V407H544V327H173V80H574V0H78V714H571ZM365 922L469 779H385L316 875L246 779H169L272 922H365Z"  />
<glyph unicode="&#xCB;" horiz-adv-x="611" d="M571 714V634H173V407H544V327H173V80H574V0H78V714H571ZM270 897V793H180V897H270ZM458 897V793H368V897H458Z"  />
<glyph unicode="&#xCC;" horiz-adv-x="259" d="M177 714V0H82V714H177ZM91 922L177 779H113L-18 922H91Z"  />
<glyph unicode="&#xCD;" horiz-adv-x="259" d="M177 714V0H82V714H177ZM275 922L144 779H80L166 922H275Z"  />
<glyph unicode="&#xCE;" horiz-adv-x="259" d="M177 714V0H82V714H177ZM177 922L281 779H197L128 875L58 779H-19L84 922H177Z"  />
<glyph unicode="&#xCF;" horiz-adv-x="259" d="M177 714V0H82V714H177ZM81 897V793H-9V897H81ZM269 897V793H179V897H269Z"  />
<glyph unicode="&#xD0;" horiz-adv-x="704" d="M329 714Q491 714 578 629T666 374Q666 0 329 0H78V341H8V405H78V714H329ZM387 405V341H173V80H334Q447 80 509 153T571 361Q571 503 512 568T338 634H173V405H387Z"  />
<glyph unicode="&#xD1;" horiz-adv-x="722" d="M178 714L554 135H556V714H646V0H542L169 573H167V0H77V714H178ZM535 907Q516 797 434 796Q416 796 390 804T338 824Q313 835 293 835Q259 835 244 793H192Q216 903 298 903Q328 903 372 883Q416 863 437 863Q470 863 483 907H535Z"  />
<glyph unicode="&#xD2;" horiz-adv-x="760" d="M380 731Q535 731 628 626T722 357Q722 191 627 87T380 -17Q226 -17 132 88T38 357Q38 517 130 624T380 731ZM133 357Q133 226 200 145T380 63Q492 63 559 143T627 357Q627 486 561 568T379 651Q265 651 199 568T133 357ZM338 922L424 779H360L229 922H338Z"  />
<glyph unicode="&#xD3;" horiz-adv-x="760" d="M380 731Q535 731 628 626T722 357Q722 191 627 87T380 -17Q226 -17 132 88T38 357Q38 517 130 624T380 731ZM133 357Q133 226 200 145T380 63Q492 63 559 143T627 357Q627 486 561 568T379 651Q265 651 199 568T133 357ZM528 922L397 779H333L419 922H528Z"  />
<glyph unicode="&#xD4;" horiz-adv-x="760" d="M380 731Q535 731 628 626T722 357Q722 191 627 87T380 -17Q226 -17 132 88T38 357Q38 517 130 624T380 731ZM133 357Q133 226 200 145T380 63Q492 63 559 143T627 357Q627 486 561 568T379 651Q265 651 199 568T133 357ZM428 922L532 779H448L379 875L309 779H232L335 922H428Z"  />
<glyph unicode="&#xD5;" horiz-adv-x="760" d="M380 731Q535 731 628 626T722 357Q722 191 627 87T380 -17Q226 -17 132 88T38 357Q38 517 130 624T380 731ZM133 357Q133 226 200 145T380 63Q492 63 559 143T627 357Q627 486 561 568T379 651Q265 651 199 568T133 357ZM554 907Q535 797 453 796Q435 796 409 804T357 824Q332 835 312 835Q278 835 263 793H211Q235 903 317 903Q347 903 391 883Q435 863 456 863Q489 863 502 907H554Z"  />
<glyph unicode="&#xD6;" horiz-adv-x="760" d="M380 731Q535 731 628 626T722 357Q722 191 627 87T380 -17Q226 -17 132 88T38 357Q38 517 130 624T380 731ZM133 357Q133 226 200 145T380 63Q492 63 559 143T627 357Q627 486 561 568T379 651Q265 651 199 568T133 357ZM332 897V793H242V897H332ZM520 897V793H430V897H520Z"  />
<glyph unicode="&#xD7;" horiz-adv-x="600" d="M120 482L300 302L480 482L528 434L349 254L529 72L481 24L300 206L119 24L70 72L252 254L71 434L120 482Z"  />
<glyph unicode="&#xD8;" horiz-adv-x="760" d="M380 731Q522 731 612 643L691 730L723 700L641 610Q722 506 722 357Q722 190 627 87T380 -17Q243 -17 151 69L70 -20L37 10L121 102Q38 203 38 357Q38 517 130 624T380 731ZM133 357Q133 247 183 170L551 577H552Q486 651 379 651Q263 651 198 566T133 357ZM210 134Q274 63 380 63Q493 63 560 145T627 357Q627 462 579 541L210 134Z"  />
<glyph unicode="&#xD9;" horiz-adv-x="722" d="M169 714V254Q169 166 218 115T367 63Q460 63 506 115T553 254V714H648V253Q648 123 575 53T367 -17Q220 -17 147 53T74 253V714H169ZM320 922L406 779H342L211 922H320Z"  />
<glyph unicode="&#xDA;" horiz-adv-x="722" d="M169 714V254Q169 166 218 115T367 63Q460 63 506 115T553 254V714H648V253Q648 123 575 53T367 -17Q220 -17 147 53T74 253V714H169ZM510 922L379 779H315L401 922H510Z"  />
<glyph unicode="&#xDB;" horiz-adv-x="722" d="M169 714V254Q169 166 218 115T367 63Q460 63 506 115T553 254V714H648V253Q648 123 575 53T367 -17Q220 -17 147 53T74 253V714H169ZM410 922L514 779H430L361 875L291 779H214L317 922H410Z"  />
<glyph unicode="&#xDC;" horiz-adv-x="722" d="M169 714V254Q169 166 218 115T367 63Q460 63 506 115T553 254V714H648V253Q648 123 575 53T367 -17Q220 -17 147 53T74 253V714H169ZM314 897V793H224V897H314ZM502 897V793H412V897H502Z"  />
<glyph unicode="&#xDD;" horiz-adv-x="648" d="M115 714L329 374L538 714H646L373 292V0H278V292L2 714H115ZM475 922L344 779H280L366 922H475Z"  />
<glyph unicode="&#xDE;" horiz-adv-x="648" d="M173 714V600H391Q491 600 550 547T610 388Q610 284 553 231T396 178H173V0H78V714H173ZM363 258Q515 258 515 388Q515 520 363 520H173V258H363Z"  />
<glyph unicode="&#xDF;" horiz-adv-x="556" d="M262 731Q349 731 409 682T469 556Q469 435 365 401V399Q423 393 462 343T501 220Q501 119 436 54T270 -12Q241 -12 227 -8V66Q241 63 257 63Q332 63 371 104T411 209Q411 291 372 325T236 359H227V427H247Q308 427 343 456T379 543Q379 590 347 623T268 656Q201 656 175 620T149 521V0H64V528Q64 618 118 674T262 731Z"  />
<glyph unicode="&#xE0;" horiz-adv-x="537" d="M276 529Q469 529 469 390V92Q469 63 496 63Q509 63 522 68V2Q497 -12 461 -12Q389 -12 389 68Q321 -12 207 -12Q127 -12 82 25T36 133Q36 202 81 243T290 305Q346 312 365 326T385 369Q385 454 270 454Q207 454 176 431T141 356H56Q66 529 276 529ZM126 139Q126 103 152 83T226 63Q295 63 339 97T384 178V267Q361 251 324 246L237 233Q180 225 153 203T126 139ZM231 732L317 589H253L122 732H231Z"  />
<glyph unicode="&#xE1;" horiz-adv-x="537" d="M276 529Q469 529 469 390V92Q469 63 496 63Q509 63 522 68V2Q497 -12 461 -12Q389 -12 389 68Q321 -12 207 -12Q127 -12 82 25T36 133Q36 202 81 243T290 305Q346 312 365 326T385 369Q385 454 270 454Q207 454 176 431T141 356H56Q66 529 276 529ZM126 139Q126 103 152 83T226 63Q295 63 339 97T384 178V267Q361 251 324 246L237 233Q180 225 153 203T126 139ZM417 732L286 589H222L308 732H417Z"  />
<glyph unicode="&#xE2;" horiz-adv-x="537" d="M276 529Q469 529 469 390V92Q469 63 496 63Q509 63 522 68V2Q497 -12 461 -12Q389 -12 389 68Q321 -12 207 -12Q127 -12 82 25T36 133Q36 202 81 243T290 305Q346 312 365 326T385 369Q385 454 270 454Q207 454 176 431T141 356H56Q66 529 276 529ZM126 139Q126 103 152 83T226 63Q295 63 339 97T384 178V267Q361 251 324 246L237 233Q180 225 153 203T126 139ZM319 732L423 589H339L270 685L200 589H123L226 732H319Z"  />
<glyph unicode="&#xE3;" horiz-adv-x="537" d="M276 529Q469 529 469 390V92Q469 63 496 63Q509 63 522 68V2Q497 -12 461 -12Q389 -12 389 68Q321 -12 207 -12Q127 -12 82 25T36 133Q36 202 81 243T290 305Q346 312 365 326T385 369Q385 454 270 454Q207 454 176 431T141 356H56Q66 529 276 529ZM126 139Q126 103 152 83T226 63Q295 63 339 97T384 178V267Q361 251 324 246L237 233Q180 225 153 203T126 139ZM445 717Q426 608 344 606Q324 606 300 614T248 634Q220 645 203 645Q169 645 154 603H102Q126 713 208 713Q237 713 282 693Q329 673 347 673Q379 673 393 717H445Z"  />
<glyph unicode="&#xE4;" horiz-adv-x="537" d="M276 529Q469 529 469 390V92Q469 63 496 63Q509 63 522 68V2Q497 -12 461 -12Q389 -12 389 68Q321 -12 207 -12Q127 -12 82 25T36 133Q36 202 81 243T290 305Q346 312 365 326T385 369Q385 454 270 454Q207 454 176 431T141 356H56Q66 529 276 529ZM126 139Q126 103 152 83T226 63Q295 63 339 97T384 178V267Q361 251 324 246L237 233Q180 225 153 203T126 139ZM223 706V602H133V706H223ZM411 706V602H321V706H411Z"  />
<glyph unicode="&#xE5;" horiz-adv-x="537" d="M276 529Q469 529 469 390V92Q469 63 496 63Q509 63 522 68V2Q497 -12 461 -12Q389 -12 389 68Q321 -12 207 -12Q127 -12 82 25T36 133Q36 202 81 243T290 305Q346 312 365 326T385 369Q385 454 270 454Q207 454 176 431T141 356H56Q66 529 276 529ZM126 139Q126 103 152 83T226 63Q295 63 339 97T384 178V267Q361 251 324 246L237 233Q180 225 153 203T126 139ZM272 788Q319 788 352 755T385 676Q385 630 352 597T272 564Q225 564 192 596T159 676Q159 722 192 755T272 788ZM205 675Q205 647 223 627T272 607Q302 607 320 627T339 675Q339 703 321 723T271 743Q245 743 225 724T205 675Z"  />
<glyph unicode="&#xE6;" horiz-adv-x="870" d="M275 529Q343 529 385 512T448 454Q471 489 513 508T613 529Q726 529 785 458T846 233H467Q469 151 511 107T622 63Q674 63 708 89T753 163H840Q820 78 762 34T616 -12Q475 -12 429 89Q371 -10 211 -12Q128 -12 83 25T36 133Q36 180 54 211T105 260T225 294L299 307Q349 315 368 329T387 374Q387 414 361 433T271 454Q204 454 174 430T141 356H56Q66 527 275 529ZM756 308Q754 374 714 414T612 454Q548 454 509 414T467 308H756ZM126 139Q126 102 154 83T226 63Q294 63 340 97T387 178V267Q359 249 287 241Q186 229 156 205T126 139Z"  />
<glyph unicode="&#xE7;" horiz-adv-x="537" d="M280 529Q374 529 433 485T503 351H415Q393 454 287 454Q208 454 167 402T126 252Q126 167 166 115T277 63Q339 63 375 96T419 189H506Q492 95 438 44T293 -10L260 -53L262 -55Q273 -48 295 -48Q332 -48 355 -68T379 -121Q379 -164 344 -187T255 -210Q206 -210 163 -191L181 -147Q216 -160 246 -160Q271 -160 287 -152T304 -129Q304 -115 291 -107T257 -98Q237 -98 216 -106L199 -78L252 -10H251Q149 -2 93 67T36 252Q36 380 101 454T280 529Z"  />
<glyph unicode="&#xE8;" horiz-adv-x="537" d="M279 529Q389 529 451 450T513 243V233H126V227Q126 152 169 108T287 63Q398 63 421 164H505Q488 77 430 33T284 -12Q162 -12 99 68T36 262Q36 377 105 453T279 529ZM423 308Q419 371 378 412T273 454Q214 454 173 415T126 308H423ZM240 732L326 589H262L131 732H240Z"  />
<glyph unicode="&#xE9;" horiz-adv-x="537" d="M279 529Q389 529 451 450T513 243V233H126V227Q126 152 169 108T287 63Q398 63 421 164H505Q488 77 430 33T284 -12Q162 -12 99 68T36 262Q36 377 105 453T279 529ZM423 308Q419 371 378 412T273 454Q214 454 173 415T126 308H423ZM426 732L295 589H231L317 732H426Z"  />
<glyph unicode="&#xEA;" horiz-adv-x="537" d="M279 529Q389 529 451 450T513 243V233H126V227Q126 152 169 108T287 63Q398 63 421 164H505Q488 77 430 33T284 -12Q162 -12 99 68T36 262Q36 377 105 453T279 529ZM423 308Q419 371 378 412T273 454Q214 454 173 415T126 308H423ZM328 732L432 589H348L279 685L209 589H132L235 732H328Z"  />
<glyph unicode="&#xEB;" horiz-adv-x="537" d="M279 529Q389 529 451 450T513 243V233H126V227Q126 152 169 108T287 63Q398 63 421 164H505Q488 77 430 33T284 -12Q162 -12 99 68T36 262Q36 377 105 453T279 529ZM423 308Q419 371 378 412T273 454Q214 454 173 415T126 308H423ZM232 706V602H142V706H232ZM420 706V602H330V706H420Z"  />
<glyph unicode="&#xEC;" horiz-adv-x="222" d="M154 517V0H69V517H154ZM71 732L157 589H93L-38 732H71Z"  />
<glyph unicode="&#xED;" horiz-adv-x="222" d="M154 517V0H69V517H154ZM257 732L126 589H62L148 732H257Z"  />
<glyph unicode="&#xEE;" horiz-adv-x="222" d="M154 517V0H69V517H154ZM159 732L263 589H179L110 685L40 589H-37L66 732H159Z"  />
<glyph unicode="&#xEF;" horiz-adv-x="222" d="M154 517V0H69V517H154ZM63 706V602H-27V706H63ZM251 706V602H161V706H251Z"  />
<glyph unicode="&#xF0;" horiz-adv-x="574" d="M247 731L324 675L444 731L479 694L364 641Q538 501 538 258Q538 135 468 62T287 -12Q173 -12 105 62T36 257Q36 364 102 435T272 506Q361 506 411 450H413Q392 495 358 536T291 601L176 547L138 587L248 638Q209 669 177 686L247 731ZM126 258Q126 171 171 117T287 63Q357 63 402 116T448 257Q448 335 405 383T281 431Q208 431 167 385T126 258Z"  />
<glyph unicode="&#xF1;" horiz-adv-x="556" d="M314 529Q492 529 492 344V0H407V353Q407 396 380 425T301 454Q228 454 189 410T149 295V0H64V517H144V435H146Q202 529 314 529ZM454 717Q435 608 353 606Q333 606 309 614T257 634Q229 645 212 645Q178 645 163 603H111Q135 713 217 713Q246 713 291 693Q338 673 356 673Q388 673 402 717H454Z"  />
<glyph unicode="&#xF2;" horiz-adv-x="574" d="M287 529Q403 529 470 455T538 258Q538 140 471 64T287 -12Q173 -12 105 61T36 258Q36 382 103 455T287 529ZM126 258Q126 171 171 117T287 63Q357 63 402 116T448 258Q448 345 403 399T286 454Q217 454 172 399T126 258ZM245 732L331 589H267L136 732H245Z"  />
<glyph unicode="&#xF3;" horiz-adv-x="574" d="M287 529Q403 529 470 455T538 258Q538 140 471 64T287 -12Q173 -12 105 61T36 258Q36 382 103 455T287 529ZM126 258Q126 171 171 117T287 63Q357 63 402 116T448 258Q448 345 403 399T286 454Q217 454 172 399T126 258ZM435 732L304 589H240L326 732H435Z"  />
<glyph unicode="&#xF4;" horiz-adv-x="574" d="M287 529Q403 529 470 455T538 258Q538 140 471 64T287 -12Q173 -12 105 61T36 258Q36 382 103 455T287 529ZM126 258Q126 171 171 117T287 63Q357 63 402 116T448 258Q448 345 403 399T286 454Q217 454 172 399T126 258ZM335 732L439 589H355L286 685L216 589H139L242 732H335Z"  />
<glyph unicode="&#xF5;" horiz-adv-x="574" d="M287 529Q403 529 470 455T538 258Q538 140 471 64T287 -12Q173 -12 105 61T36 258Q36 382 103 455T287 529ZM126 258Q126 171 171 117T287 63Q357 63 402 116T448 258Q448 345 403 399T286 454Q217 454 172 399T126 258ZM461 717Q442 608 360 606Q340 606 316 614T264 634Q236 645 219 645Q185 645 170 603H118Q142 713 224 713Q253 713 298 693Q345 673 363 673Q395 673 409 717H461Z"  />
<glyph unicode="&#xF6;" horiz-adv-x="574" d="M287 529Q403 529 470 455T538 258Q538 140 471 64T287 -12Q173 -12 105 61T36 258Q36 382 103 455T287 529ZM126 258Q126 171 171 117T287 63Q357 63 402 116T448 258Q448 345 403 399T286 454Q217 454 172 399T126 258ZM239 706V602H149V706H239ZM427 706V602H337V706H427Z"  />
<glyph unicode="&#xF7;" horiz-adv-x="600" d="M300 523Q325 523 344 504T364 459Q364 435 345 415T301 395Q275 395 256 414T236 459Q236 484 254 503T300 523ZM552 287V219H48V287H552ZM300 111Q326 111 345 93T364 47Q364 23 345 3T301 -17Q275 -17 256 2T236 47Q236 73 255 92T300 111Z"  />
<glyph unicode="&#xF8;" horiz-adv-x="574" d="M513 535L540 509L480 443Q538 373 538 258Q538 140 471 64T287 -12Q188 -12 122 45L62 -22L34 2L96 71Q36 143 36 258Q36 382 105 455T287 529Q392 529 455 470L513 535ZM126 258Q126 190 156 137L397 406H398Q355 454 286 454Q217 454 172 399T126 258ZM179 108Q222 63 287 63Q357 63 402 116T448 258Q448 322 420 377L179 108Z"  />
<glyph unicode="&#xF9;" horiz-adv-x="556" d="M149 517V165Q149 120 177 92T254 63Q329 63 368 107T407 222V517H492V0H412V82H410Q357 -12 242 -12Q64 -12 64 172V517H149ZM237 732L323 589H259L128 732H237Z"  />
<glyph unicode="&#xFA;" horiz-adv-x="556" d="M149 517V165Q149 120 177 92T254 63Q329 63 368 107T407 222V517H492V0H412V82H410Q357 -12 242 -12Q64 -12 64 172V517H149ZM423 732L292 589H228L314 732H423Z"  />
<glyph unicode="&#xFB;" horiz-adv-x="556" d="M149 517V165Q149 120 177 92T254 63Q329 63 368 107T407 222V517H492V0H412V82H410Q357 -12 242 -12Q64 -12 64 172V517H149ZM325 732L429 589H345L276 685L206 589H129L232 732H325Z"  />
<glyph unicode="&#xFC;" horiz-adv-x="556" d="M149 517V165Q149 120 177 92T254 63Q329 63 368 107T407 222V517H492V0H412V82H410Q357 -12 242 -12Q64 -12 64 172V517H149ZM229 706V602H139V706H229ZM417 706V602H327V706H417Z"  />
<glyph unicode="&#xFD;" horiz-adv-x="500" d="M104 517L255 94H257L402 517H492L272 -55Q237 -148 205 -177T117 -207Q83 -207 58 -198V-120Q94 -132 108 -132Q161 -132 180 -80L213 3L8 517H104ZM400 732L269 589H205L291 732H400Z"  />
<glyph unicode="&#xFE;" horiz-adv-x="593" d="M152 714V447H154Q195 529 319 529Q427 529 492 455T557 257Q557 136 493 62T321 -12Q273 -12 227 7T154 69H152V-198H67V714H152ZM149 259Q149 169 191 116T312 63Q386 63 426 115T467 263Q467 350 424 402T306 454Q234 454 192 402T149 259Z"  />
<glyph unicode="&#xFF;" horiz-adv-x="500" d="M104 517L255 94H257L402 517H492L272 -55Q237 -148 205 -177T117 -207Q83 -207 58 -198V-120Q94 -132 108 -132Q161 -132 180 -80L213 3L8 517H104ZM206 706V602H116V706H206ZM394 706V602H304V706H394Z"  />
<glyph unicode="&#x100;" horiz-adv-x="648" d="M377 714L656 0H551L473 215H171L91 0H-7L272 714H377ZM322 628L201 295H443L324 628H322ZM496 872V817H155V872H496Z"  />
<glyph unicode="&#x101;" horiz-adv-x="537" d="M276 529Q469 529 469 390V92Q469 63 496 63Q509 63 522 68V2Q497 -12 461 -12Q389 -12 389 68Q321 -12 207 -12Q127 -12 82 25T36 133Q36 202 81 243T290 305Q346 312 365 326T385 369Q385 454 270 454Q207 454 176 431T141 356H56Q66 529 276 529ZM126 139Q126 103 152 83T226 63Q295 63 339 97T384 178V267Q361 251 324 246L237 233Q180 225 153 203T126 139ZM443 682V627H102V682H443Z"  />
<glyph unicode="&#x102;" horiz-adv-x="648" d="M377 714L656 0H551L473 215H171L91 0H-7L272 714H377ZM322 628L201 295H443L324 628H322ZM219 919Q243 836 331 836Q366 836 388 853T430 919H481Q468 851 427 816T323 781Q190 781 169 919H219Z"  />
<glyph unicode="&#x103;" horiz-adv-x="537" d="M276 529Q469 529 469 390V92Q469 63 496 63Q509 63 522 68V2Q497 -12 461 -12Q389 -12 389 68Q321 -12 207 -12Q127 -12 82 25T36 133Q36 202 81 243T290 305Q346 312 365 326T385 369Q385 454 270 454Q207 454 176 431T141 356H56Q66 529 276 529ZM126 139Q126 103 152 83T226 63Q295 63 339 97T384 178V267Q361 251 324 246L237 233Q180 225 153 203T126 139ZM166 729Q190 646 278 646Q313 646 336 664T377 729H428Q415 662 374 627T270 591Q136 591 116 729H166Z"  />
<glyph unicode="&#x104;" horiz-adv-x="648" d="M377 714L656 0H591Q507 -68 507 -118Q507 -160 548 -160Q585 -160 607 -130L639 -148Q604 -210 531 -210Q487 -210 463 -190T439 -134Q439 -66 551 0L473 215H171L91 0H-7L272 714H377ZM322 628L201 295H443L324 628H322Z"  />
<glyph unicode="&#x105;" horiz-adv-x="537" d="M275 529Q469 529 469 391V92Q469 63 496 63Q509 63 522 68V2Q496 -13 452 -13Q382 -71 382 -118Q382 -160 423 -160Q460 -160 482 -130L514 -148Q479 -210 406 -210Q362 -210 338 -190T314 -134Q314 -67 421 -3Q389 13 389 68Q321 -12 207 -12Q127 -12 82 25T36 133Q36 206 81 245T293 305Q348 312 366 327T385 369Q385 454 270 454Q207 454 176 431T141 356H56Q66 529 275 529ZM126 139Q126 103 152 83T226 63Q291 63 337 96T384 178V267Q362 251 328 247L237 233Q180 225 153 203T126 139Z"  />
<glyph unicode="&#x106;" horiz-adv-x="722" d="M381 731Q500 731 579 669T675 499H580Q564 573 512 612T380 651Q272 651 205 573T138 362Q138 222 203 143T381 63Q471 63 526 120T587 269H682Q667 130 587 57T373 -17Q221 -17 132 83T43 355Q43 522 134 626T381 731ZM527 922L396 779H332L418 922H527Z"  />
<glyph unicode="&#x107;" horiz-adv-x="537" d="M280 529Q374 529 433 485T503 351H415Q393 454 287 454Q208 454 167 402T126 252Q126 167 166 115T277 63Q339 63 375 96T419 189H506Q492 92 434 40T278 -12Q166 -12 101 58T36 252Q36 380 101 454T280 529ZM429 732L298 589H234L320 732H429Z"  />
<glyph unicode="&#x108;" horiz-adv-x="722" d="M381 731Q500 731 579 669T675 499H580Q564 573 512 612T380 651Q272 651 205 573T138 362Q138 222 203 143T381 63Q471 63 526 120T587 269H682Q667 130 587 57T373 -17Q221 -17 132 83T43 355Q43 522 134 626T381 731ZM427 922L531 779H447L378 875L308 779H231L334 922H427Z"  />
<glyph unicode="&#x109;" horiz-adv-x="537" d="M280 529Q374 529 433 485T503 351H415Q393 454 287 454Q208 454 167 402T126 252Q126 167 166 115T277 63Q339 63 375 96T419 189H506Q492 92 434 40T278 -12Q166 -12 101 58T36 252Q36 380 101 454T280 529ZM331 732L435 589H351L282 685L212 589H135L238 732H331Z"  />
<glyph unicode="&#x10A;" horiz-adv-x="722" d="M381 731Q500 731 579 669T675 499H580Q564 573 512 612T380 651Q272 651 205 573T138 362Q138 222 203 143T381 63Q471 63 526 120T587 269H682Q667 130 587 57T373 -17Q221 -17 132 83T43 355Q43 522 134 626T381 731ZM425 897V793H335V897H425Z"  />
<glyph unicode="&#x10B;" horiz-adv-x="537" d="M280 529Q374 529 433 485T503 351H415Q393 454 287 454Q208 454 167 402T126 252Q126 167 166 115T277 63Q339 63 375 96T419 189H506Q492 92 434 40T278 -12Q166 -12 101 58T36 252Q36 380 101 454T280 529ZM329 708V604H239V708H329Z"  />
<glyph unicode="&#x10C;" horiz-adv-x="722" d="M381 731Q500 731 579 669T675 499H580Q564 573 512 612T380 651Q272 651 205 573T138 362Q138 222 203 143T381 63Q471 63 526 120T587 269H682Q667 130 587 57T373 -17Q221 -17 132 83T43 355Q43 522 134 626T381 731ZM315 922L384 826L454 922H531L428 779H335L231 922H315Z"  />
<glyph unicode="&#x10D;" horiz-adv-x="537" d="M280 529Q374 529 433 485T503 351H415Q393 454 287 454Q208 454 167 402T126 252Q126 167 166 115T277 63Q339 63 375 96T419 189H506Q492 92 434 40T278 -12Q166 -12 101 58T36 252Q36 380 101 454T280 529ZM214 732L283 636L353 732H430L327 589H234L130 732H214Z"  />
<glyph unicode="&#x10E;" horiz-adv-x="704" d="M329 714Q491 714 578 629T666 374Q666 0 329 0H78V714H329ZM334 80Q447 80 509 153T571 361Q571 503 512 568T338 634H173V80H334ZM250 922L319 826L389 922H466L363 779H270L166 922H250Z"  />
<glyph unicode="&#x10F;" horiz-adv-x="593" d="M526 714V0H441V70H439Q419 30 376 9T274 -12Q167 -12 102 63T36 260Q36 382 99 455T271 529Q322 529 368 508T439 448H441V714H526ZM126 254Q126 169 170 116T286 63Q359 63 401 116T444 258Q444 346 402 400T280 454Q206 454 166 401T126 254ZM711 714L636 571H576L602 714H711Z"  />
<glyph unicode="&#x110;" horiz-adv-x="704" d="M329 714Q491 714 578 629T666 374Q666 0 329 0H78V341H8V405H78V714H329ZM387 405V341H173V80H334Q447 80 509 153T571 361Q571 503 512 568T338 634H173V405H387Z"  />
<glyph unicode="&#x111;" horiz-adv-x="598" d="M526 714V636H612V583H526V0H441V70H439Q419 30 376 9T274 -12Q167 -12 102 63T36 260Q36 382 99 455T271 529Q324 529 368 508T439 448H441V583H271V636H441V714H526ZM126 254Q126 169 170 116T286 63Q359 63 401 116T444 258Q444 346 402 400T280 454Q206 454 166 401T126 254Z"  />
<glyph unicode="&#x112;" horiz-adv-x="611" d="M571 714V634H173V407H544V327H173V80H574V0H78V714H571ZM490 872V817H149V872H490Z"  />
<glyph unicode="&#x113;" horiz-adv-x="537" d="M279 529Q389 529 451 450T513 243V233H126V227Q126 152 169 108T287 63Q398 63 421 164H505Q488 77 430 33T284 -12Q162 -12 99 68T36 262Q36 377 105 453T279 529ZM423 308Q419 371 378 412T273 454Q214 454 173 415T126 308H423ZM452 682V627H111V682H452Z"  />
<glyph unicode="&#x114;" horiz-adv-x="611" d="M571 714V634H173V407H544V327H173V80H574V0H78V714H571ZM213 919Q237 836 325 836Q360 836 382 853T424 919H475Q462 851 421 816T317 781Q184 781 163 919H213Z"  />
<glyph unicode="&#x115;" horiz-adv-x="537" d="M279 529Q389 529 451 450T513 243V233H126V227Q126 152 169 108T287 63Q398 63 421 164H505Q488 77 430 33T284 -12Q162 -12 99 68T36 262Q36 377 105 453T279 529ZM423 308Q419 371 378 412T273 454Q214 454 173 415T126 308H423ZM175 729Q199 646 287 646Q322 646 345 664T386 729H437Q424 662 383 627T279 591Q145 591 125 729H175Z"  />
<glyph unicode="&#x116;" horiz-adv-x="611" d="M571 714V634H173V407H544V327H173V80H574V0H78V714H571ZM364 897V793H274V897H364Z"  />
<glyph unicode="&#x117;" horiz-adv-x="537" d="M279 529Q389 529 451 450T513 243V233H126V227Q126 152 169 108T287 63Q398 63 421 164H505Q488 77 430 33T284 -12Q162 -12 99 68T36 262Q36 377 105 453T279 529ZM423 308Q419 371 378 412T273 454Q214 454 173 415T126 308H423ZM326 708V604H236V708H326Z"  />
<glyph unicode="&#x118;" horiz-adv-x="611" d="M571 714V634H173V407H544V327H173V80H574V0H526Q442 -70 442 -118Q442 -160 483 -160Q517 -160 542 -130L574 -148Q539 -210 466 -210Q423 -210 399 -191T374 -134Q374 -64 486 0H78V714H571Z"  />
<glyph unicode="&#x119;" horiz-adv-x="537" d="M279 529Q388 529 450 450T513 243V233H126V227Q126 152 169 108T287 63Q398 63 421 164H505Q490 87 441 42T314 -10H313Q269 -50 256 -73T242 -118Q242 -160 283 -160Q320 -160 342 -130L374 -148Q339 -210 266 -210Q222 -210 198 -190T174 -134Q174 -72 266 -11Q148 -3 93 76T36 262Q36 375 105 452T279 529ZM423 308Q419 371 378 412T273 454Q214 454 173 415T126 308H423Z"  />
<glyph unicode="&#x11A;" horiz-adv-x="611" d="M571 714V634H173V407H544V327H173V80H574V0H78V714H571ZM253 922L322 826L392 922H469L366 779H273L169 922H253Z"  />
<glyph unicode="&#x11B;" horiz-adv-x="537" d="M279 529Q389 529 451 450T513 243V233H126V227Q126 152 169 108T287 63Q398 63 421 164H505Q488 77 430 33T284 -12Q162 -12 99 68T36 262Q36 377 105 453T279 529ZM423 308Q419 371 378 412T273 454Q214 454 173 415T126 308H423ZM213 732L282 636L352 732H429L326 589H233L129 732H213Z"  />
<glyph unicode="&#x11C;" horiz-adv-x="759" d="M383 731Q510 731 591 671T690 494H595Q581 570 526 610T383 651Q272 651 205 569T138 348Q138 227 205 145T383 63Q482 63 547 124T612 285V296H384V376H697V0H637L612 89Q573 38 513 11T383 -17Q237 -17 140 87T43 343Q43 513 133 622T383 731ZM433 922L537 779H453L384 875L314 779H237L340 922H433Z"  />
<glyph unicode="&#x11D;" horiz-adv-x="574" d="M274 529Q380 529 429 443H430V517H510V39Q510 -210 271 -210Q174 -210 117 -169T56 -58H141Q143 -95 181 -118T275 -142Q430 -142 430 56V88H428Q408 45 365 20T267 -6Q162 -6 99 66T36 256Q36 378 99 453T274 529ZM126 266Q126 175 164 122T272 69Q342 69 384 124T426 269Q426 352 387 403T278 454Q206 454 166 403T126 266ZM333 732L437 589H353L284 685L214 589H137L240 732H333Z"  />
<glyph unicode="&#x11E;" horiz-adv-x="759" d="M383 731Q510 731 591 671T690 494H595Q581 570 526 610T383 651Q272 651 205 569T138 348Q138 227 205 145T383 63Q482 63 547 124T612 285V296H384V376H697V0H637L612 89Q573 38 513 11T383 -17Q237 -17 140 87T43 343Q43 513 133 622T383 731ZM280 919Q304 836 392 836Q427 836 449 853T491 919H542Q529 851 488 816T384 781Q251 781 230 919H280Z"  />
<glyph unicode="&#x11F;" horiz-adv-x="574" d="M274 529Q380 529 429 443H430V517H510V39Q510 -210 271 -210Q174 -210 117 -169T56 -58H141Q143 -95 181 -118T275 -142Q430 -142 430 56V88H428Q408 45 365 20T267 -6Q162 -6 99 66T36 256Q36 378 99 453T274 529ZM126 266Q126 175 164 122T272 69Q342 69 384 124T426 269Q426 352 387 403T278 454Q206 454 166 403T126 266ZM180 729Q204 646 292 646Q327 646 350 664T391 729H442Q429 662 388 627T284 591Q150 591 130 729H180Z"  />
<glyph unicode="&#x120;" horiz-adv-x="759" d="M383 731Q510 731 591 671T690 494H595Q581 570 526 610T383 651Q272 651 205 569T138 348Q138 227 205 145T383 63Q482 63 547 124T612 285V296H384V376H697V0H637L612 89Q573 38 513 11T383 -17Q237 -17 140 87T43 343Q43 513 133 622T383 731ZM430 897V793H340V897H430Z"  />
<glyph unicode="&#x121;" horiz-adv-x="574" d="M274 529Q380 529 429 443H430V517H510V39Q510 -210 271 -210Q174 -210 117 -169T56 -58H141Q143 -95 181 -118T275 -142Q430 -142 430 56V88H428Q408 45 365 20T267 -6Q162 -6 99 66T36 256Q36 378 99 453T274 529ZM126 266Q126 175 164 122T272 69Q342 69 384 124T426 269Q426 352 387 403T278 454Q206 454 166 403T126 266ZM331 708V604H241V708H331Z"  />
<glyph unicode="&#x122;" horiz-adv-x="759" d="M383 731Q510 731 591 671T690 494H595Q581 570 526 610T383 651Q272 651 205 569T138 348Q138 227 205 145T383 63Q482 63 547 124T612 285V296H384V376H697V0H637L612 89Q573 38 513 11T383 -17Q237 -17 140 87T43 343Q43 513 133 622T383 731ZM432 -50V-129Q432 -206 333 -210V-175Q373 -167 373 -143V-138H321V-50H432Z"  />
<glyph unicode="&#x123;" horiz-adv-x="574" d="M274 529Q380 529 429 443H430V517H510V39Q510 -210 271 -210Q174 -210 117 -169T56 -58H141Q143 -95 181 -118T275 -142Q430 -142 430 56V88H428Q408 45 365 20T267 -6Q162 -6 99 66T36 256Q36 378 99 453T274 529ZM126 266Q126 175 164 122T272 69Q342 69 384 124T426 269Q426 352 387 403T278 454Q206 454 166 403T126 266ZM329 751Q289 741 289 717V714H341V626H230V704Q231 784 329 786V751Z"  />
<glyph unicode="&#x124;" horiz-adv-x="722" d="M173 714V407H549V714H644V0H549V327H173V0H78V714H173ZM405 922L509 779H425L356 875L286 779H209L312 922H405Z"  />
<glyph unicode="&#x125;" horiz-adv-x="556" d="M149 714V441H151Q169 483 214 506T314 529Q492 529 492 344V0H407V353Q407 396 380 425T301 454Q229 454 189 410T149 295V0H64V714H149ZM316 922L420 779H336L267 875L197 779H120L223 922H316Z"  />
<glyph unicode="&#x126;" horiz-adv-x="722" d="M173 714V570H549V714H644V0H549V306H173V0H78V714H173ZM549 384V512H173V384H549Z"  />
<glyph unicode="&#x127;" horiz-adv-x="561" d="M154 714V636H324V583H154V441H156Q174 482 218 505T319 529Q497 529 497 344V0H412V353Q412 396 385 425T307 454Q233 454 194 410T154 295V0H69V583H-17V636H69V714H154Z"  />
<glyph unicode="&#x128;" horiz-adv-x="259" d="M177 714V0H82V714H177ZM304 907Q285 797 203 796Q185 796 159 804T107 824Q82 835 62 835Q28 835 13 793H-39Q-15 903 67 903Q97 903 141 883Q185 863 206 863Q239 863 252 907H304Z"  />
<glyph unicode="&#x129;" horiz-adv-x="222" d="M154 517V0H69V517H154ZM285 717Q266 608 184 606Q164 606 140 614T88 634Q60 645 43 645Q9 645 -6 603H-58Q-34 713 48 713Q77 713 122 693Q169 673 187 673Q219 673 233 717H285Z"  />
<glyph unicode="&#x12A;" horiz-adv-x="259" d="M177 714V0H82V714H177ZM301 872V817H-40V872H301Z"  />
<glyph unicode="&#x12B;" horiz-adv-x="222" d="M154 517V0H69V517H154ZM283 682V627H-58V682H283Z"  />
<glyph unicode="&#x12E;" horiz-adv-x="259" d="M177 714V0Q130 -47 116 -70T102 -118Q102 -137 111 -148T137 -160Q169 -160 192 -130L220 -148Q185 -210 129 -210Q88 -210 64 -190T40 -132Q40 -65 141 0H82V714H177Z"  />
<glyph unicode="&#x12F;" horiz-adv-x="222" d="M154 714V610H69V714H154ZM154 517V0Q107 -47 93 -70T79 -118Q79 -138 88 -149T113 -160Q148 -160 169 -130L197 -148Q164 -210 106 -210Q65 -210 41 -190T17 -132Q17 -65 118 0H69V517H154Z"  />
<glyph unicode="&#x130;" horiz-adv-x="259" d="M177 714V0H82V714H177ZM175 897V793H85V897H175Z"  />
<glyph unicode="&#x131;" horiz-adv-x="222" d="M154 517V0H69V517H154Z"  />
<glyph unicode="&#x132;" horiz-adv-x="770" d="M177 714V0H82V714H177ZM692 714V175Q692 84 637 34T481 -17Q384 -17 329 34T273 210V235H368V211Q368 130 394 97T483 63Q597 63 597 188V714H692Z"  />
<glyph unicode="&#x133;" horiz-adv-x="438" d="M154 714V610H69V714H154ZM154 517V0H69V517H154ZM370 714V610H285V714H370ZM370 517V-69Q370 -132 339 -164T246 -198Q220 -198 202 -194V-121Q207 -123 230 -123Q247 -123 259 -119T278 -102T285 -56V517H370Z"  />
<glyph unicode="&#x134;" horiz-adv-x="519" d="M441 714V175Q441 84 386 34T230 -17Q133 -17 78 34T22 210V235H117V211Q117 130 143 97T232 63Q346 63 346 188V714H441ZM437 922L541 779H457L388 875L318 779H241L344 922H437Z"  />
<glyph unicode="&#x135;" horiz-adv-x="222" d="M154 517V-69Q154 -134 122 -166T30 -198Q5 -198 -14 -194V-121Q-7 -123 14 -123Q27 -123 40 -120T61 -104T69 -56V517H154ZM157 732L261 589H177L108 685L38 589H-39L64 732H157Z"  />
<glyph unicode="&#x136;" horiz-adv-x="667" d="M173 714V358L535 714H658L357 426L670 0H550L292 361L173 250V0H78V714H173ZM401 -50V-129Q401 -206 302 -210V-175Q342 -167 342 -143V-138H290V-50H401Z"  />
<glyph unicode="&#x137;" horiz-adv-x="519" d="M154 714V291L390 517H504L299 329L519 0H411L234 270L154 196V0H69V714H154ZM331 -50V-129Q331 -206 232 -210V-175Q272 -167 272 -143V-138H220V-50H331Z"  />
<glyph unicode="&#x139;" horiz-adv-x="556" d="M173 714V80H551V0H78V714H173ZM288 922L157 779H93L179 922H288Z"  />
<glyph unicode="&#x13A;" horiz-adv-x="222" d="M154 714V0H69V714H154ZM260 922L129 779H65L151 922H260Z"  />
<glyph unicode="&#x13B;" horiz-adv-x="556" d="M173 714V80H551V0H78V714H173ZM364 -50V-129Q364 -206 265 -210V-175Q305 -167 305 -143V-138H253V-50H364Z"  />
<glyph unicode="&#x13C;" horiz-adv-x="222" d="M154 714V0H69V714H154ZM168 -50V-129Q168 -206 69 -210V-175Q109 -167 109 -143V-138H57V-50H168Z"  />
<glyph unicode="&#x13D;" horiz-adv-x="556" d="M173 714V80H551V0H78V714H173ZM411 714L336 571H276L302 714H411Z"  />
<glyph unicode="&#x13E;" horiz-adv-x="222" d="M154 714V0H69V714H154ZM339 714L264 571H204L230 714H339Z"  />
<glyph unicode="&#x13F;" horiz-adv-x="556" d="M173 714V80H551V0H78V714H173ZM405 441V337H315V441H405Z"  />
<glyph unicode="&#x140;" horiz-adv-x="342" d="M154 714V0H69V714H154ZM315 441V337H225V441H315Z"  />
<glyph unicode="&#x141;" horiz-adv-x="556" d="M173 714V384L401 544V468L173 308V80H551V0H78V240L-1 184V260L78 316V714H173Z"  />
<glyph unicode="&#x142;" horiz-adv-x="222" d="M154 714V460L224 516V445L154 389V0H69V321L-1 266V337L69 393V714H154Z"  />
<glyph unicode="&#x143;" horiz-adv-x="722" d="M178 714L554 135H556V714H646V0H542L169 573H167V0H77V714H178ZM509 922L378 779H314L400 922H509Z"  />
<glyph unicode="&#x144;" horiz-adv-x="556" d="M314 529Q492 529 492 344V0H407V353Q407 396 380 425T301 454Q228 454 189 410T149 295V0H64V517H144V435H146Q202 529 314 529ZM426 732L295 589H231L317 732H426Z"  />
<glyph unicode="&#x145;" horiz-adv-x="722" d="M178 714L554 135H556V714H646V0H542L169 573H167V0H77V714H178ZM414 -50V-129Q414 -206 315 -210V-175Q355 -167 355 -143V-138H303V-50H414Z"  />
<glyph unicode="&#x146;" horiz-adv-x="556" d="M314 529Q492 529 492 344V0H407V353Q407 396 380 425T301 454Q228 454 189 410T149 295V0H64V517H144V435H146Q202 529 314 529ZM332 -50V-129Q332 -206 233 -210V-175Q273 -167 273 -143V-138H221V-50H332Z"  />
<glyph unicode="&#x147;" horiz-adv-x="722" d="M178 714L554 135H556V714H646V0H542L169 573H167V0H77V714H178ZM294 922L363 826L433 922H510L407 779H314L210 922H294Z"  />
<glyph unicode="&#x148;" horiz-adv-x="556" d="M314 529Q492 529 492 344V0H407V353Q407 396 380 425T301 454Q228 454 189 410T149 295V0H64V517H144V435H146Q202 529 314 529ZM213 732L282 636L352 732H429L326 589H233L129 732H213Z"  />
<glyph unicode="&#x149;" horiz-adv-x="663" d="M421 529Q599 529 599 344V0H514V353Q514 396 487 425T408 454Q335 454 296 410T256 295V0H171V517H251V435H253Q309 529 421 529ZM130 714V599Q130 533 100 495T20 456V506Q76 507 78 603H19V714H130Z"  />
<glyph unicode="&#x14C;" horiz-adv-x="760" d="M380 731Q535 731 628 626T722 357Q722 191 627 87T380 -17Q226 -17 132 88T38 357Q38 517 130 624T380 731ZM133 357Q133 226 200 145T380 63Q492 63 559 143T627 357Q627 486 561 568T379 651Q265 651 199 568T133 357ZM552 872V817H211V872H552Z"  />
<glyph unicode="&#x14D;" horiz-adv-x="574" d="M287 529Q403 529 470 455T538 258Q538 140 471 64T287 -12Q173 -12 105 61T36 258Q36 382 103 455T287 529ZM126 258Q126 171 171 117T287 63Q357 63 402 116T448 258Q448 345 403 399T286 454Q217 454 172 399T126 258ZM459 682V627H118V682H459Z"  />
<glyph unicode="&#x14E;" horiz-adv-x="760" d="M380 731Q535 731 628 626T722 357Q722 191 627 87T380 -17Q226 -17 132 88T38 357Q38 517 130 624T380 731ZM133 357Q133 226 200 145T380 63Q492 63 559 143T627 357Q627 486 561 568T379 651Q265 651 199 568T133 357ZM275 919Q299 836 387 836Q422 836 444 853T486 919H537Q524 851 483 816T379 781Q246 781 225 919H275Z"  />
<glyph unicode="&#x14F;" horiz-adv-x="574" d="M287 529Q403 529 470 455T538 258Q538 140 471 64T287 -12Q173 -12 105 61T36 258Q36 382 103 455T287 529ZM126 258Q126 171 171 117T287 63Q357 63 402 116T448 258Q448 345 403 399T286 454Q217 454 172 399T126 258ZM182 729Q206 646 294 646Q329 646 352 664T393 729H444Q431 662 390 627T286 591Q152 591 132 729H182Z"  />
<glyph unicode="&#x150;" horiz-adv-x="760" d="M380 731Q535 731 628 626T722 357Q722 191 627 87T380 -17Q226 -17 132 88T38 357Q38 517 130 624T380 731ZM133 357Q133 226 200 145T380 63Q492 63 559 143T627 357Q627 486 561 568T379 651Q265 651 199 568T133 357ZM451 922L331 779H265L346 922H451ZM607 922L487 779H421L502 922H607Z"  />
<glyph unicode="&#x151;" horiz-adv-x="574" d="M287 529Q403 529 470 455T538 258Q538 140 471 64T287 -12Q173 -12 105 61T36 258Q36 382 103 455T287 529ZM126 258Q126 171 171 117T287 63Q357 63 402 116T448 258Q448 345 403 399T286 454Q217 454 172 399T126 258ZM358 732L238 589H172L253 732H358ZM514 732L394 589H328L409 732H514Z"  />
<glyph unicode="&#x152;" horiz-adv-x="1074" d="M373 731Q432 731 482 709T549 655H551V714H1028V634H646V407H996V327H646V80H1034V0H551V69H549Q522 27 472 5T365 -17Q217 -17 128 84T38 355Q38 525 129 628T373 731ZM133 351Q133 221 199 142T372 63Q446 63 498 103T551 202V515Q551 552 535 577T475 627T373 651Q263 651 198 568T133 351Z"  />
<glyph unicode="&#x153;" horiz-adv-x="891" d="M271 529Q343 529 385 507T450 438Q477 482 526 505T633 529Q744 529 804 458T865 252Q865 239 864 233H489V227Q489 155 529 110T638 63Q690 63 727 90T778 164H859Q808 -12 638 -12Q493 -12 450 90Q406 -10 271 -12Q163 -12 100 60T36 259Q36 383 98 455T271 529ZM126 249Q126 167 165 116T271 63Q341 63 378 114T415 260Q415 453 271 454Q204 454 166 399T126 249ZM774 308Q774 376 735 415T632 454Q570 454 531 415T489 308H774Z"  />
<glyph unicode="&#x154;" horiz-adv-x="685" d="M418 714Q515 714 573 663T631 527Q631 381 507 346V344Q563 334 587 293T616 157Q618 94 627 59T656 0H550Q541 12 539 23T533 55L529 133Q527 202 502 253T408 305H173V0H78V714H418ZM376 385Q536 385 536 512Q536 570 504 602T413 634H173V385H376ZM473 922L342 779H278L364 922H473Z"  />
<glyph unicode="&#x155;" horiz-adv-x="333" d="M333 529V439Q237 439 192 389T146 231V0H61V517H141V408H143Q202 529 321 529H333ZM337 732L206 589H142L228 732H337Z"  />
<glyph unicode="&#x156;" horiz-adv-x="685" d="M418 714Q515 714 573 663T631 527Q631 381 507 346V344Q563 334 587 293T616 157Q618 94 627 59T656 0H550Q541 12 539 23T533 55L529 133Q527 202 502 253T408 305H173V0H78V714H418ZM376 385Q536 385 536 512Q536 570 504 602T413 634H173V385H376ZM406 -50V-129Q406 -206 307 -210V-175Q347 -167 347 -143V-138H295V-50H406Z"  />
<glyph unicode="&#x157;" horiz-adv-x="333" d="M333 529V439Q237 439 192 389T146 231V0H61V517H141V408H143Q202 529 321 529H333ZM159 -50V-129Q159 -206 60 -210V-175Q100 -167 100 -143V-138H48V-50H159Z"  />
<glyph unicode="&#x158;" horiz-adv-x="685" d="M418 714Q515 714 573 663T631 527Q631 381 507 346V344Q563 334 587 293T616 157Q618 94 627 59T656 0H550Q541 12 539 23T533 55L529 133Q527 202 502 253T408 305H173V0H78V714H418ZM376 385Q536 385 536 512Q536 570 504 602T413 634H173V385H376ZM257 922L326 826L396 922H473L370 779H277L173 922H257Z"  />
<glyph unicode="&#x159;" horiz-adv-x="333" d="M333 529V439Q237 439 192 389T146 231V0H61V517H141V408H143Q202 529 321 529H333ZM129 732L198 636L268 732H345L242 589H149L45 732H129Z"  />
<glyph unicode="&#x15A;" horiz-adv-x="648" d="M318 731Q439 731 510 671T581 505H491Q475 651 314 651Q237 651 196 620T154 529Q154 492 185 464T383 402Q498 379 554 331T611 196Q611 96 529 40T332 -17Q197 -17 117 50T37 235H127Q128 152 185 108T335 63Q422 63 469 96T516 193Q516 245 471 275T315 327Q158 358 109 403T59 522Q59 617 130 674T318 731ZM471 922L340 779H276L362 922H471Z"  />
<glyph unicode="&#x15B;" horiz-adv-x="500" d="M236 529Q341 529 391 489T447 367H362V368Q358 410 326 432T242 454Q191 454 162 437T132 388Q132 359 158 342T237 312L317 294Q392 277 431 244T470 151Q470 74 411 31T250 -12Q151 -12 93 31T31 163H116Q118 115 154 89T255 63Q380 63 380 140Q380 174 350 194T219 235Q124 254 83 288T42 382Q42 448 94 488T236 529ZM398 732L267 589H203L289 732H398Z"  />
<glyph unicode="&#x15C;" horiz-adv-x="648" d="M318 731Q439 731 510 671T581 505H491Q475 651 314 651Q237 651 196 620T154 529Q154 492 185 464T383 402Q498 379 554 331T611 196Q611 96 529 40T332 -17Q197 -17 117 50T37 235H127Q128 152 185 108T335 63Q422 63 469 96T516 193Q516 245 471 275T315 327Q158 358 109 403T59 522Q59 617 130 674T318 731ZM371 922L475 779H391L322 875L252 779H175L278 922H371Z"  />
<glyph unicode="&#x15D;" horiz-adv-x="500" d="M236 529Q341 529 391 489T447 367H362V368Q358 410 326 432T242 454Q191 454 162 437T132 388Q132 359 158 342T237 312L317 294Q392 277 431 244T470 151Q470 74 411 31T250 -12Q151 -12 93 31T31 163H116Q118 115 154 89T255 63Q380 63 380 140Q380 174 350 194T219 235Q124 254 83 288T42 382Q42 448 94 488T236 529ZM297 732L401 589H317L248 685L178 589H101L204 732H297Z"  />
<glyph unicode="&#x15E;" horiz-adv-x="648" d="M318 731Q437 731 506 674T581 505H491Q475 651 314 651Q237 651 196 620T154 529Q154 489 187 462T383 402Q498 379 554 331T611 196Q611 101 533 42T326 -17L298 -53L300 -55Q313 -48 333 -48Q370 -48 393 -68T417 -121Q417 -164 382 -187T293 -210Q244 -210 201 -191L219 -147Q254 -160 284 -160Q342 -160 342 -129Q342 -115 329 -107T295 -98Q275 -98 254 -106L237 -78L286 -14Q165 0 101 64T37 235H127Q128 152 185 108T335 63Q422 63 469 96T516 193Q516 245 471 275T315 327Q158 358 109 403T59 522Q59 617 131 674T318 731Z"  />
<glyph unicode="&#x15F;" horiz-adv-x="500" d="M236 529Q341 529 391 489T447 367H362V368Q358 410 326 432T242 454Q191 454 162 437T132 388Q132 359 158 342T237 312L317 294Q392 277 431 244T470 151Q470 78 417 35T257 -12L225 -53L227 -55Q240 -48 260 -48Q297 -48 320 -68T344 -121Q344 -163 309 -186T220 -210Q175 -210 128 -191L146 -147Q179 -160 211 -160Q269 -160 269 -129Q269 -115 256 -107T222 -98Q201 -98 181 -106L164 -78L217 -10Q37 6 31 163H116Q118 115 154 89T255 63Q380 63 380 140Q380 175 348 195T219 235Q121 255 82 289T42 382Q42 447 95 488T236 529Z"  />
<glyph unicode="&#x160;" horiz-adv-x="648" d="M318 731Q439 731 510 671T581 505H491Q475 651 314 651Q237 651 196 620T154 529Q154 492 185 464T383 402Q498 379 554 331T611 196Q611 96 529 40T332 -17Q197 -17 117 50T37 235H127Q128 152 185 108T335 63Q422 63 469 96T516 193Q516 245 471 275T315 327Q158 358 109 403T59 522Q59 617 130 674T318 731ZM258 922L327 826L397 922H474L371 779H278L174 922H258Z"  />
<glyph unicode="&#x161;" horiz-adv-x="500" d="M236 529Q341 529 391 489T447 367H362V368Q358 410 326 432T242 454Q191 454 162 437T132 388Q132 359 158 342T237 312L317 294Q392 277 431 244T470 151Q470 74 411 31T250 -12Q151 -12 93 31T31 163H116Q118 115 154 89T255 63Q380 63 380 140Q380 174 350 194T219 235Q124 254 83 288T42 382Q42 448 94 488T236 529ZM183 732L252 636L322 732H399L296 589H203L99 732H183Z"  />
<glyph unicode="&#x162;" horiz-adv-x="574" d="M573 714V634H335V0H240V634H2V714H573ZM342 -50V-129Q342 -206 243 -210V-175Q283 -167 283 -143V-138H231V-50H342Z"  />
<glyph unicode="&#x163;" horiz-adv-x="315" d="M182 672V517H285V442H182V118Q182 95 191 85T236 75H285V0H215Q149 0 123 22T97 108V442H9V517H97V672H182ZM241 -50V-129Q241 -206 142 -210V-175Q182 -167 182 -143V-138H130V-50H241Z"  />
<glyph unicode="&#x164;" horiz-adv-x="574" d="M573 714V634H335V0H240V634H2V714H573ZM220 922L289 826L359 922H436L333 779H240L136 922H220Z"  />
<glyph unicode="&#x165;" horiz-adv-x="315" d="M182 672V517H285V442H182V118Q182 95 191 85T236 75H285V0H215Q149 0 123 22T97 108V442H9V517H97V672H182ZM382 714L307 571H247L273 714H382Z"  />
<glyph unicode="&#x166;" horiz-adv-x="574" d="M573 714V634H335V487H479V426H335V0H240V426H98V487H240V634H2V714H573Z"  />
<glyph unicode="&#x167;" horiz-adv-x="315" d="M182 672V517H285V442H182V346H277V291H182V118Q182 95 191 85T236 75H285V0H215Q149 0 123 22T97 108V291H14V346H97V442H9V517H97V672H182Z"  />
<glyph unicode="&#x168;" horiz-adv-x="722" d="M169 714V254Q169 166 218 115T367 63Q460 63 506 115T553 254V714H648V253Q648 123 575 53T367 -17Q220 -17 147 53T74 253V714H169ZM536 907Q517 797 435 796Q417 796 391 804T339 824Q314 835 294 835Q260 835 245 793H193Q217 903 299 903Q329 903 373 883Q417 863 438 863Q471 863 484 907H536Z"  />
<glyph unicode="&#x169;" horiz-adv-x="556" d="M149 517V165Q149 120 177 92T254 63Q329 63 368 107T407 222V517H492V0H412V82H410Q357 -12 242 -12Q64 -12 64 172V517H149ZM451 717Q432 608 350 606Q330 606 306 614T254 634Q226 645 209 645Q175 645 160 603H108Q132 713 214 713Q243 713 288 693Q335 673 353 673Q385 673 399 717H451Z"  />
<glyph unicode="&#x16A;" horiz-adv-x="722" d="M169 714V254Q169 166 218 115T367 63Q460 63 506 115T553 254V714H648V253Q648 123 575 53T367 -17Q220 -17 147 53T74 253V714H169ZM534 872V817H193V872H534Z"  />
<glyph unicode="&#x16B;" horiz-adv-x="556" d="M149 517V165Q149 120 177 92T254 63Q329 63 368 107T407 222V517H492V0H412V82H410Q357 -12 242 -12Q64 -12 64 172V517H149ZM449 682V627H108V682H449Z"  />
<glyph unicode="&#x16C;" horiz-adv-x="722" d="M169 714V254Q169 166 218 115T367 63Q460 63 506 115T553 254V714H648V253Q648 123 575 53T367 -17Q220 -17 147 53T74 253V714H169ZM257 919Q281 836 369 836Q404 836 426 853T468 919H519Q506 851 465 816T361 781Q228 781 207 919H257Z"  />
<glyph unicode="&#x16D;" horiz-adv-x="556" d="M149 517V165Q149 120 177 92T254 63Q329 63 368 107T407 222V517H492V0H412V82H410Q357 -12 242 -12Q64 -12 64 172V517H149ZM172 729Q196 646 284 646Q319 646 342 664T383 729H434Q421 662 380 627T276 591Q142 591 122 729H172Z"  />
<glyph unicode="&#x16E;" horiz-adv-x="722" d="M169 714V254Q169 166 218 115T367 63Q460 63 506 115T553 254V714H648V253Q648 123 575 53T367 -17Q220 -17 147 53T74 253V714H169ZM362 973Q409 973 442 941T475 861Q475 815 442 782T362 749Q315 749 282 782T249 861Q249 908 282 940T362 973ZM295 860Q295 831 314 812T362 792Q392 792 410 812T429 860Q429 888 410 908T361 928Q334 928 315 909T295 860Z"  />
<glyph unicode="&#x16F;" horiz-adv-x="556" d="M149 517V165Q149 120 177 92T254 63Q329 63 368 107T407 222V517H492V0H412V82H410Q357 -12 242 -12Q64 -12 64 172V517H149ZM278 793Q325 793 358 760T391 681Q391 635 358 602T278 569Q231 569 198 601T165 681Q165 727 198 760T278 793ZM211 680Q211 652 229 632T278 612Q308 612 326 632T345 680Q345 708 327 728T277 748Q251 748 231 729T211 680Z"  />
<glyph unicode="&#x170;" horiz-adv-x="722" d="M169 714V254Q169 166 218 115T367 63Q460 63 506 115T553 254V714H648V253Q648 123 575 53T367 -17Q220 -17 147 53T74 253V714H169ZM433 922L313 779H247L328 922H433ZM589 922L469 779H403L484 922H589Z"  />
<glyph unicode="&#x171;" horiz-adv-x="556" d="M149 517V165Q149 120 177 92T254 63Q329 63 368 107T407 222V517H492V0H412V82H410Q357 -12 242 -12Q64 -12 64 172V517H149ZM348 732L228 589H162L243 732H348ZM504 732L384 589H318L399 732H504Z"  />
<glyph unicode="&#x172;" horiz-adv-x="722" d="M169 714V254Q169 166 218 115T367 63Q460 63 506 115T553 254V714H648V253Q648 137 587 66T404 -15Q338 -73 338 -118Q338 -160 379 -160Q413 -160 438 -130L470 -148Q435 -210 362 -210Q319 -210 295 -191T270 -134Q270 -73 355 -17Q214 -14 144 55T74 253V714H169Z"  />
<glyph unicode="&#x173;" horiz-adv-x="556" d="M149 517V165Q149 120 177 92T254 63Q329 63 368 108T407 222V517H492V0H452Q368 -67 368 -118Q368 -160 409 -160Q446 -160 468 -130L500 -148Q465 -210 392 -210Q349 -210 325 -190T300 -134Q300 -64 412 0V82H410Q357 -12 242 -12Q64 -12 64 172V517H149Z"  />
<glyph unicode="&#x174;" horiz-adv-x="926" d="M109 714L249 120H251L411 714H514L672 120H674L819 714H914L723 0H624L461 600H459L294 0H195L12 714H109ZM510 922L614 779H530L461 875L391 779H314L417 922H510Z"  />
<glyph unicode="&#x175;" horiz-adv-x="758" d="M111 517L228 94H230L334 517H427L536 94H537L653 517H741L577 1L576 0H486L380 411H379L275 0H183L17 517H111ZM429 732L533 589H449L380 685L310 589H233L336 732H429Z"  />
<glyph unicode="&#x176;" horiz-adv-x="648" d="M115 714L329 374L538 714H646L373 292V0H278V292L2 714H115ZM375 922L479 779H395L326 875L256 779H179L282 922H375Z"  />
<glyph unicode="&#x177;" horiz-adv-x="500" d="M104 517L255 94H257L402 517H492L272 -55Q237 -148 205 -177T117 -207Q83 -207 58 -198V-120Q94 -132 108 -132Q161 -132 180 -80L213 3L8 517H104ZM302 732L406 589H322L253 685L183 589H106L209 732H302Z"  />
<glyph unicode="&#x178;" horiz-adv-x="648" d="M115 714L329 374L538 714H646L373 292V0H278V292L2 714H115ZM279 897V793H189V897H279ZM467 897V793H377V897H467Z"  />
<glyph unicode="&#x179;" horiz-adv-x="611" d="M578 714V634L135 80H590V0H22V80L466 634H56V714H578ZM459 922L328 779H264L350 922H459Z"  />
<glyph unicode="&#x17A;" horiz-adv-x="480" d="M444 517V459L128 75H458V0H22V65L334 442H42V517H444ZM388 732L257 589H193L279 732H388Z"  />
<glyph unicode="&#x17B;" horiz-adv-x="611" d="M578 714V634L135 80H590V0H22V80L466 634H56V714H578ZM357 897V793H267V897H357Z"  />
<glyph unicode="&#x17C;" horiz-adv-x="480" d="M444 517V459L128 75H458V0H22V65L334 442H42V517H444ZM288 708V604H198V708H288Z"  />
<glyph unicode="&#x17D;" horiz-adv-x="611" d="M578 714V634L135 80H590V0H22V80L466 634H56V714H578ZM245 922L314 826L384 922H461L358 779H265L161 922H245Z"  />
<glyph unicode="&#x17E;" horiz-adv-x="480" d="M444 517V459L128 75H458V0H22V65L334 442H42V517H444ZM175 732L244 636L314 732H391L288 589H195L91 732H175Z"  />
<glyph unicode="&#x192;" horiz-adv-x="556" d="M492 714L478 639H418Q368 639 358 589L326 449H428L414 381H314L260 75Q235 -66 194 -115T73 -165H3L17 -90H51Q134 -90 147 -29L226 381H134L147 449H238L264 584Q290 714 425 714H492Z"  />
<glyph unicode="&#x218;" horiz-adv-x="648" d="M318 731Q439 731 510 671T581 505H491Q475 651 314 651Q237 651 196 620T154 529Q154 492 185 464T383 402Q498 379 554 331T611 196Q611 96 529 40T332 -17Q197 -17 117 50T37 235H127Q128 152 185 108T335 63Q422 63 469 96T516 193Q516 245 471 275T315 327Q158 358 109 403T59 522Q59 617 130 674T318 731ZM381 -50V-129Q381 -206 282 -210V-175Q322 -167 322 -143V-138H270V-50H381Z"  />
<glyph unicode="&#x219;" horiz-adv-x="500" d="M236 529Q341 529 391 489T447 367H362V368Q358 410 326 432T242 454Q191 454 162 437T132 388Q132 359 158 342T237 312L317 294Q392 277 431 244T470 151Q470 74 411 31T250 -12Q151 -12 93 31T31 163H116Q118 115 154 89T255 63Q380 63 380 140Q380 174 350 194T219 235Q124 254 83 288T42 382Q42 448 94 488T236 529ZM308 -50V-129Q308 -206 209 -210V-175Q249 -167 249 -143V-138H197V-50H308Z"  />
<glyph unicode="&#x21A;" horiz-adv-x="574" d="M573 714V634H335V0H240V634H2V714H573ZM342 -50V-129Q342 -206 243 -210V-175Q283 -167 283 -143V-138H231V-50H342Z"  />
<glyph unicode="&#x21B;" horiz-adv-x="315" d="M182 672V517H285V442H182V118Q182 95 191 85T236 75H285V0H215Q149 0 123 22T97 108V442H9V517H97V672H182ZM241 -50V-129Q241 -206 142 -210V-175Q182 -167 182 -143V-138H130V-50H241Z"  />
<glyph unicode="&#x2C6;" horiz-adv-x="222" d="M157 732L261 589H177L108 685L38 589H-39L64 732H157Z"  />
<glyph unicode="&#x2C7;" horiz-adv-x="222" d="M45 732L114 636L184 732H261L158 589H65L-39 732H45Z"  />
<glyph unicode="&#x2C9;" horiz-adv-x="222" d="M282 682V627H-59V682H282Z"  />
<glyph unicode="&#x2D8;" horiz-adv-x="222" d="M5 729Q29 646 117 646Q152 646 175 664T216 729H267Q254 662 213 627T109 591Q-25 591 -45 729H5Z"  />
<glyph unicode="&#x2D9;" horiz-adv-x="222" d="M156 708V604H66V708H156Z"  />
<glyph unicode="&#x2DA;" horiz-adv-x="222" d="M111 793Q158 793 191 760T224 681Q224 635 191 602T111 569Q64 569 31 601T-2 681Q-2 727 31 760T111 793ZM44 680Q44 652 62 632T111 612Q141 612 159 632T178 680Q178 708 160 728T110 748Q84 748 64 729T44 680Z"  />
<glyph unicode="&#x2DB;" horiz-adv-x="222" d="M228 0Q188 -33 166 -61T144 -118Q145 -159 185 -160Q221 -160 244 -130L276 -148Q241 -210 168 -210Q125 -210 101 -191T76 -134Q76 -65 188 0H228Z"  />
<glyph unicode="&#x2DC;" horiz-adv-x="222" d="M285 717Q266 608 184 606Q164 606 140 614T88 634Q60 645 43 645Q9 645 -6 603H-58Q-34 713 48 713Q77 713 122 693Q169 673 187 673Q219 673 233 717H285Z"  />
<glyph unicode="&#x2DD;" horiz-adv-x="222" d="M138 732L18 589H-48L33 732H138ZM294 732L174 589H108L189 732H294Z"  />
<glyph unicode="&#x394;" horiz-adv-x="648" d="M377 714L653 0H-4L272 714H377ZM323 629L124 80H518L325 629H323Z"  />
<glyph unicode="&#x3A9;" horiz-adv-x="759" d="M382 731Q529 731 622 637T716 401Q716 201 552 84V80H727V0H445V72Q621 192 621 401Q621 509 555 580T382 651Q273 651 206 580T138 392Q138 195 318 72V0H35V80H206V84Q43 197 43 391Q43 538 138 634T382 731Z"  />
<glyph unicode="&#x3BC;" horiz-adv-x="556" d="M152 517V164Q152 119 179 91T255 63Q325 63 366 107T407 222V517H492V0H412V82H410Q353 -12 253 -12Q187 -12 154 23H152V-198H67V517H152Z"  />
<glyph unicode="&#x3C0;" horiz-adv-x="658" d="M635 517V442H529V113Q529 62 573 62Q590 62 608 67V1Q576 -12 540 -12Q444 -12 444 87V442H207V0H122V442H20V517H635Z"  />
<glyph unicode="&#x2013;" horiz-adv-x="500" d="M500 318V238H0V318H500Z"  />
<glyph unicode="&#x2014;" horiz-adv-x="1000" d="M870 318V238H130V318H870Z"  />
<glyph unicode="&#x2018;" horiz-adv-x="278" d="M194 664Q138 663 136 567H195V456H84V560Q84 631 112 672T194 714V664Z"  />
<glyph unicode="&#x2019;" horiz-adv-x="278" d="M194 714V599Q194 533 164 495T84 456V506Q140 507 142 603H83V714H194Z"  />
<glyph unicode="&#x201A;" horiz-adv-x="278" d="M194 111V-3Q194 -69 166 -107T84 -147V-97Q140 -96 142 0H83V111H194Z"  />
<glyph unicode="&#x201C;" horiz-adv-x="426" d="M176 664Q122 663 118 567H177V456H66V562Q66 631 94 672T176 714V664ZM359 664Q303 664 301 567H360V456H249V566Q249 631 277 672T359 714V664Z"  />
<glyph unicode="&#x201D;" horiz-adv-x="426" d="M177 714V599Q177 533 147 495T67 456V506Q123 507 125 603H66V714H177ZM360 714V600Q360 533 330 495T250 456V506Q306 507 308 603H249V714H360Z"  />
<glyph unicode="&#x201E;" horiz-adv-x="426" d="M177 111V1Q177 -68 149 -107T67 -147V-97Q123 -96 125 0H66V111H177ZM360 111V1Q360 -66 332 -106T250 -147V-97Q306 -96 308 0H249V111H360Z"  />
<glyph unicode="&#x2020;" horiz-adv-x="556" d="M316 714V517H514V442H316V-155H236V442H42V517H236V714H316Z"  />
<glyph unicode="&#x2021;" horiz-adv-x="556" d="M316 714V517H514V442H316V117H514V42H316V-155H236V42H42V117H236V442H42V517H236V714H316Z"  />
<glyph unicode="&#x2022;" horiz-adv-x="500" d="M250 535Q325 535 377 483T429 357Q429 286 378 232T250 178Q173 178 123 231T72 357Q72 431 123 482Q173 535 250 535Z"  />
<glyph unicode="&#x2026;" horiz-adv-x="1000" d="M222 111V0H111V111H222ZM555 111V0H444V111H555ZM888 111V0H777V111H888Z"  />
<glyph unicode="&#x2030;" horiz-adv-x="1148" d="M713 722L176 -22H90L628 722H713ZM220 709Q292 709 329 665T366 540Q366 462 327 415T218 368Q146 368 109 412T72 535Q72 619 110 664T220 709ZM147 538Q147 423 219 423Q254 423 272 453T291 537Q291 590 274 622T223 654Q186 654 167 623T147 538ZM585 329Q657 329 694 286T731 161Q731 83 692 36T583 -12Q513 -12 475 31T437 155Q437 237 474 283T585 329ZM930 329Q1002 329 1039 286T1076 161Q1076 79 1036 34T928 -12Q859 -12 821 29T782 155Q782 240 819 284T930 329ZM512 158Q512 43 584 43Q656 43 656 157Q656 211 639 242T587 274Q554 274 533 245T512 158ZM857 158Q857 43 929 43Q1001 43 1001 157Q1001 210 984 242T933 274Q897 274 877 243T857 158Z"  />
<glyph unicode="&#x2039;" horiz-adv-x="259" d="M202 442V356L102 278L202 200V114L50 234V322L202 442Z"  />
<glyph unicode="&#x203A;" horiz-adv-x="259" d="M57 442L209 322V234L57 114V200L157 278L57 356V442Z"  />
<glyph unicode="&#x2044;" horiz-adv-x="167" d="M333 725L-102 -28H-166L269 725H333Z"  />
<glyph unicode="&#x20AC;" horiz-adv-x="556" d="M377 725Q468 725 558 663L512 579Q441 648 369 648Q301 648 255 595T189 450H472L445 389H182Q181 382 181 364T182 337H431L405 276H187Q220 61 377 61Q429 61 461 79T531 133V28Q464 -15 377 -16Q133 -16 90 276H13L41 337H86Q85 342 85 362T86 389H13L39 450H93Q118 580 191 651T377 725Z"  />
<glyph unicode="&#x2113;" horiz-adv-x="500" d="M287 721Q333 721 365 688T397 593Q397 452 226 275V122Q226 84 246 61T301 38Q347 38 389 76H391L415 41Q356 -14 285 -14Q228 -14 193 19T158 110V228L100 166H98L72 203L158 287V550Q158 625 194 673T287 721ZM226 335Q280 397 310 464T340 588Q340 626 325 649T287 673Q259 673 243 641T226 561V335Z"  />
<glyph unicode="&#x2122;" horiz-adv-x="990" d="M390 714V659H261V302H193V659H64V714H390ZM579 714L702 401L823 714H927V302H859V646H857L722 302H679L544 646H542V302H474V714H579Z"  />
<glyph unicode="&#x2126;" horiz-adv-x="759" d="M382 731Q529 731 622 637T716 401Q716 201 552 84V80H727V0H445V72Q621 192 621 401Q621 509 555 580T382 651Q273 651 206 580T138 392Q138 195 318 72V0H35V80H206V84Q43 197 43 391Q43 538 138 634T382 731Z"  />
<glyph unicode="&#x212E;" horiz-adv-x="760" d="M381 709Q527 709 621 612T719 348H192V112Q269 35 381 35Q466 35 525 73T633 192L679 164Q620 70 552 29T381 -12Q235 -12 140 89T44 348Q44 503 138 606T381 709ZM192 396H572V585Q491 663 379 663Q270 663 192 585V396Z"  />
<glyph unicode="&#x2202;" horiz-adv-x="511" d="M218 721Q341 721 405 622T469 361Q469 180 410 84T237 -12Q148 -12 91 52T33 213Q33 307 89 367T232 427Q328 427 393 352L394 398Q394 514 345 586T221 658Q165 658 107 611L65 661Q134 721 218 721ZM107 210Q107 140 145 94T239 48Q307 48 348 117T389 280Q324 365 240 365Q181 365 144 321T107 210Z"  />
<glyph unicode="&#x2206;" horiz-adv-x="648" d="M377 714L653 0H-4L272 714H377ZM323 629L124 80H518L325 629H323Z"  />
<glyph unicode="&#x220F;" horiz-adv-x="719" d="M650 786V-214H572V714H146V-214H68V786H650Z"  />
<glyph unicode="&#x2211;" horiz-adv-x="615" d="M577 786V714H140L441 290L122 -142H589V-214H25V-150L347 290L39 722V786H577Z"  />
<glyph unicode="&#x2212;" horiz-adv-x="600" d="M552 287V219H48V287H552Z"  />
<glyph unicode="&#x2215;" horiz-adv-x="167" d="M333 725L-102 -28H-166L269 725H333Z"  />
<glyph unicode="&#x2219;" horiz-adv-x="278" d="M139 375Q167 375 185 356T203 311Q203 286 184 267T140 247Q114 247 95 266T75 311Q75 338 94 356T139 375Z"  />
<glyph unicode="&#x221A;" horiz-adv-x="504" d="M514 786L303 -214H228L66 120L19 98L-9 158L103 210L254 -107L438 786H514Z"  />
<glyph unicode="&#x221E;" horiz-adv-x="759" d="M569 410Q634 410 675 367T717 255Q717 186 676 142T570 98Q527 98 483 121T380 207Q305 138 268 119T193 99Q124 99 83 141T42 252Q42 318 82 363T187 408Q233 408 276 382T380 294Q450 367 490 388T569 410ZM423 251Q473 203 506 185T573 166Q609 166 630 190T652 252Q652 292 631 317T569 342Q540 342 510 324T423 251ZM107 252Q107 214 129 190T190 166Q254 166 337 251Q243 341 187 341Q151 341 129 315T107 252Z"  />
<glyph unicode="&#x222B;" horiz-adv-x="554" d="M340 786Q372 786 396 771T420 730Q420 713 408 703T378 692Q356 692 337 723Q329 735 322 735Q291 735 291 641L293 555V7Q293 -113 261 -163T167 -213Q140 -213 119 -199T98 -161Q98 -146 109 -136T135 -125Q155 -125 167 -146Q180 -167 187 -167Q216 -167 216 -54L214 567Q214 687 244 736T340 786Z"  />
<glyph unicode="&#x2248;" horiz-adv-x="600" d="M568 421Q560 356 526 317T434 278Q378 278 251 330Q201 349 169 349Q109 349 98 274H33Q41 340 75 378T167 417Q220 417 307 382Q400 346 432 346Q491 346 503 421H568ZM568 231Q560 165 525 127T434 88Q383 88 293 124Q203 159 169 159Q109 159 98 84H33Q41 149 76 188T167 227Q219 227 308 191Q394 156 432 156Q491 156 503 231H568Z"  />
<glyph unicode="&#x2260;" horiz-adv-x="600" d="M421 528L479 496L417 388H552V322H378L302 184H552V118H263L180 -28L122 4L187 118H48V184H226L302 322H48V388H341L421 528Z"  />
<glyph unicode="&#x2264;" horiz-adv-x="600" d="M552 457L134 307L550 158H552V86L48 274V340L552 528V457ZM552 68V0H48V68H552Z"  />
<glyph unicode="&#x2265;" horiz-adv-x="600" d="M48 528L552 340V274L47 86V157L466 307L48 457V528ZM552 68V0H48V68H552Z"  />
<glyph unicode="&#x25CA;" horiz-adv-x="593" d="M332 747L504 356L332 -35H260L89 356L260 747H332ZM165 356L296 41L428 356L296 671L165 356Z"  />
<glyph unicode="&#xE0D6;" horiz-adv-x="222" d="M154 517V-69Q154 -134 122 -166T30 -198Q5 -198 -14 -194V-121Q-7 -123 14 -123Q27 -123 40 -120T61 -104T69 -56V517H154Z"  />
<glyph unicode="&#xE300;" horiz-adv-x="222" d="M86 922L172 779H108L-23 922H86Z"  />
<glyph unicode="&#xE301;" horiz-adv-x="222" d="M245 922L114 779H50L136 922H245Z"  />
<glyph unicode="&#xE302;" horiz-adv-x="222" d="M157 922L261 779H177L108 875L38 779H-39L64 922H157Z"  />
<glyph unicode="&#xE303;" horiz-adv-x="222" d="M45 922L114 826L184 922H261L158 779H65L-39 922H45Z"  />
<glyph unicode="&#xE304;" horiz-adv-x="222" d="M285 907Q266 797 184 796Q166 796 140 804T88 824Q63 835 43 835Q9 835 -6 793H-58Q-34 903 48 903Q78 903 122 883Q166 863 187 863Q220 863 233 907H285Z"  />
<glyph unicode="&#xE305;" horiz-adv-x="222" d="M62 897V793H-28V897H62ZM250 897V793H160V897H250Z"  />
<glyph unicode="&#xE306;" horiz-adv-x="222" d="M282 872V817H-59V872H282Z"  />
<glyph unicode="&#xE307;" horiz-adv-x="222" d="M5 919Q29 836 117 836Q152 836 174 853T216 919H267Q254 851 213 816T109 781Q-24 781 -45 919H5Z"  />
<glyph unicode="&#xE308;" horiz-adv-x="222" d="M111 973Q158 973 191 941T224 861Q224 815 191 782T111 749Q64 749 31 782T-2 861Q-2 908 31 940T111 973ZM44 860Q44 831 63 812T111 792Q141 792 159 812T178 860Q178 888 159 908T110 928Q83 928 64 909T44 860Z"  />
<glyph unicode="&#xE309;" horiz-adv-x="222" d="M138 922L18 779H-48L33 922H138ZM294 922L174 779H108L189 922H294Z"  />
<glyph unicode="&#xE30A;" horiz-adv-x="222" d="M156 897V793H66V897H156Z"  />
<glyph unicode="&#xE30B;" horiz-adv-x="222" d="M215 714L140 571H80L106 714H215Z"  />
<glyph unicode="&#xE30C;" horiz-adv-x="278" d="M192 -50V-129Q192 -206 93 -210V-175Q133 -167 133 -143V-138H81V-50H192Z"  />
<glyph unicode="&#xE30D;" horiz-adv-x="278" d="M182 751Q142 741 142 717V714H194V626H83V704Q84 784 182 786V751Z"  />
<glyph unicode="&#xFB01;" horiz-adv-x="518" d="M241 722Q273 722 297 714V640Q279 647 249 647Q184 647 184 591V517H284V442H184V0H99V442H12V517H99V598Q99 655 134 688T241 722ZM450 714V610H365V714H450ZM450 517V0H365V517H450Z"  />
<glyph unicode="&#xFB02;" horiz-adv-x="518" d="M241 722Q273 722 297 714V640Q279 647 249 647Q184 647 184 591V517H284V442H184V0H99V442H12V517H99V598Q99 655 134 688T241 722ZM450 714V0H365V714H450Z"  />


</font>
</defs>
<text x="40" y="40" font-family="Helvetica Neue LT W02 55 Roman" font-size="30" fill="#933" >ABCDEFGHIJKLMNOPQRSTUVWXYZ abcdefghijklmnopqrstuvwxyz AÁÀÂÄÅÃÆ CÇ DÐ EÉÈÊË I Í Ì Î Ï NÑ</text>
<text x="40" y="80" font-family="Helvetica Neue LT W02 55 Roman" font-size="30" fill="#933" >OÓÒÔÖÕØŒ SŠ UÚÙÛÜ YÝŸ ZŽ Þ aáàâäåãæ cç dð eéèêë i ı í ì î ï nñ oóòôöõøœ sšß uúùûü yýÿ zž</text>
<text x="40" y="120" font-family="Helvetica Neue LT W02 55 Roman" font-size="30" fill="#933" >þ 1234567890 ½ ¼ ¾ % ‰ $¢£¥ƒ€¤ † ‡ § ¶ # ^~µ +×± &lt; = &gt; ÷¬ !¡?¿ &quot; &amp; &apos; * ° . , : ; () [ \ ] {} / |</text>
<text x="40" y="160" font-family="Helvetica Neue LT W02 55 Roman" font-size="30" fill="#933" >¦ _ ‚ „ … ‹› «» ‘ ’ “ ” • ­ - – — @ © ® ™ ªº ¹²³ ´ ` ˆ ˜ ¨ ¯ · ¸</text>
</svg>
