<?xml version="1.0" encoding="utf-8"?>
<!-- Generator: Adobe Illustrator 19.2.0, SVG Export Plug-In . SVG Version: 6.00 Build 0)  -->
<svg version="1.1" id="Capa_1" xmlns="http://www.w3.org/2000/svg" xmlns:xlink="http://www.w3.org/1999/xlink" x="0px" y="0px"
	 viewBox="0 0 50.3 62.1" style="enable-background:new 0 0 50.3 62.1;" xml:space="preserve">
<style type="text/css">
	.st0{fill:#9EA3A9;}
</style>
<g id="XMLID_1226_">
	<g id="XMLID_1228_">
		<path class="st0" d="M45.1,17c1,0,2,1.3,2,2.5l0,0l0,0l1,38.5c0,1.1-0.9,2-2,2h-42c-1.1,0-2-0.9-2-2l1-38.5l0,0l0,0
			c0-1.2,1-2.5,2-2.5H45.1 M24.9,0C16,0,9.7,4.2,9.7,13h2c0-6.5,5.4-11,13.1-11c7.3,0,14,3.7,14.1,11h2C41,4.2,33.7,0,24.9,0L24.9,0
			z M45.1,15h-40c-2.2,0-4,2.3-4,4.5L0.1,58c0,2.2,1.8,4,4,4h42c2.2,0,4-1.8,4-4l-1-38.5C49.1,17.3,47.3,15,45.1,15L45.1,15z"/>
	</g>
	<g id="XMLID_1227_">
		<path class="st0" d="M31.9,23H17.8c-0.5,0-1-0.4-1-1l0,0c0-0.5,0.4-1,1-1h14.1c0.6,0,1,0.4,1,1l0,0C32.9,22.6,32.5,23,31.9,23z"/>
	</g>
</g>
</svg>
