[
  {
    "id": "a1",
    "type": "dialog",
    "image": "retrocredit/overlays/EN/img/imgRetroCreditOverlayOverlayFlightnumberEn.png",
    "headline": "Where can I find the flight number?",
    "body": "You can find the flight number on your passenger or *itinerary receipt or boarding pass*."
  },
  {
    "id": "a2",
    "type": "dialog",
    "image": "retrocredit/overlays/EN/img/imgRetroCreditOverlayTravelclassEn.jpg",
    "headline": "Where can I find the travel class?",
    "body": "You can find the travel class on the *itinerary receipt or boarding pass*. For tariffs such as Economy Light/Classic/Flex, please select the higher class (\"Economy\", \"Business\" etc.)."
  },
  {
    "id": "a3",
    "type": "dialog",
    "image": "retrocredit/overlays/EN/img/imgRetroCreditOverlayTicketnumberEn.jpg",
    "headline": "Where can I find the ticket number?",
    "body": "You can find the compartment on the *itinerary receipt or boarding pass*. Sometimes, this number is indicated as \"*etix*\" instead."
  }
]
