<?xml  version="1.0" encoding="UTF-8"?>
<!DOCTYPE svg PUBLIC "-//W3C//DTD SVG 1.0//EN" "http://www.w3.org/TR/2001/REC-SVG-20010904/DTD/svg10.dtd" >
<svg xmlns="http://www.w3.org/2000/svg" >
<metadata>
<version>1.0</version>
<id><![CDATA[Helvetica Neue LT W02 45 Light]]></id>
<vendor>Monotype Imaging Inc.</vendor>
<credits>
<name>Fonts.com WebFonts</name>
<URL>http://webfonts.fonts.com</URL>
<role>Home of the Web fonts</role>
</credits>
<license>
<URL>http://webfonts.fonts.com/Legal</URL>
</license>
<copyright><![CDATA[Copyright © 2014 Monotype Imaging Inc. All rights reserved.]]></copyright>
<trademark><![CDATA[Neue Helvetica is a trademark of Monotype Imaging Inc. registered in the U.S. Patent and Trademark Office and may be registered in certain other jurisdictions.]]></trademark>
<licensee>
<name></name>
</licensee>
</metadata>
<defs >
<font horiz-adv-x="508" id="3513edb4-f4ad-4340-85e6-0cea8ca12237">
<font-face font-family="Helvetica Neue LT W02 45 Light" panose-1="2 11 4 3 2 2 2 2 2 4" ascent="967" descent="-214" units-per-em="1000" alphabetic="0">
</font-face>
<missing-glyph horiz-adv-x="512" d="M512 718V0H0V718H512ZM462 50V667H50V50H462ZM259 609Q312 609 347 573T383 478Q383 443 370 417T319 357Q283 324 277 306T271 234H225L223 253Q223 306 236 332T290 398Q316 424 324 439T332 474Q332 508 310 533T256 559Q185 559 174 464L124 472Q131 543 168 576T259 609ZM222 184H278V117H222V184Z"  />

<glyph unicode="&#xA;" />
<glyph unicode="&#xD;" horiz-adv-x="278" />
<glyph unicode=" " horiz-adv-x="278" />
<glyph unicode="!" horiz-adv-x="241" d="M155 714V501L140 178H102L87 501V714H155ZM163 106V0H79V106H163Z"  />
<glyph unicode="&quot;" horiz-adv-x="370" d="M150 714V471H87V714H150ZM283 714V471H220V714H283Z"  />
<glyph unicode="#" horiz-adv-x="556" d="M210 691H260L229 469H370L401 691H451L420 469H525V424H414L392 268H497V223H386L355 0H305L336 223H195L164 0H114L145 223H35V268H151L173 424H63V469H179L210 691ZM201 268H342L364 424H223L201 268Z"  />
<glyph unicode="$" horiz-adv-x="556" d="M257 807H296V729Q388 727 447 669T508 521V512H445Q444 583 405 629T296 676V388Q434 359 480 309T527 185Q527 99 464 43T296 -15V-100H257V-14Q142 -3 88 53T29 228H92Q94 56 257 38V334Q145 356 96 401T47 534Q47 617 104 672T257 729V807ZM110 527Q110 471 145 442T257 397V676Q188 676 149 637T110 527ZM296 38Q374 39 419 78T464 184Q464 236 427 270T296 326V38Z"  />
<glyph unicode="%" horiz-adv-x="889" d="M643 725H690L238 -34H190L643 725ZM228 706Q306 706 346 657T387 517Q387 432 348 380T228 328Q151 328 110 377T69 517Q69 608 110 657T228 706ZM122 516Q122 447 150 410T228 373Q277 373 305 410T334 516Q334 584 306 622T227 661Q178 661 150 624T122 516ZM667 363Q745 363 785 314T826 174Q826 89 787 37T667 -15Q585 -15 547 37T508 174Q508 264 548 313T667 363ZM561 173Q561 106 588 68T667 30Q717 30 745 68T773 173Q773 240 745 279T666 318Q616 318 589 280T561 173Z"  />
<glyph unicode="&amp;" horiz-adv-x="611" d="M284 714Q353 714 397 673T442 569Q442 519 411 475T302 384L458 196Q470 220 474 244T479 316H542Q542 219 500 145L620 0H541L465 93Q379 -15 254 -15Q157 -15 98 39T39 185Q39 304 214 397L185 434Q126 506 126 569Q126 634 172 674T284 714ZM189 569Q189 518 269 425Q379 492 379 569Q379 612 353 636T283 661Q246 661 218 639T189 569ZM102 179Q102 121 146 80T257 38Q353 38 426 140L248 356Q102 279 102 179Z"  />
<glyph unicode="&apos;" horiz-adv-x="278" d="M171 714V471H108V714H171Z"  />
<glyph unicode="(" horiz-adv-x="241" d="M242 729Q114 526 114 244Q114 133 150 15T242 -191H192Q117 -67 84 39T51 266Q51 510 192 729H242Z"  />
<glyph unicode=")" horiz-adv-x="241" d="M49 729Q128 597 159 491T190 272Q190 26 49 -191H-1Q127 14 127 294Q127 396 93 512T-1 729H49Z"  />
<glyph unicode="*" horiz-adv-x="352" d="M156 714H195V591L310 632L325 595L207 556L279 458L247 435L174 535L101 435L69 458L142 556L27 595L41 632L156 591V714Z"  />
<glyph unicode="+" horiz-adv-x="600" d="M274 503H327V278H552V225H327V0H274V225H49V278H274V503Z"  />
<glyph unicode="&#x2c;" horiz-adv-x="278" d="M181 106V-1Q181 -51 157 -88T93 -137V-94Q113 -87 126 -61T139 -9V0H97V106H181Z"  />
<glyph unicode="-" horiz-adv-x="370" d="M310 304V246H60V304H310Z"  />
<glyph unicode="." horiz-adv-x="278" d="M181 106V0H97V106H181Z"  />
<glyph unicode="/" horiz-adv-x="333" d="M295 729H346L41 -15H-13L295 729Z"  />
<glyph unicode="0" horiz-adv-x="556" d="M278 706Q522 706 522 346Q522 -15 278 -15Q34 -15 34 345Q34 706 278 706ZM97 346Q97 38 278 38Q459 38 459 346Q459 653 277 653Q97 653 97 346Z"  />
<glyph unicode="1" horiz-adv-x="556" d="M345 700V0H282V520H97V565Q188 567 220 581T270 624T294 700H345Z"  />
<glyph unicode="2" horiz-adv-x="556" d="M277 706Q377 706 435 652T494 509Q494 435 449 374Q407 314 274 232Q191 181 154 141T108 58H497V0H36Q38 79 81 141T239 277Q344 344 387 393T431 510Q431 575 386 614T274 653Q199 653 158 604T116 468V458H53V468Q53 579 112 642T277 706Z"  />
<glyph unicode="3" horiz-adv-x="556" d="M271 706Q331 706 381 685T459 624T487 528Q487 469 456 429T369 373V371Q439 359 475 314T513 198Q513 135 482 87T395 12T273 -15Q165 -15 99 44T32 204Q32 212 33 223H96V210Q97 130 144 85T272 38Q322 38 363 58T427 113T450 193Q450 262 405 301T281 341H229V394H280Q343 394 383 429T424 521Q424 585 382 619T272 653Q198 653 156 608T112 480V476H49Q50 581 111 643T271 706Z"  />
<glyph unicode="4" horiz-adv-x="556" d="M354 700H411V227H516V174H411V0H353V174H30V235L354 700ZM87 227H353V608H351L87 227Z"  />
<glyph unicode="5" horiz-adv-x="556" d="M475 691V633H169L124 401L126 399Q153 430 192 447T274 464Q381 464 445 396T509 222Q509 122 439 54T266 -15Q164 -15 101 45T36 200H99Q101 129 149 84T271 38Q346 38 396 92T446 229Q446 309 394 360T267 411Q222 411 181 391T111 328H57L125 691H475Z"  />
<glyph unicode="6" horiz-adv-x="556" d="M290 706Q483 706 505 523H442Q434 582 395 617T296 653Q201 653 153 573T103 340H105Q131 394 182 425T292 456Q393 456 457 392T522 222Q522 120 456 53T285 -15Q153 -15 97 72T40 355Q40 520 107 613T290 706ZM116 218Q116 133 161 86T291 38Q363 38 411 89T459 218Q459 300 413 351T289 403Q213 403 165 352T116 218Z"  />
<glyph unicode="7" horiz-adv-x="556" d="M501 691V633Q236 355 218 0H150Q162 177 228 323T438 633H51V691H501Z"  />
<glyph unicode="8" horiz-adv-x="556" d="M277 706Q369 706 429 659T490 531Q490 474 461 434T376 377V375Q445 361 482 314T519 196Q519 100 454 43T278 -15Q170 -15 104 41T37 194Q37 261 75 311T179 375V377Q65 413 65 531Q65 609 124 657T277 706ZM128 531Q128 471 168 436T275 401Q345 401 386 435T427 531Q427 588 387 620T277 653Q211 653 170 619T128 531ZM100 196Q100 123 147 81T278 38Q360 38 408 79T456 196Q456 264 408 306T277 348Q193 348 147 307T100 196Z"  />
<glyph unicode="9" horiz-adv-x="556" d="M271 706Q402 706 459 620T516 336Q516 176 451 81T266 -15Q73 -15 51 168H114Q123 106 163 72T260 38Q356 38 404 120T453 351H451Q427 300 377 268T265 235Q164 235 99 299T34 469Q34 571 100 638T271 706ZM97 473Q97 391 144 340T266 288Q346 288 393 340T440 473Q440 556 396 604T265 653Q193 653 145 602T97 473Z"  />
<glyph unicode=":" horiz-adv-x="278" d="M181 500V394H97V500H181ZM181 106V0H97V106H181Z"  />
<glyph unicode=";" horiz-adv-x="278" d="M181 500V394H97V500H181ZM181 106V-3Q181 -51 157 -88T93 -137V-94Q115 -86 127 -60T139 -7V0H97V106H181Z"  />
<glyph unicode="&lt;" horiz-adv-x="600" d="M554 514V459L108 253L554 47V-8L46 226V280L554 514Z"  />
<glyph unicode="=" horiz-adv-x="600" d="M552 378V325H49V378H552ZM552 181V128H49V181H552Z"  />
<glyph unicode="&gt;" horiz-adv-x="600" d="M46 514L554 280V226L46 -8V47L492 253L46 459V514Z"  />
<glyph unicode="?" horiz-adv-x="537" d="M281 729Q369 729 426 678T484 544Q484 487 461 450T402 379L348 326Q323 301 315 279T304 179H241V199Q241 261 260 302T348 405Q421 469 421 541Q421 598 380 637T277 676Q205 676 161 630T117 503V494H54Q54 602 115 665T281 729ZM315 106V0H231V106H315Z"  />
<glyph unicode="@" horiz-adv-x="800" d="M414 729Q560 729 656 642T753 418Q753 343 720 275T632 168T521 128Q495 128 476 145T454 195H452Q387 129 325 129Q265 129 229 170T193 274Q193 346 224 414T311 522T430 563Q504 563 536 479L561 544H614L522 268Q507 224 507 201Q507 173 531 173Q594 173 647 252T700 421Q700 539 620 611T416 684Q279 684 190 590T100 353Q100 214 192 122T418 30Q490 30 561 65T676 163H727Q683 84 599 35T418 -15Q261 -15 154 91T47 360Q47 459 95 545T229 680T414 729ZM256 279Q256 236 278 209T339 182Q380 182 418 219T481 312T505 417Q505 454 480 482T426 510Q381 510 342 476T280 386T256 279Z"  />
<glyph unicode="A" horiz-adv-x="630" d="M357 714L637 0H564L477 222H152L66 0H-7L281 714H357ZM173 280H454L316 646L173 280Z"  />
<glyph unicode="B" horiz-adv-x="667" d="M374 714Q485 714 544 670T603 540Q603 484 571 439T479 379V377Q548 368 589 321T630 203Q630 103 565 52T375 0H72V714H374ZM375 401Q450 401 492 434T535 522Q535 656 373 656H140V401H375ZM375 58Q562 58 562 205Q562 343 374 343H140V58H375Z"  />
<glyph unicode="C" horiz-adv-x="704" d="M375 729Q488 729 568 664T662 498H594Q577 576 518 623T375 671Q251 671 179 585T106 357Q106 216 178 130T375 43Q469 43 531 106T604 272H672Q658 140 579 63T375 -15Q222 -15 130 88T38 357Q38 524 130 626T375 729Z"  />
<glyph unicode="D" horiz-adv-x="685" d="M307 714Q647 714 647 357Q647 0 306 0H72V714H307ZM284 58Q442 58 510 129T579 357Q579 517 510 586T282 656H140V58H284Z"  />
<glyph unicode="E" horiz-adv-x="593" d="M565 714V656H140V398H538V340H140V58H570V0H72V714H565Z"  />
<glyph unicode="F" horiz-adv-x="537" d="M525 714V656H140V398H482V340H140V0H72V714H525Z"  />
<glyph unicode="G" horiz-adv-x="741" d="M375 729Q494 729 573 667T673 492H605Q599 562 533 616T375 671Q292 671 232 632T139 520T106 357Q106 216 179 130T375 43Q488 43 555 112T622 299V305H379V363H682V0H633L624 130H622Q589 59 525 22T375 -15Q222 -15 130 88T38 357Q38 464 79 549T197 682T375 729Z"  />
<glyph unicode="H" horiz-adv-x="704" d="M140 714V404H564V714H632V0H564V346H140V0H72V714H140Z"  />
<glyph unicode="I" horiz-adv-x="222" d="M145 714V0H77V714H145Z"  />
<glyph unicode="J" horiz-adv-x="500" d="M428 714V197Q428 88 381 37T221 -15Q21 -15 21 227V229H89Q89 124 123 84T227 43Q301 43 330 82T360 223V714H428Z"  />
<glyph unicode="K" horiz-adv-x="648" d="M140 714V330L555 714H647L328 419L662 0H574L277 372L140 245V0H72V714H140Z"  />
<glyph unicode="L" horiz-adv-x="537" d="M140 714V58H540V0H72V714H140Z"  />
<glyph unicode="M" horiz-adv-x="833" d="M170 714L417 88L663 714H763V0H695V617H693L449 0H385L140 617H138V0H70V714H170Z"  />
<glyph unicode="N" horiz-adv-x="704" d="M147 714L563 110H565V714H633V0H557L141 604H139V0H71V714H147Z"  />
<glyph unicode="O" horiz-adv-x="741" d="M371 729Q471 729 547 682T665 549T707 357Q707 191 615 88T371 -15Q216 -15 125 89T34 357Q34 524 126 626T371 729ZM102 357Q102 216 175 130T371 43Q492 43 565 129T639 357Q639 498 566 584T370 671Q247 671 175 584T102 357Z"  />
<glyph unicode="P" horiz-adv-x="630" d="M390 714Q489 714 545 659T601 510Q601 414 545 360T390 306H140V0H72V714H390ZM375 364Q445 364 489 399T533 510Q533 577 494 616T373 656H140V364H375Z"  />
<glyph unicode="Q" horiz-adv-x="741" d="M371 729Q525 729 616 626T707 357Q707 178 599 74L701 -4L667 -46L556 38Q482 -15 371 -15Q216 -15 125 89T34 357Q34 520 125 624T371 729ZM102 357Q102 216 175 130T371 43Q447 43 503 78L409 149L444 192L548 113Q639 200 639 357Q639 499 566 585T370 671Q247 671 175 584T102 357Z"  />
<glyph unicode="R" horiz-adv-x="667" d="M397 714Q495 714 555 666T616 528Q616 456 580 408T477 346V344Q537 335 568 296T603 165L605 123Q609 31 635 0H560Q546 21 540 131Q534 236 502 276T408 317H140V0H72V714H397ZM395 375Q458 375 503 413T548 514Q548 583 508 619T395 656H140V375H395Z"  />
<glyph unicode="S" horiz-adv-x="630" d="M304 729Q423 729 496 669T569 507H501Q497 581 445 626T305 671Q222 671 175 635T127 529Q127 490 150 463T227 422L401 379Q505 353 549 307T594 189Q594 93 521 39T321 -15Q184 -15 110 46T36 217V235H104V229Q104 43 335 43Q414 43 470 83T526 188Q526 281 383 316L220 356Q140 376 100 416T59 528Q59 585 87 630T171 702T304 729Z"  />
<glyph unicode="T" horiz-adv-x="556" d="M561 714V656H312V0H244V656H-5V714H561Z"  />
<glyph unicode="U" horiz-adv-x="685" d="M133 714V271Q133 154 185 99T342 43Q451 43 501 99T552 272V714H620V259Q620 127 547 56T342 -15Q210 -15 138 57T65 259V714H133Z"  />
<glyph unicode="V" horiz-adv-x="593" d="M66 714L298 75H300L530 714H602L337 1L336 0H258L-7 714H66Z"  />
<glyph unicode="W" horiz-adv-x="907" d="M73 714L235 89H237L411 714H496L671 89H673L836 714H904L707 0H635L454 639H452L272 0H198L0 714H73Z"  />
<glyph unicode="X" horiz-adv-x="574" d="M83 714L285 415L494 714H570L326 366L584 0H502L285 315L65 0H-12L245 368L3 714H83Z"  />
<glyph unicode="Y" horiz-adv-x="611" d="M71 714L306 352L540 714H621L339 294V0H271V294L-10 714H71Z"  />
<glyph unicode="Z" horiz-adv-x="574" d="M551 714V654L81 58H561V0H5V60L475 656H37V714H551Z"  />
<glyph unicode="[" horiz-adv-x="241" d="M237 729V676H139V-138H237V-191H76V729H237Z"  />
<glyph unicode="\" horiz-adv-x="333" d="M-13 729H38L346 -15H292L-13 729Z"  />
<glyph unicode="]" horiz-adv-x="241" d="M165 729V-191H4V-138H102V676H4V729H165Z"  />
<glyph unicode="^" horiz-adv-x="600" d="M274 691H326L556 238H499L299 628L102 238H44L274 691Z"  />
<glyph unicode="_" horiz-adv-x="500" d="M500 -75V-125H0V-75H500Z"  />
<glyph unicode="`" horiz-adv-x="185" d="M47 730L152 589H101L-31 730H47Z"  />
<glyph unicode="a" horiz-adv-x="519" d="M264 531Q453 531 453 365V91Q453 53 490 53Q502 53 510 57V4Q492 0 470 0Q426 0 411 22T395 87V90H393Q357 33 314 9T205 -15Q124 -15 79 25T32 136Q32 187 55 219T125 269T283 299Q342 305 358 312T382 333T390 372Q390 428 356 453T255 478Q124 477 117 358H54Q59 444 113 487T264 531ZM388 282Q378 264 323 257L260 248Q167 235 131 210T95 140Q95 98 127 69T210 38Q287 38 338 83T390 199V282H388Z"  />
<glyph unicode="b" horiz-adv-x="574" d="M123 714V418H125Q143 471 194 501T305 531Q411 531 473 456T536 258Q536 135 474 60T304 -15Q244 -15 194 13T120 98H118V0H60V714H123ZM123 259Q123 155 172 97T304 38Q383 38 428 99T473 258Q473 357 427 417T303 478Q219 478 171 419T123 259Z"  />
<glyph unicode="c" horiz-adv-x="519" d="M278 531Q370 531 423 484T487 354H424Q397 478 278 478Q197 478 147 415T97 258Q97 162 148 100T278 38Q336 38 379 79T428 185H491Q478 90 422 38T278 -15Q167 -15 101 62T34 258Q34 377 100 454T278 531Z"  />
<glyph unicode="d" horiz-adv-x="574" d="M514 714V0H456V98H454Q434 49 383 17T270 -15Q164 -15 101 58T38 258Q38 381 100 456T270 531Q333 531 383 499T449 418H451V714H514ZM101 258Q101 161 146 100T270 38Q352 38 401 96T451 258Q451 360 403 419T270 478Q192 478 147 418T101 258Z"  />
<glyph unicode="e" horiz-adv-x="519" d="M267 531Q371 531 432 457T494 256V241H97Q97 153 143 96T267 38Q395 38 429 170H492Q470 75 415 30T267 -15Q159 -15 97 58T34 258Q34 380 97 455T267 531ZM431 294Q429 371 384 424T266 478Q198 478 153 429T97 294H431Z"  />
<glyph unicode="f" horiz-adv-x="259" d="M220 714Q250 714 272 710V656Q245 661 226 661Q186 661 172 642T157 575V516H259V463H157V0H94V463H6V516H94V566Q94 644 123 678T220 714Z"  />
<glyph unicode="g" horiz-adv-x="556" d="M267 531Q322 531 366 502T431 427H433V516H496V40Q496 -83 441 -144T268 -206Q175 -206 117 -164T53 -50H116Q124 -99 164 -126T267 -153Q356 -153 394 -103T433 40V112H431Q408 61 365 34T267 6Q158 6 96 74T34 271Q34 384 97 457T267 531ZM97 264Q97 172 143 116T267 59Q339 59 386 116T433 264Q433 358 389 418T266 478Q188 478 143 419T97 264Z"  />
<glyph unicode="h" horiz-adv-x="537" d="M122 714V427H124Q142 474 187 502T290 531Q390 531 434 483T478 334V0H415V324Q415 478 284 478Q209 478 166 428T122 296V0H59V714H122Z"  />
<glyph unicode="i" horiz-adv-x="185" d="M124 714V613H61V714H124ZM124 516V0H61V516H124Z"  />
<glyph unicode="j" horiz-adv-x="185" d="M124 714V613H61V714H124ZM124 516V-50Q124 -125 97 -158T14 -191Q6 -191 -30 -189V-137Q-23 -138 0 -138Q36 -138 48 -122T61 -64V516H124Z"  />
<glyph unicode="k" horiz-adv-x="500" d="M123 714V266L409 516H493L273 325L508 0H429L225 281L123 196V0H60V714H123Z"  />
<glyph unicode="l" horiz-adv-x="185" d="M124 714V0H61V714H124Z"  />
<glyph unicode="m" horiz-adv-x="833" d="M290 531Q343 531 383 506T438 430Q461 480 505 505T603 531Q773 531 773 352V0H710V348Q710 417 681 447T588 478Q448 478 448 291V0H385V349Q385 478 277 478Q202 478 163 428T123 288V0H60V516H118V429H121Q174 531 290 531Z"  />
<glyph unicode="n" horiz-adv-x="537" d="M290 531Q390 531 434 483T478 335V0H415V323Q415 478 284 478Q211 478 167 428T122 296V0H59V516H122V427H124Q142 474 187 502T290 531Z"  />
<glyph unicode="o" horiz-adv-x="556" d="M278 531Q387 531 454 456T522 258Q522 139 456 62T278 -15Q167 -15 101 62T34 258Q34 377 100 454T278 531ZM97 258Q97 163 148 101T278 38Q357 38 408 100T459 258Q459 350 410 414T277 478Q196 478 147 415T97 258Z"  />
<glyph unicode="p" horiz-adv-x="574" d="M304 531Q411 531 473 457T536 258Q536 133 473 59T305 -15Q243 -15 194 14T125 98H123V-191H60V516H118V418H120Q143 473 192 502T304 531ZM123 258Q123 158 171 98T304 38Q383 38 428 99T473 258Q473 355 428 416T303 478Q123 478 123 258Z"  />
<glyph unicode="q" horiz-adv-x="574" d="M270 531Q332 531 383 498T454 418H456V516H514V-191H451V98H449Q430 44 381 15T270 -15Q164 -15 101 59T38 258Q38 382 100 456T270 531ZM101 258Q101 159 147 99T270 38Q354 38 402 98T451 258Q451 359 402 418T270 478Q191 478 146 417T101 258Z"  />
<glyph unicode="r" horiz-adv-x="315" d="M315 460H305Q226 460 175 408T123 274V0H60V516H118V395H120Q143 457 191 490T302 523H315V460Z"  />
<glyph unicode="s" horiz-adv-x="481" d="M243 531Q327 531 378 488T432 365H369Q367 419 331 448T234 478Q178 478 145 454T112 389Q112 326 228 300Q348 273 375 259T419 226T443 186T450 140Q450 70 393 28T243 -15Q47 -15 31 167H94Q98 105 139 72T246 38Q309 38 348 65T387 135Q387 175 358 196T265 232L198 247Q122 264 86 296T49 386Q49 454 104 492T243 531Z"  />
<glyph unicode="t" horiz-adv-x="296" d="M160 671V516H265V463H160V111Q160 75 173 61T218 47Q237 47 265 50V-4Q225 -6 209 -6Q142 -6 120 21T97 106V463H7V516H97V671H160Z"  />
<glyph unicode="u" horiz-adv-x="537" d="M122 516V193Q122 108 155 73T259 38Q328 38 371 93T415 246V516H478V0H420V93H418Q393 42 347 14T240 -15Q59 -15 59 181V516H122Z"  />
<glyph unicode="v" horiz-adv-x="463" d="M72 516L234 63H236L396 516H461L268 0H201L2 516H72Z"  />
<glyph unicode="w" horiz-adv-x="741" d="M75 516L207 74H209L335 516H406L532 74H534L666 516H733L567 0H498L371 434H369L243 0H174L8 516H75Z"  />
<glyph unicode="x" horiz-adv-x="481" d="M95 516L242 320L386 516H465L279 269L480 0H400L238 217L79 0H1L201 268L16 516H95Z"  />
<glyph unicode="y" horiz-adv-x="463" d="M69 516L239 76L398 516H461L237 -79Q211 -147 183 -169T104 -191Q68 -191 53 -186V-133Q73 -138 96 -138Q122 -138 138 -128T166 -99T208 2L2 516H69Z"  />
<glyph unicode="z" horiz-adv-x="463" d="M432 516V471L91 53H446V0H15V51L352 463H38V516H432Z"  />
<glyph unicode="{" horiz-adv-x="333" d="M293 676H275Q247 676 233 649T218 573V431Q218 377 199 335T148 270V268Q179 248 198 206T218 107V-33Q218 -138 274 -138H293V-191H243Q201 -191 178 -158T155 -66V84Q155 242 83 242V295Q155 295 155 452V607Q155 664 179 696T244 729H293V676Z"  />
<glyph unicode="|" horiz-adv-x="222" d="M85 786H138V-214H85V786Z"  />
<glyph unicode="}" horiz-adv-x="333" d="M40 729H90Q131 729 154 695T178 607V454Q178 296 250 296V243Q178 243 178 86V-67Q178 -121 156 -156T90 -191H40V-138H59Q115 -138 115 -33V110Q115 157 132 201T185 268V270Q153 292 134 334T115 430V574Q115 623 100 649T59 676H40V729Z"  />
<glyph unicode="~" horiz-adv-x="600" d="M531 279Q501 233 472 213T406 193Q378 193 349 203T274 236T189 258Q136 258 105 189L69 225Q111 310 194 311Q229 311 272 294T351 262T407 246Q434 246 456 266T495 315L531 279Z"  />
<glyph unicode="&#xA0;" horiz-adv-x="278" />
<glyph unicode="&#xA1;" horiz-adv-x="241" d="M163 516V410H79V516H163ZM102 338H140L155 15V-191H87V15L102 338Z"  />
<glyph unicode="&#xA2;" horiz-adv-x="556" d="M270 618H309V531Q392 529 445 482T507 354H444Q418 474 309 478V38Q361 40 401 81T448 185H511Q499 93 445 41T309 -15V-116H270V-14Q173 -4 114 70T54 258Q54 368 112 443T270 529V618ZM117 258Q117 171 160 110T270 39V476Q199 464 158 405T117 258Z"  />
<glyph unicode="&#xA3;" horiz-adv-x="556" d="M282 729Q389 729 451 670T514 498V492H451Q451 580 406 628T282 676Q207 676 162 633T117 519Q117 473 142 428Q169 382 176 362H336V330H194Q203 316 210 287T218 233Q218 137 108 51L110 49Q166 79 208 79Q260 79 309 59Q359 38 395 38Q425 38 456 53T510 94L542 46Q475 -15 396 -15Q348 -15 292 5Q233 26 192 26Q158 26 137 18T79 -15L43 39Q102 87 128 131T155 225Q155 282 127 330H46V362H109Q54 447 54 523Q54 618 117 673T282 729Z"  />
<glyph unicode="&#xA4;" horiz-adv-x="556" d="M123 538Q185 594 278 594Q365 594 432 539L487 594L525 556L471 502Q527 432 527 346Q527 258 471 190L525 136L487 98L432 153Q368 98 278 98Q193 98 123 154L67 98L29 136L86 193Q31 260 31 346Q31 434 85 500L29 556L67 594L123 538ZM94 346Q94 266 147 211T278 156Q356 156 410 210T464 346Q464 425 410 480T278 536Q203 536 149 482T94 346Z"  />
<glyph unicode="&#xA5;" horiz-adv-x="556" d="M78 714L277 349L478 714H547L336 349H445V304H314L308 294V221H445V176H308V0H245V176H110V221H245V294L239 304H110V349H216L6 714H78Z"  />
<glyph unicode="&#xA6;" horiz-adv-x="222" d="M85 661H138V411H85V661ZM85 161H138V-89H85V161Z"  />
<glyph unicode="&#xA7;" horiz-adv-x="556" d="M273 729Q361 729 409 683T458 552H395V559Q395 607 363 641T279 676Q231 676 199 654T167 587Q167 549 197 517T330 431Q439 374 475 330T511 230Q511 188 484 151T402 91Q452 47 452 -18Q452 -82 403 -121T283 -161Q199 -161 149 -117T98 16H161V9Q161 -42 195 -75T277 -108Q328 -108 358 -84T389 -19Q389 22 355 55T215 143Q131 186 88 230T45 337Q45 385 75 421T154 477Q104 521 104 586Q104 647 152 688T273 729ZM108 340Q108 301 140 267T249 188Q322 149 364 122Q448 157 448 230Q448 269 414 306T297 387Q220 427 190 447Q108 413 108 340Z"  />
<glyph unicode="&#xA8;" horiz-adv-x="185" d="M38 711V610H-30V711H38ZM215 711V610H147V711H215Z"  />
<glyph unicode="&#xA9;" horiz-adv-x="800" d="M400 729Q501 729 586 681T722 546T772 357Q772 255 723 169T588 34T400 -15Q298 -15 212 34T77 169T28 357Q28 459 76 545T211 680T400 729ZM86 357Q86 222 175 130T400 38Q532 38 623 130T714 357Q714 491 623 583T399 676Q267 676 177 585T86 357ZM409 586Q483 586 534 546T594 435H543Q532 486 496 513T409 541Q334 541 290 491T245 357Q245 274 288 224T410 173Q461 173 496 201T543 279H594Q584 207 533 168T409 128Q312 128 252 190T192 357Q192 463 253 524T409 586Z"  />
<glyph unicode="&#xAA;" horiz-adv-x="311" d="M147 706Q217 706 246 681T275 606V437Q275 411 300 411Q308 411 313 414V380Q296 377 286 377Q271 377 260 381T244 398T238 430V433H236Q195 368 113 368Q56 368 26 393T-5 464Q-5 510 25 534T142 566Q197 570 212 576T228 600Q228 667 141 667Q102 667 79 649T54 597H7Q13 705 147 706ZM226 549Q222 537 144 528Q88 520 65 507T42 466Q42 442 64 425T111 407Q162 407 195 434T228 502V549H226Z"  />
<glyph unicode="&#xAB;" horiz-adv-x="426" d="M193 431V364L99 275L193 186V119L60 244V306L193 431ZM354 431V364L260 275L354 186V119L221 244V306L354 431Z"  />
<glyph unicode="&#xAC;" horiz-adv-x="600" d="M552 378V111H499V325H49V378H552Z"  />
<glyph unicode="&#xAD;" horiz-adv-x="370" d="M310 304V246H60V304H310Z"  />
<glyph unicode="&#xAE;" horiz-adv-x="800" d="M400 729Q502 729 588 680T723 544T772 357Q772 199 665 92T400 -15Q298 -15 212 33T77 168T28 357Q28 459 76 545T211 680T400 729ZM86 357Q86 224 175 131T400 38Q534 38 624 130T714 357Q714 493 623 584T399 676Q267 676 177 585T86 357ZM430 572Q570 572 570 453Q570 354 462 333L590 142H528L407 333H318V142H265V572H430ZM393 378Q466 378 491 396T517 453Q517 527 418 527H318V378H393Z"  />
<glyph unicode="&#xAF;" horiz-adv-x="185" d="M257 683V638H-72V683H257Z"  />
<glyph unicode="&#xB0;" horiz-adv-x="400" d="M200 706Q259 706 301 664T344 562Q344 501 302 460T200 418Q138 418 97 460T56 562Q56 622 98 664T200 706ZM95 562Q95 517 125 487T200 457Q243 457 274 487T305 562Q305 607 274 637T199 667Q156 667 126 637T95 562Z"  />
<glyph unicode="&#xB1;" horiz-adv-x="600" d="M274 503H327V323H552V270H327V90H274V270H50V323H274V503ZM552 53V0H49V53H552Z"  />
<glyph unicode="&#xB2;" horiz-adv-x="370" d="M191 829Q256 829 290 797T324 704Q324 658 301 626T235 566L180 531Q103 483 93 436H323V397H39Q40 450 65 487T156 565L209 599Q277 642 277 708Q277 746 253 767T191 789Q144 789 120 759T95 676H48Q48 751 86 790T191 829Z"  />
<glyph unicode="&#xB3;" horiz-adv-x="370" d="M190 829Q246 829 281 801T318 718Q317 646 241 623Q286 617 310 590T335 520Q335 482 317 452T264 405T184 388Q114 388 75 423T35 520Q35 526 36 535H83V531Q83 481 110 454T183 427Q227 427 257 450T288 517Q288 556 259 578T177 601H153V640H178Q217 640 244 660T271 714Q271 752 249 771T188 790Q141 790 117 761T93 687H46Q47 753 85 790T190 829Z"  />
<glyph unicode="&#xB4;" horiz-adv-x="185" d="M216 730L84 589H33L138 730H216Z"  />
<glyph unicode="&#xB5;" horiz-adv-x="537" d="M122 516V190Q122 116 152 77T259 38Q330 38 372 94T415 249V516H478V0H420V93H418Q394 42 346 14T240 -15Q169 -15 122 20V-191H59V516H122Z"  />
<glyph unicode="&#xB6;" horiz-adv-x="600" d="M519 -177H456V661H336V-177H273V328Q186 328 126 384T66 519Q66 613 123 663T287 714H519V-177Z"  />
<glyph unicode="&#xB7;" horiz-adv-x="278" d="M139 375Q162 375 180 358T198 315Q198 292 181 275T139 257Q113 257 97 275T80 317Q80 340 98 357T139 375Z"  />
<glyph unicode="&#xB8;" horiz-adv-x="185" d="M91 0H126L82 -54Q94 -50 116 -50Q149 -50 173 -67T198 -117Q198 -156 167 -179T88 -203Q36 -203 -6 -182L8 -150Q39 -164 86 -164Q140 -164 140 -121Q140 -104 128 -94T97 -83Q62 -83 46 -91L30 -76L91 0Z"  />
<glyph unicode="&#xB9;" horiz-adv-x="370" d="M230 820V397H183V709H67V744L101 746Q149 748 167 761T191 820H230Z"  />
<glyph unicode="&#xBA;" horiz-adv-x="334" d="M162 706Q240 706 285 660T331 537Q331 460 287 414T162 368Q88 368 46 415T3 537Q3 612 45 659T162 706ZM50 537Q50 483 82 445T167 407Q218 407 251 444T284 537Q284 592 252 629T166 667Q115 667 83 630T50 537Z"  />
<glyph unicode="&#xBB;" horiz-adv-x="426" d="M205 306V244L72 119V186L166 275L72 364V431L205 306ZM366 306V244L233 119V186L327 275L233 364V431L366 306Z"  />
<glyph unicode="&#xBC;" horiz-adv-x="834" d="M216 697V274H169V586H53V621L87 623Q135 625 153 638T177 697H216ZM586 725H633L181 -34H133L586 725ZM645 423H689V139H757V100H689V0H642V100H432V139L645 423ZM478 139H642V356L478 139Z"  />
<glyph unicode="&#xBD;" horiz-adv-x="834" d="M216 697V274H169V586H53V621L87 623Q135 625 153 638T177 697H216ZM586 725H633L181 -34H133L586 725ZM642 432Q707 432 741 400T775 307Q775 261 752 229T686 169L631 134Q554 86 544 39H774V0H490Q491 53 516 90T607 168L660 202Q728 245 728 311Q728 349 704 370T642 392Q595 392 571 362T546 279H499Q499 354 537 393T642 432Z"  />
<glyph unicode="&#xBE;" horiz-adv-x="834" d="M227 706Q283 706 318 678T355 595Q354 523 278 500Q323 494 347 467T372 397Q372 359 354 329T301 282T221 265Q151 265 112 300T72 397Q72 403 73 412H120V408Q120 358 147 331T220 304Q264 304 294 327T325 394Q325 433 296 455T214 478H190V517H215Q254 517 281 537T308 591Q308 629 286 648T225 667Q178 667 154 638T130 564H83Q84 630 122 667T227 706ZM661 725H708L256 -34H208L661 725ZM665 423H709V139H777V100H709V0H662V100H452V139L665 423ZM498 139H662V356L498 139Z"  />
<glyph unicode="&#xBF;" horiz-adv-x="537" d="M307 516V410H223V516H307ZM297 344V327Q297 256 276 218Q257 179 193 121Q117 55 117 -18Q117 -75 158 -114T260 -153Q337 -153 379 -105T421 20V29H484Q484 -83 423 -144T257 -206Q169 -206 112 -154T54 -21Q54 24 73 64T152 160Q199 204 212 223T230 272T234 344H297Z"  />
<glyph unicode="&#xC0;" horiz-adv-x="630" d="M357 714L637 0H564L477 222H152L66 0H-7L281 714H357ZM173 280H454L316 646L173 280ZM253 920L358 779H307L175 920H253Z"  />
<glyph unicode="&#xC1;" horiz-adv-x="630" d="M357 714L637 0H564L477 222H152L66 0H-7L281 714H357ZM173 280H454L316 646L173 280ZM463 920L331 779H280L385 920H463Z"  />
<glyph unicode="&#xC2;" horiz-adv-x="630" d="M357 714L637 0H564L477 222H152L66 0H-7L281 714H357ZM173 280H454L316 646L173 280ZM352 920L466 779H401L315 881L227 779H169L283 920H352Z"  />
<glyph unicode="&#xC3;" horiz-adv-x="630" d="M357 714L637 0H564L477 222H152L66 0H-7L281 714H357ZM173 280H454L316 646L173 280ZM474 900Q465 852 441 829T387 805Q355 805 312 828Q270 851 249 851Q211 851 199 800H160Q165 843 189 869T249 896Q282 896 324 874Q365 852 384 852Q404 852 416 863T436 900H474Z"  />
<glyph unicode="&#xC4;" horiz-adv-x="630" d="M357 714L637 0H564L477 222H152L66 0H-7L281 714H357ZM173 280H454L316 646L173 280ZM261 901V800H193V901H261ZM438 901V800H370V901H438Z"  />
<glyph unicode="&#xC5;" horiz-adv-x="630" d="M357 714L637 0H564L477 222H152L66 0H-7L281 714H357ZM173 280H454L316 646L173 280ZM318 967Q363 967 394 936T425 860Q425 817 395 785T318 753Q274 753 243 785T211 860Q211 903 241 935T318 967ZM250 860Q250 831 269 812T318 792Q348 792 367 811T386 860Q386 888 368 908T317 928Q290 928 270 910T250 860Z"  />
<glyph unicode="&#xC6;" horiz-adv-x="907" d="M880 714V656H513V398H857V340H513V58H884V0H445V226H186L70 0H-7L367 714H880ZM216 284H445V656H405L216 284Z"  />
<glyph unicode="&#xC7;" horiz-adv-x="704" d="M375 729Q485 729 567 666T662 498H594Q577 576 518 623T375 671Q251 671 179 584T106 357Q106 216 179 130T375 43Q466 43 528 104T604 272H672Q656 135 577 60T374 -15L342 -54Q354 -50 377 -50Q412 -50 435 -69T458 -117Q458 -156 427 -179T348 -203Q294 -203 254 -182L268 -150Q299 -164 347 -164Q372 -164 386 -153T400 -121Q400 -104 388 -94T356 -83Q324 -83 306 -91L290 -76L340 -13Q203 -3 121 99T38 357Q38 464 79 549T197 682T375 729Z"  />
<glyph unicode="&#xC8;" horiz-adv-x="593" d="M565 714V656H140V398H538V340H140V58H570V0H72V714H565ZM252 920L357 779H306L174 920H252Z"  />
<glyph unicode="&#xC9;" horiz-adv-x="593" d="M565 714V656H140V398H538V340H140V58H570V0H72V714H565ZM462 920L330 779H279L384 920H462Z"  />
<glyph unicode="&#xCA;" horiz-adv-x="593" d="M565 714V656H140V398H538V340H140V58H570V0H72V714H565ZM351 920L465 779H400L314 881L226 779H168L282 920H351Z"  />
<glyph unicode="&#xCB;" horiz-adv-x="593" d="M565 714V656H140V398H538V340H140V58H570V0H72V714H565ZM260 901V800H192V901H260ZM437 901V800H369V901H437Z"  />
<glyph unicode="&#xCC;" horiz-adv-x="222" d="M145 714V0H77V714H145ZM48 920L153 779H102L-30 920H48Z"  />
<glyph unicode="&#xCD;" horiz-adv-x="222" d="M145 714V0H77V714H145ZM258 920L126 779H75L180 920H258Z"  />
<glyph unicode="&#xCE;" horiz-adv-x="222" d="M145 714V0H77V714H145ZM147 920L261 779H196L110 881L22 779H-36L78 920H147Z"  />
<glyph unicode="&#xCF;" horiz-adv-x="222" d="M145 714V0H77V714H145ZM56 901V800H-12V901H56ZM233 901V800H165V901H233Z"  />
<glyph unicode="&#xD0;" horiz-adv-x="685" d="M304 714Q647 714 647 357Q647 0 306 0H72V348H0V393H72V714H304ZM376 393V348H140V58H284Q441 58 510 129T579 357Q579 517 509 586T285 656H140V393H376Z"  />
<glyph unicode="&#xD1;" horiz-adv-x="704" d="M147 714L563 110H565V714H633V0H557L141 604H139V0H71V714H147ZM519 900Q510 852 486 829T432 805Q400 805 357 828Q315 851 294 851Q256 851 244 800H205Q210 843 234 869T294 896Q327 896 369 874Q410 852 429 852Q449 852 461 863T481 900H519Z"  />
<glyph unicode="&#xD2;" horiz-adv-x="741" d="M371 729Q471 729 547 682T665 549T707 357Q707 191 615 88T371 -15Q216 -15 125 89T34 357Q34 524 126 626T371 729ZM102 357Q102 216 175 130T371 43Q492 43 565 129T639 357Q639 498 566 584T370 671Q247 671 175 584T102 357ZM308 920L413 779H362L230 920H308Z"  />
<glyph unicode="&#xD3;" horiz-adv-x="741" d="M371 729Q471 729 547 682T665 549T707 357Q707 191 615 88T371 -15Q216 -15 125 89T34 357Q34 524 126 626T371 729ZM102 357Q102 216 175 130T371 43Q492 43 565 129T639 357Q639 498 566 584T370 671Q247 671 175 584T102 357ZM518 920L386 779H335L440 920H518Z"  />
<glyph unicode="&#xD4;" horiz-adv-x="741" d="M371 729Q471 729 547 682T665 549T707 357Q707 191 615 88T371 -15Q216 -15 125 89T34 357Q34 524 126 626T371 729ZM102 357Q102 216 175 130T371 43Q492 43 565 129T639 357Q639 498 566 584T370 671Q247 671 175 584T102 357ZM407 920L521 779H456L370 881L282 779H224L338 920H407Z"  />
<glyph unicode="&#xD5;" horiz-adv-x="741" d="M371 729Q471 729 547 682T665 549T707 357Q707 191 615 88T371 -15Q216 -15 125 89T34 357Q34 524 126 626T371 729ZM102 357Q102 216 175 130T371 43Q492 43 565 129T639 357Q639 498 566 584T370 671Q247 671 175 584T102 357ZM529 900Q520 852 496 829T442 805Q410 805 367 828Q325 851 304 851Q266 851 254 800H215Q220 843 244 869T304 896Q337 896 379 874Q420 852 439 852Q459 852 471 863T491 900H529Z"  />
<glyph unicode="&#xD6;" horiz-adv-x="741" d="M371 729Q471 729 547 682T665 549T707 357Q707 191 615 88T371 -15Q216 -15 125 89T34 357Q34 524 126 626T371 729ZM102 357Q102 216 175 130T371 43Q492 43 565 129T639 357Q639 498 566 584T370 671Q247 671 175 584T102 357ZM316 901V800H248V901H316ZM493 901V800H425V901H493Z"  />
<glyph unicode="&#xD7;" horiz-adv-x="600" d="M111 477L300 288L489 477L526 440L337 251L526 62L489 25L300 213L111 25L74 62L262 251L74 440L111 477Z"  />
<glyph unicode="&#xD8;" horiz-adv-x="741" d="M371 729Q511 729 601 641L672 719L698 696L625 615Q707 517 707 357Q707 191 615 88T371 -15Q229 -15 140 74L64 -12L37 13L116 101Q34 203 34 357Q34 524 126 626T371 729ZM102 357Q102 232 160 150L558 593Q486 671 370 671Q246 671 174 583T102 357ZM183 122Q252 43 371 43Q495 43 567 129T639 357Q639 482 580 565L183 122Z"  />
<glyph unicode="&#xD9;" horiz-adv-x="685" d="M133 714V271Q133 154 185 99T342 43Q451 43 501 99T552 272V714H620V259Q620 127 547 56T342 -15Q210 -15 138 57T65 259V714H133ZM278 920L383 779H332L200 920H278Z"  />
<glyph unicode="&#xDA;" horiz-adv-x="685" d="M133 714V271Q133 154 185 99T342 43Q451 43 501 99T552 272V714H620V259Q620 127 547 56T342 -15Q210 -15 138 57T65 259V714H133ZM488 920L356 779H305L410 920H488Z"  />
<glyph unicode="&#xDB;" horiz-adv-x="685" d="M133 714V271Q133 154 185 99T342 43Q451 43 501 99T552 272V714H620V259Q620 127 547 56T342 -15Q210 -15 138 57T65 259V714H133ZM377 920L491 779H426L340 881L252 779H194L308 920H377Z"  />
<glyph unicode="&#xDC;" horiz-adv-x="685" d="M133 714V271Q133 154 185 99T342 43Q451 43 501 99T552 272V714H620V259Q620 127 547 56T342 -15Q210 -15 138 57T65 259V714H133ZM286 901V800H218V901H286ZM463 901V800H395V901H463Z"  />
<glyph unicode="&#xDD;" horiz-adv-x="611" d="M71 714L306 352L540 714H621L339 294V0H271V294L-10 714H71ZM454 920L322 779H271L376 920H454Z"  />
<glyph unicode="&#xDE;" horiz-adv-x="630" d="M140 714V597H387Q487 597 544 544T601 393Q601 297 544 243T389 189H140V0H72V714H140ZM375 247Q444 247 488 282T533 393Q533 462 493 500T372 539H140V247H375Z"  />
<glyph unicode="&#xDF;" horiz-adv-x="537" d="M260 729Q347 729 401 681T456 553Q456 496 426 456T343 403V401Q411 395 451 344T492 215Q492 147 465 97T385 20T261 -8Q230 -8 220 -6V49Q241 45 267 45Q341 45 384 86T429 203Q429 266 408 301T343 352T226 368H220V421Q391 421 393 551Q393 605 357 639T261 676Q190 676 157 641T124 531V0H61V536Q61 628 113 678T260 729Z"  />
<glyph unicode="&#xE0;" horiz-adv-x="519" d="M264 531Q453 531 453 365V91Q453 53 490 53Q502 53 510 57V4Q492 0 470 0Q426 0 411 22T395 87V90H393Q357 33 314 9T205 -15Q124 -15 79 25T32 136Q32 187 55 219T125 269T283 299Q342 305 358 312T382 333T390 372Q390 428 356 453T255 478Q124 477 117 358H54Q59 444 113 487T264 531ZM388 282Q378 264 323 257L260 248Q167 235 131 210T95 140Q95 98 127 69T210 38Q287 38 338 83T390 199V282H388ZM195 730L300 589H249L117 730H195Z"  />
<glyph unicode="&#xE1;" horiz-adv-x="519" d="M264 531Q453 531 453 365V91Q453 53 490 53Q502 53 510 57V4Q492 0 470 0Q426 0 411 22T395 87V90H393Q357 33 314 9T205 -15Q124 -15 79 25T32 136Q32 187 55 219T125 269T283 299Q342 305 358 312T382 333T390 372Q390 428 356 453T255 478Q124 477 117 358H54Q59 444 113 487T264 531ZM388 282Q378 264 323 257L260 248Q167 235 131 210T95 140Q95 98 127 69T210 38Q287 38 338 83T390 199V282H388ZM405 730L273 589H222L327 730H405Z"  />
<glyph unicode="&#xE2;" horiz-adv-x="519" d="M264 531Q453 531 453 365V91Q453 53 490 53Q502 53 510 57V4Q492 0 470 0Q426 0 411 22T395 87V90H393Q357 33 314 9T205 -15Q124 -15 79 25T32 136Q32 187 55 219T125 269T283 299Q342 305 358 312T382 333T390 372Q390 428 356 453T255 478Q124 477 117 358H54Q59 444 113 487T264 531ZM388 282Q378 264 323 257L260 248Q167 235 131 210T95 140Q95 98 127 69T210 38Q287 38 338 83T390 199V282H388ZM294 730L408 589H343L257 691L169 589H111L225 730H294Z"  />
<glyph unicode="&#xE3;" horiz-adv-x="519" d="M264 531Q453 531 453 365V91Q453 53 490 53Q502 53 510 57V4Q492 0 470 0Q426 0 411 22T395 87V90H393Q357 33 314 9T205 -15Q124 -15 79 25T32 136Q32 187 55 219T125 269T283 299Q342 305 358 312T382 333T390 372Q390 428 356 453T255 478Q124 477 117 358H54Q59 444 113 487T264 531ZM388 282Q378 264 323 257L260 248Q167 235 131 210T95 140Q95 98 127 69T210 38Q287 38 338 83T390 199V282H388ZM102 610Q108 655 133 680T191 706Q216 706 241 695T288 673T326 662Q344 662 357 672T378 710H416Q408 665 385 640T329 615Q301 615 271 630T223 653T191 661Q174 661 162 652T141 610H102Z"  />
<glyph unicode="&#xE4;" horiz-adv-x="519" d="M264 531Q453 531 453 365V91Q453 53 490 53Q502 53 510 57V4Q492 0 470 0Q426 0 411 22T395 87V90H393Q357 33 314 9T205 -15Q124 -15 79 25T32 136Q32 187 55 219T125 269T283 299Q342 305 358 312T382 333T390 372Q390 428 356 453T255 478Q124 477 117 358H54Q59 444 113 487T264 531ZM388 282Q378 264 323 257L260 248Q167 235 131 210T95 140Q95 98 127 69T210 38Q287 38 338 83T390 199V282H388ZM203 711V610H135V711H203ZM380 711V610H312V711H380Z"  />
<glyph unicode="&#xE5;" horiz-adv-x="519" d="M264 531Q453 531 453 365V91Q453 53 490 53Q502 53 510 57V4Q492 0 470 0Q426 0 411 22T395 87V90H393Q357 33 314 9T205 -15Q124 -15 79 25T32 136Q32 187 55 219T125 269T283 299Q342 305 358 312T382 333T390 372Q390 428 356 453T255 478Q124 477 117 358H54Q59 444 113 487T264 531ZM388 282Q378 264 323 257L260 248Q167 235 131 210T95 140Q95 98 127 69T210 38Q287 38 338 83T390 199V282H388ZM257 787Q301 787 332 755T364 680Q364 637 334 605T257 573Q213 573 182 604T150 680Q150 723 180 755T257 787ZM189 680Q189 651 208 632T257 612Q286 612 305 631T325 680Q325 707 307 727T256 748Q229 748 209 730T189 680Z"  />
<glyph unicode="&#xE6;" horiz-adv-x="870" d="M263 531Q418 531 435 424H437Q456 473 506 502T619 531Q728 531 784 456T841 241H453V220Q453 136 498 87T621 38Q743 38 774 167H837Q817 78 759 32T612 -15Q469 -15 423 115H421Q411 58 348 22T205 -15Q129 -15 81 23T32 136Q32 188 56 221T131 271T310 302Q360 308 375 323T390 371Q390 425 359 451T255 478Q190 478 155 448T117 358H54Q59 443 112 487T263 531ZM778 294Q778 370 732 424T614 478Q542 478 498 427T453 300V294H778ZM388 282Q379 267 335 259L280 250Q170 235 133 211T95 140Q95 96 128 67T210 38Q288 38 339 83T390 198V282H388Z"  />
<glyph unicode="&#xE7;" horiz-adv-x="519" d="M278 531Q369 531 423 484T487 354H424Q397 478 278 478Q198 478 148 415T97 258Q97 166 146 102T278 38Q336 38 379 80T428 185H491Q478 91 423 39T283 -15L251 -54Q263 -50 285 -50Q315 -50 341 -66T367 -117Q367 -156 336 -179T257 -203Q203 -203 163 -182L177 -150Q185 -154 208 -159T255 -164Q309 -164 309 -121Q309 -103 296 -93T265 -83Q231 -83 215 -91L199 -76L249 -13Q154 -4 94 69T34 258Q34 376 101 453T278 531Z"  />
<glyph unicode="&#xE8;" horiz-adv-x="519" d="M267 531Q371 531 432 457T494 256V241H97Q97 153 143 96T267 38Q395 38 429 170H492Q470 75 415 30T267 -15Q159 -15 97 58T34 258Q34 380 97 455T267 531ZM431 294Q429 371 384 424T266 478Q198 478 153 429T97 294H431ZM204 730L309 589H258L126 730H204Z"  />
<glyph unicode="&#xE9;" horiz-adv-x="519" d="M267 531Q371 531 432 457T494 256V241H97Q97 153 143 96T267 38Q395 38 429 170H492Q470 75 415 30T267 -15Q159 -15 97 58T34 258Q34 380 97 455T267 531ZM431 294Q429 371 384 424T266 478Q198 478 153 429T97 294H431ZM414 730L282 589H231L336 730H414Z"  />
<glyph unicode="&#xEA;" horiz-adv-x="519" d="M267 531Q371 531 432 457T494 256V241H97Q97 153 143 96T267 38Q395 38 429 170H492Q470 75 415 30T267 -15Q159 -15 97 58T34 258Q34 380 97 455T267 531ZM431 294Q429 371 384 424T266 478Q198 478 153 429T97 294H431ZM303 730L417 589H352L266 691L178 589H120L234 730H303Z"  />
<glyph unicode="&#xEB;" horiz-adv-x="519" d="M267 531Q371 531 432 457T494 256V241H97Q97 153 143 96T267 38Q395 38 429 170H492Q470 75 415 30T267 -15Q159 -15 97 58T34 258Q34 380 97 455T267 531ZM431 294Q429 371 384 424T266 478Q198 478 153 429T97 294H431ZM212 711V610H144V711H212ZM389 711V610H321V711H389Z"  />
<glyph unicode="&#xEC;" horiz-adv-x="185" d="M124 516V0H61V516H124ZM29 730L134 589H83L-49 730H29Z"  />
<glyph unicode="&#xED;" horiz-adv-x="185" d="M124 516V0H61V516H124ZM239 730L107 589H56L161 730H239Z"  />
<glyph unicode="&#xEE;" horiz-adv-x="185" d="M124 516V0H61V516H124ZM128 730L242 589H177L91 691L3 589H-55L59 730H128Z"  />
<glyph unicode="&#xEF;" horiz-adv-x="185" d="M124 516V0H61V516H124ZM38 711V610H-30V711H38ZM215 711V610H147V711H215Z"  />
<glyph unicode="&#xF0;" horiz-adv-x="556" d="M178 742Q244 705 282 678L396 742L429 710L320 649Q516 491 516 258Q516 132 451 59T271 -15Q161 -15 98 55T34 249Q34 361 99 433T271 506Q368 506 404 466H406Q361 553 273 623L168 564L135 596L235 652Q170 694 142 707L178 742ZM97 248Q97 151 144 95T274 38Q358 38 405 95T453 250Q453 344 405 398T275 453Q189 453 143 397T97 248Z"  />
<glyph unicode="&#xF1;" horiz-adv-x="537" d="M290 531Q390 531 434 483T478 335V0H415V323Q415 478 284 478Q211 478 167 428T122 296V0H59V516H122V427H124Q142 474 187 502T290 531ZM112 610Q118 655 143 680T201 706Q226 706 251 695T298 673T336 662Q354 662 367 672T388 710H426Q418 665 395 640T339 615Q311 615 281 630T233 653T201 661Q184 661 172 652T151 610H112Z"  />
<glyph unicode="&#xF2;" horiz-adv-x="556" d="M278 531Q387 531 454 456T522 258Q522 139 456 62T278 -15Q167 -15 101 62T34 258Q34 377 100 454T278 531ZM97 258Q97 163 148 101T278 38Q357 38 408 100T459 258Q459 350 410 414T277 478Q196 478 147 415T97 258ZM216 730L321 589H270L138 730H216Z"  />
<glyph unicode="&#xF3;" horiz-adv-x="556" d="M278 531Q387 531 454 456T522 258Q522 139 456 62T278 -15Q167 -15 101 62T34 258Q34 377 100 454T278 531ZM97 258Q97 163 148 101T278 38Q357 38 408 100T459 258Q459 350 410 414T277 478Q196 478 147 415T97 258ZM426 730L294 589H243L348 730H426Z"  />
<glyph unicode="&#xF4;" horiz-adv-x="556" d="M278 531Q387 531 454 456T522 258Q522 139 456 62T278 -15Q167 -15 101 62T34 258Q34 377 100 454T278 531ZM97 258Q97 163 148 101T278 38Q357 38 408 100T459 258Q459 350 410 414T277 478Q196 478 147 415T97 258ZM315 730L429 589H364L278 691L190 589H132L246 730H315Z"  />
<glyph unicode="&#xF5;" horiz-adv-x="556" d="M278 531Q387 531 454 456T522 258Q522 139 456 62T278 -15Q167 -15 101 62T34 258Q34 377 100 454T278 531ZM97 258Q97 163 148 101T278 38Q357 38 408 100T459 258Q459 350 410 414T277 478Q196 478 147 415T97 258ZM123 610Q129 655 154 680T212 706Q237 706 262 695T309 673T347 662Q365 662 378 672T399 710H437Q429 665 406 640T350 615Q322 615 292 630T244 653T212 661Q195 661 183 652T162 610H123Z"  />
<glyph unicode="&#xF6;" horiz-adv-x="556" d="M278 531Q387 531 454 456T522 258Q522 139 456 62T278 -15Q167 -15 101 62T34 258Q34 377 100 454T278 531ZM97 258Q97 163 148 101T278 38Q357 38 408 100T459 258Q459 350 410 414T277 478Q196 478 147 415T97 258ZM224 711V610H156V711H224ZM401 711V610H333V711H401Z"  />
<glyph unicode="&#xF7;" horiz-adv-x="600" d="M300 509Q323 509 339 493T356 453Q356 431 339 414T301 397Q278 397 261 413T244 453Q244 476 260 492T300 509ZM552 278V225H49V278H552ZM300 106Q323 106 339 90T356 50Q356 28 339 11T301 -6Q277 -6 261 10T244 50Q244 74 260 90T300 106Z"  />
<glyph unicode="&#xF8;" horiz-adv-x="556" d="M278 531Q384 531 448 463L500 519L522 499L468 440Q522 365 522 258Q522 139 455 62T278 -15Q173 -15 110 53L51 -11L29 9L90 76Q34 149 34 258Q34 379 101 455T278 531ZM97 258Q97 181 133 123L406 418Q358 478 277 478Q195 478 146 414T97 258ZM151 97Q199 38 278 38Q359 38 409 101T459 258Q459 334 424 392L151 97Z"  />
<glyph unicode="&#xF9;" horiz-adv-x="537" d="M122 516V193Q122 108 155 73T259 38Q328 38 371 93T415 246V516H478V0H420V93H418Q393 42 347 14T240 -15Q59 -15 59 181V516H122ZM205 730L310 589H259L127 730H205Z"  />
<glyph unicode="&#xFA;" horiz-adv-x="537" d="M122 516V193Q122 108 155 73T259 38Q328 38 371 93T415 246V516H478V0H420V93H418Q393 42 347 14T240 -15Q59 -15 59 181V516H122ZM415 730L283 589H232L337 730H415Z"  />
<glyph unicode="&#xFB;" horiz-adv-x="537" d="M122 516V193Q122 108 155 73T259 38Q328 38 371 93T415 246V516H478V0H420V93H418Q393 42 347 14T240 -15Q59 -15 59 181V516H122ZM304 730L418 589H353L267 691L179 589H121L235 730H304Z"  />
<glyph unicode="&#xFC;" horiz-adv-x="537" d="M122 516V193Q122 108 155 73T259 38Q328 38 371 93T415 246V516H478V0H420V93H418Q393 42 347 14T240 -15Q59 -15 59 181V516H122ZM213 711V610H145V711H213ZM390 711V610H322V711H390Z"  />
<glyph unicode="&#xFD;" horiz-adv-x="463" d="M69 516L239 76L398 516H461L237 -79Q211 -147 183 -169T104 -191Q68 -191 53 -186V-133Q73 -138 96 -138Q122 -138 138 -128T166 -99T208 2L2 516H69ZM384 730L252 589H201L306 730H384Z"  />
<glyph unicode="&#xFE;" horiz-adv-x="574" d="M123 714V418H125Q143 471 194 501T305 531Q412 531 474 456T536 258Q536 133 473 59T305 -15Q243 -15 194 14T125 98H123V-191H60V714H123ZM123 258Q123 158 171 98T304 38Q383 38 428 99T473 258Q473 355 428 416T303 478Q219 478 171 418T123 258Z"  />
<glyph unicode="&#xFF;" horiz-adv-x="463" d="M69 516L239 76L398 516H461L237 -79Q211 -147 183 -169T104 -191Q68 -191 53 -186V-133Q73 -138 96 -138Q122 -138 138 -128T166 -99T208 2L2 516H69ZM182 711V610H114V711H182ZM359 711V610H291V711H359Z"  />
<glyph unicode="&#x100;" horiz-adv-x="630" d="M357 714L637 0H564L477 222H152L66 0H-7L281 714H357ZM173 280H454L316 646L173 280ZM482 873V828H153V873H482Z"  />
<glyph unicode="&#x101;" horiz-adv-x="519" d="M264 531Q453 531 453 365V91Q453 53 490 53Q502 53 510 57V4Q492 0 470 0Q426 0 411 22T395 87V90H393Q357 33 314 9T205 -15Q124 -15 79 25T32 136Q32 187 55 219T125 269T283 299Q342 305 358 312T382 333T390 372Q390 428 356 453T255 478Q124 477 117 358H54Q59 444 113 487T264 531ZM388 282Q378 264 323 257L260 248Q167 235 131 210T95 140Q95 98 127 69T210 38Q287 38 338 83T390 199V282H388ZM424 683V638H95V683H424Z"  />
<glyph unicode="&#x102;" horiz-adv-x="630" d="M357 714L637 0H564L477 222H152L66 0H-7L281 714H357ZM173 280H454L316 646L173 280ZM213 914Q215 878 244 855T316 832Q356 832 386 854T422 914H461Q453 855 415 822T316 787Q254 787 217 820T174 914H213Z"  />
<glyph unicode="&#x103;" horiz-adv-x="519" d="M264 531Q453 531 453 365V91Q453 53 490 53Q502 53 510 57V4Q492 0 470 0Q426 0 411 22T395 87V90H393Q357 33 314 9T205 -15Q124 -15 79 25T32 136Q32 187 55 219T125 269T283 299Q342 305 358 312T382 333T390 372Q390 428 356 453T255 478Q124 477 117 358H54Q59 444 113 487T264 531ZM388 282Q378 264 323 257L260 248Q167 235 131 210T95 140Q95 98 127 69T210 38Q287 38 338 83T390 199V282H388ZM155 724Q157 687 187 665T258 642Q298 642 328 664T364 724H403Q395 665 357 631T258 597Q197 597 160 630T116 724H155Z"  />
<glyph unicode="&#x104;" horiz-adv-x="630" d="M357 714L637 0H602Q548 -45 534 -68T520 -116Q520 -142 534 -153T564 -164Q597 -164 619 -123L648 -136Q632 -171 610 -187T550 -203Q506 -203 483 -181T459 -121Q459 -89 486 -60T564 0L477 222H152L66 0H-7L281 714H357ZM173 280H454L316 646L173 280Z"  />
<glyph unicode="&#x105;" horiz-adv-x="519" d="M264 531Q453 531 453 365V92Q453 53 490 53Q502 53 510 57V4Q486 0 465 0Q419 -38 401 -62T383 -117Q383 -139 395 -151T427 -164Q459 -164 482 -123L511 -136Q496 -169 474 -186T413 -203Q368 -203 345 -180T322 -121Q322 -92 346 -63T435 5Q395 18 395 86V90H393Q354 31 313 8T206 -15Q126 -15 79 24T32 136Q32 187 55 218T122 268T292 300Q352 307 364 314T383 336T390 372Q390 426 358 452T255 478Q190 478 155 448T117 358H54Q64 531 264 531ZM388 282Q379 267 335 259L279 250Q172 236 134 211T95 140Q95 95 128 67T210 38Q289 38 339 83T390 200V282H388Z"  />
<glyph unicode="&#x106;" horiz-adv-x="704" d="M375 729Q488 729 568 664T662 498H594Q577 576 518 623T375 671Q251 671 179 585T106 357Q106 216 178 130T375 43Q469 43 531 106T604 272H672Q658 140 579 63T375 -15Q222 -15 130 88T38 357Q38 524 130 626T375 729ZM520 920L388 779H337L442 920H520Z"  />
<glyph unicode="&#x107;" horiz-adv-x="519" d="M278 531Q370 531 423 484T487 354H424Q397 478 278 478Q197 478 147 415T97 258Q97 162 148 100T278 38Q336 38 379 79T428 185H491Q478 90 422 38T278 -15Q167 -15 101 62T34 258Q34 377 100 454T278 531ZM423 730L291 589H240L345 730H423Z"  />
<glyph unicode="&#x108;" horiz-adv-x="704" d="M375 729Q488 729 568 664T662 498H594Q577 576 518 623T375 671Q251 671 179 585T106 357Q106 216 178 130T375 43Q469 43 531 106T604 272H672Q658 140 579 63T375 -15Q222 -15 130 88T38 357Q38 524 130 626T375 729ZM409 920L523 779H458L372 881L284 779H226L340 920H409Z"  />
<glyph unicode="&#x109;" horiz-adv-x="519" d="M278 531Q370 531 423 484T487 354H424Q397 478 278 478Q197 478 147 415T97 258Q97 162 148 100T278 38Q336 38 379 79T428 185H491Q478 90 422 38T278 -15Q167 -15 101 62T34 258Q34 377 100 454T278 531ZM312 730L426 589H361L275 691L187 589H129L243 730H312Z"  />
<glyph unicode="&#x10A;" horiz-adv-x="704" d="M375 729Q488 729 568 664T662 498H594Q577 576 518 623T375 671Q251 671 179 585T106 357Q106 216 178 130T375 43Q469 43 531 106T604 272H672Q658 140 579 63T375 -15Q222 -15 130 88T38 357Q38 524 130 626T375 729ZM408 901V800H340V901H408Z"  />
<glyph unicode="&#x10B;" horiz-adv-x="519" d="M278 531Q370 531 423 484T487 354H424Q397 478 278 478Q197 478 147 415T97 258Q97 162 148 100T278 38Q336 38 379 79T428 185H491Q478 90 422 38T278 -15Q167 -15 101 62T34 258Q34 377 100 454T278 531ZM310 711V610H242V711H310Z"  />
<glyph unicode="&#x10C;" horiz-adv-x="704" d="M375 729Q488 729 568 664T662 498H594Q577 576 518 623T375 671Q251 671 179 585T106 357Q106 216 178 130T375 43Q469 43 531 106T604 272H672Q658 140 579 63T375 -15Q222 -15 130 88T38 357Q38 524 130 626T375 729ZM289 920L375 818L463 920H521L407 779H338L224 920H289Z"  />
<glyph unicode="&#x10D;" horiz-adv-x="519" d="M278 531Q370 531 423 484T487 354H424Q397 478 278 478Q197 478 147 415T97 258Q97 162 148 100T278 38Q336 38 379 79T428 185H491Q478 90 422 38T278 -15Q167 -15 101 62T34 258Q34 377 100 454T278 531ZM195 730L281 628L369 730H427L313 589H244L130 730H195Z"  />
<glyph unicode="&#x10E;" horiz-adv-x="685" d="M307 714Q647 714 647 357Q647 0 306 0H72V714H307ZM284 58Q442 58 510 129T579 357Q579 517 510 586T282 656H140V58H284ZM221 920L307 818L395 920H453L339 779H270L156 920H221Z"  />
<glyph unicode="&#x10F;" horiz-adv-x="574" d="M514 714V0H456V98H454Q434 49 383 17T270 -15Q164 -15 101 58T38 258Q38 381 100 456T270 531Q333 531 383 499T449 418H451V714H514ZM101 258Q101 161 146 100T270 38Q352 38 401 96T451 258Q451 360 403 419T270 478Q192 478 147 418T101 258ZM697 714L611 573H564L619 714H697Z"  />
<glyph unicode="&#x110;" horiz-adv-x="685" d="M304 714Q647 714 647 357Q647 0 306 0H72V348H0V393H72V714H304ZM376 393V348H140V58H284Q441 58 510 129T579 357Q579 517 509 586T285 656H140V393H376Z"  />
<glyph unicode="&#x111;" horiz-adv-x="598" d="M514 714V629H598V584H514V0H456V98H454Q432 47 380 16T270 -15Q162 -15 100 60T38 258Q38 381 100 456T270 531Q330 531 379 502T449 418H451V584H278V629H451V714H514ZM101 258Q101 161 146 100T270 38Q352 38 401 96T451 258Q451 360 403 419T270 478Q192 478 147 416T101 258Z"  />
<glyph unicode="&#x112;" horiz-adv-x="593" d="M565 714V656H140V398H538V340H140V58H570V0H72V714H565ZM481 873V828H152V873H481Z"  />
<glyph unicode="&#x113;" horiz-adv-x="519" d="M267 531Q371 531 432 457T494 256V241H97Q97 153 143 96T267 38Q395 38 429 170H492Q470 75 415 30T267 -15Q159 -15 97 58T34 258Q34 380 97 455T267 531ZM431 294Q429 371 384 424T266 478Q198 478 153 429T97 294H431ZM433 683V638H104V683H433Z"  />
<glyph unicode="&#x114;" horiz-adv-x="593" d="M565 714V656H140V398H538V340H140V58H570V0H72V714H565ZM212 914Q214 878 243 855T315 832Q355 832 385 854T421 914H460Q452 855 414 822T315 787Q253 787 216 820T173 914H212Z"  />
<glyph unicode="&#x115;" horiz-adv-x="519" d="M267 531Q371 531 432 457T494 256V241H97Q97 153 143 96T267 38Q395 38 429 170H492Q470 75 415 30T267 -15Q159 -15 97 58T34 258Q34 380 97 455T267 531ZM431 294Q429 371 384 424T266 478Q198 478 153 429T97 294H431ZM164 724Q166 687 196 665T267 642Q307 642 337 664T373 724H412Q404 665 366 631T267 597Q206 597 169 630T125 724H164Z"  />
<glyph unicode="&#x116;" horiz-adv-x="593" d="M565 714V656H140V398H538V340H140V58H570V0H72V714H565ZM350 901V800H282V901H350Z"  />
<glyph unicode="&#x117;" horiz-adv-x="519" d="M267 531Q371 531 432 457T494 256V241H97Q97 153 143 96T267 38Q395 38 429 170H492Q470 75 415 30T267 -15Q159 -15 97 58T34 258Q34 380 97 455T267 531ZM431 294Q429 371 384 424T266 478Q198 478 153 429T97 294H431ZM301 711V610H233V711H301Z"  />
<glyph unicode="&#x118;" horiz-adv-x="593" d="M565 714V656H140V398H538V340H140V58H570V0H524Q482 -34 462 -59T442 -117Q442 -141 455 -152T486 -164Q519 -164 541 -123L570 -136Q554 -171 532 -187T472 -203Q426 -203 404 -180T381 -121Q381 -89 406 -62T486 0H72V714H565Z"  />
<glyph unicode="&#x119;" horiz-adv-x="519" d="M267 531Q371 531 432 457T494 257V241H97Q97 155 143 97T267 38Q395 38 429 170H492Q472 85 426 40T302 -13Q267 -43 252 -65T236 -117Q236 -143 250 -153T280 -164Q315 -164 335 -123L364 -136Q347 -173 324 -188T266 -203Q222 -203 199 -181T175 -121Q175 -91 196 -66T256 -15Q151 -11 93 62T34 258Q34 382 98 456T267 531ZM431 294Q429 375 382 426T266 478Q199 478 154 430T97 294H431Z"  />
<glyph unicode="&#x11A;" horiz-adv-x="593" d="M565 714V656H140V398H538V340H140V58H570V0H72V714H565ZM231 920L317 818L405 920H463L349 779H280L166 920H231Z"  />
<glyph unicode="&#x11B;" horiz-adv-x="519" d="M267 531Q371 531 432 457T494 256V241H97Q97 153 143 96T267 38Q395 38 429 170H492Q470 75 415 30T267 -15Q159 -15 97 58T34 258Q34 380 97 455T267 531ZM431 294Q429 371 384 424T266 478Q198 478 153 429T97 294H431ZM184 730L270 628L358 730H416L302 589H233L119 730H184Z"  />
<glyph unicode="&#x11C;" horiz-adv-x="741" d="M375 729Q494 729 573 667T673 492H605Q599 562 533 616T375 671Q292 671 232 632T139 520T106 357Q106 216 179 130T375 43Q488 43 555 112T622 299V305H379V363H682V0H633L624 130H622Q589 59 525 22T375 -15Q222 -15 130 88T38 357Q38 464 79 549T197 682T375 729ZM410 920L524 779H459L373 881L285 779H227L341 920H410Z"  />
<glyph unicode="&#x11D;" horiz-adv-x="556" d="M267 531Q322 531 366 502T431 427H433V516H496V40Q496 -83 441 -144T268 -206Q175 -206 117 -164T53 -50H116Q124 -99 164 -126T267 -153Q356 -153 394 -103T433 40V112H431Q408 61 365 34T267 6Q158 6 96 74T34 271Q34 384 97 457T267 531ZM97 264Q97 172 143 116T267 59Q339 59 386 116T433 264Q433 358 389 418T266 478Q188 478 143 419T97 264ZM311 730L425 589H360L274 691L186 589H128L242 730H311Z"  />
<glyph unicode="&#x11E;" horiz-adv-x="741" d="M375 729Q494 729 573 667T673 492H605Q599 562 533 616T375 671Q292 671 232 632T139 520T106 357Q106 216 179 130T375 43Q488 43 555 112T622 299V305H379V363H682V0H633L624 130H622Q589 59 525 22T375 -15Q222 -15 130 88T38 357Q38 464 79 549T197 682T375 729ZM271 914Q273 878 302 855T374 832Q414 832 444 854T480 914H519Q511 855 473 822T374 787Q312 787 275 820T232 914H271Z"  />
<glyph unicode="&#x11F;" horiz-adv-x="556" d="M267 531Q322 531 366 502T431 427H433V516H496V40Q496 -83 441 -144T268 -206Q175 -206 117 -164T53 -50H116Q124 -99 164 -126T267 -153Q356 -153 394 -103T433 40V112H431Q408 61 365 34T267 6Q158 6 96 74T34 271Q34 384 97 457T267 531ZM97 264Q97 172 143 116T267 59Q339 59 386 116T433 264Q433 358 389 418T266 478Q188 478 143 419T97 264ZM172 724Q174 687 204 665T275 642Q315 642 345 664T381 724H420Q412 665 374 631T275 597Q214 597 177 630T133 724H172Z"  />
<glyph unicode="&#x120;" horiz-adv-x="741" d="M375 729Q494 729 573 667T673 492H605Q599 562 533 616T375 671Q292 671 232 632T139 520T106 357Q106 216 179 130T375 43Q488 43 555 112T622 299V305H379V363H682V0H633L624 130H622Q589 59 525 22T375 -15Q222 -15 130 88T38 357Q38 464 79 549T197 682T375 729ZM408 901V800H340V901H408Z"  />
<glyph unicode="&#x121;" horiz-adv-x="556" d="M267 531Q322 531 366 502T431 427H433V516H496V40Q496 -83 441 -144T268 -206Q175 -206 117 -164T53 -50H116Q124 -99 164 -126T267 -153Q356 -153 394 -103T433 40V112H431Q408 61 365 34T267 6Q158 6 96 74T34 271Q34 384 97 457T267 531ZM97 264Q97 172 143 116T267 59Q339 59 386 116T433 264Q433 358 389 418T266 478Q188 478 143 419T97 264ZM310 711V610H242V711H310Z"  />
<glyph unicode="&#x122;" horiz-adv-x="741" d="M375 729Q494 729 573 667T673 492H605Q599 562 533 616T375 671Q292 671 232 632T139 520T106 357Q106 216 179 130T375 43Q488 43 555 112T622 299V305H379V363H682V0H633L624 130H622Q589 59 525 22T375 -15Q222 -15 130 88T38 357Q38 464 79 549T197 682T375 729ZM417 -50V-131Q417 -166 394 -184T331 -203V-175Q367 -169 370 -141H331V-50H417Z"  />
<glyph unicode="&#x123;" horiz-adv-x="556" d="M267 531Q322 531 366 502T431 427H433V516H496V40Q496 -83 441 -144T268 -206Q175 -206 117 -164T53 -50H116Q124 -99 164 -126T267 -153Q356 -153 394 -103T433 40V112H431Q408 61 365 34T267 6Q158 6 96 74T34 271Q34 384 97 457T267 531ZM97 264Q97 172 143 116T267 59Q339 59 386 116T433 264Q433 358 389 418T266 478Q188 478 143 419T97 264ZM318 748Q282 742 279 714H318V623H232V703Q232 772 318 776V748Z"  />
<glyph unicode="&#x124;" horiz-adv-x="704" d="M140 714V404H564V714H632V0H564V346H140V0H72V714H140ZM388 920L502 779H437L351 881L263 779H205L319 920H388Z"  />
<glyph unicode="&#x125;" horiz-adv-x="537" d="M122 714V427H124Q142 474 187 502T290 531Q390 531 434 483T478 334V0H415V324Q415 478 284 478Q209 478 166 428T122 296V0H59V714H122ZM296 920L410 779H345L259 881L171 779H113L227 920H296Z"  />
<glyph unicode="&#x126;" horiz-adv-x="704" d="M140 714V559H564V714H632V0H564V326H140V0H72V714H140ZM564 384V514H140V384H564Z"  />
<glyph unicode="&#x127;" horiz-adv-x="560" d="M122 714V629H318V584H122V427H124Q142 474 187 502T290 531Q387 531 432 484T478 332V0H415V323Q415 478 284 478Q211 478 167 428T122 295V0H59V584H0V629H59V714H122Z"  />
<glyph unicode="&#x128;" horiz-adv-x="222" d="M145 714V0H77V714H145ZM269 900Q260 852 236 829T182 805Q150 805 107 828Q65 851 44 851Q6 851 -6 800H-45Q-40 843 -16 869T44 896Q77 896 119 874Q160 852 179 852Q199 852 211 863T231 900H269Z"  />
<glyph unicode="&#x129;" horiz-adv-x="185" d="M124 516V0H61V516H124ZM-64 610Q-58 655 -33 680T25 706Q50 706 75 695T122 673T160 662Q178 662 191 672T212 710H250Q242 665 219 640T163 615Q135 615 105 630T57 653T25 661Q8 661 -4 652T-25 610H-64Z"  />
<glyph unicode="&#x12A;" horiz-adv-x="222" d="M145 714V0H77V714H145ZM277 873V828H-52V873H277Z"  />
<glyph unicode="&#x12B;" horiz-adv-x="185" d="M124 516V0H61V516H124ZM258 683V638H-71V683H258Z"  />
<glyph unicode="&#x12E;" horiz-adv-x="222" d="M145 714V0Q109 -32 90 -58T71 -117Q71 -140 82 -152T111 -164Q143 -164 160 -123L187 -136Q173 -168 153 -185T98 -203Q60 -203 38 -181T16 -121Q16 -87 41 -59T111 0H77V714H145Z"  />
<glyph unicode="&#x12F;" horiz-adv-x="185" d="M124 714V613H61V714H124ZM124 516V0Q86 -34 68 -60T50 -117Q50 -142 63 -153T90 -164Q122 -164 139 -123L165 -136Q151 -170 131 -186T77 -203Q40 -203 18 -181T-5 -121Q-5 -66 90 0H61V516H124Z"  />
<glyph unicode="&#x130;" horiz-adv-x="222" d="M145 714V0H77V714H145ZM145 901V800H77V901H145Z"  />
<glyph unicode="&#x131;" horiz-adv-x="185" d="M124 516V0H61V516H124Z"  />
<glyph unicode="&#x132;" horiz-adv-x="722" d="M145 714V0H77V714H145ZM650 714V197Q650 88 603 37T443 -15Q243 -15 243 227V229H311Q311 124 345 84T449 43Q523 43 552 82T582 223V714H650Z"  />
<glyph unicode="&#x133;" horiz-adv-x="370" d="M124 714V613H61V714H124ZM124 516V0H61V516H124ZM309 714V613H246V714H309ZM309 516V-50Q309 -125 282 -158T199 -191Q191 -191 155 -189V-137Q162 -138 185 -138Q221 -138 233 -122T246 -64V516H309Z"  />
<glyph unicode="&#x134;" horiz-adv-x="500" d="M428 714V197Q428 88 381 37T221 -15Q21 -15 21 227V229H89Q89 124 123 84T227 43Q301 43 330 82T360 223V714H428ZM425 920L539 779H474L388 881L300 779H242L356 920H425Z"  />
<glyph unicode="&#x135;" horiz-adv-x="185" d="M124 516V-50Q124 -124 97 -157T15 -191Q-2 -191 -30 -189V-137Q-23 -138 0 -138Q36 -138 48 -121T61 -61V516H124ZM125 730L239 589H174L88 691L0 589H-58L56 730H125Z"  />
<glyph unicode="&#x136;" horiz-adv-x="648" d="M140 714V330L555 714H647L328 419L662 0H574L277 372L140 245V0H72V714H140ZM397 -50V-131Q397 -166 374 -184T311 -203V-175Q347 -169 350 -141H311V-50H397Z"  />
<glyph unicode="&#x137;" horiz-adv-x="500" d="M123 714V266L409 516H493L273 325L508 0H429L225 281L123 196V0H60V714H123ZM307 -50V-131Q307 -166 284 -184T221 -203V-175Q257 -169 260 -141H221V-50H307Z"  />
<glyph unicode="&#x139;" horiz-adv-x="537" d="M140 714V58H540V0H72V714H140ZM262 920L130 779H79L184 920H262Z"  />
<glyph unicode="&#x13A;" horiz-adv-x="185" d="M124 714V0H61V714H124ZM242 920L110 779H59L164 920H242Z"  />
<glyph unicode="&#x13B;" horiz-adv-x="537" d="M140 714V58H540V0H72V714H140ZM343 -50V-131Q343 -166 320 -184T257 -203V-175Q293 -169 296 -141H257V-50H343Z"  />
<glyph unicode="&#x13C;" horiz-adv-x="185" d="M124 714V0H61V714H124ZM136 -50V-131Q136 -166 113 -184T50 -203V-175Q86 -169 89 -141H50V-50H136Z"  />
<glyph unicode="&#x13D;" horiz-adv-x="537" d="M140 714V58H540V0H72V714H140ZM378 714L292 573H245L300 714H378Z"  />
<glyph unicode="&#x13E;" horiz-adv-x="185" d="M124 714V0H61V714H124ZM307 714L221 573H174L229 714H307Z"  />
<glyph unicode="&#x13F;" horiz-adv-x="537" d="M140 714V58H540V0H72V714H140ZM356 436V335H288V436H356Z"  />
<glyph unicode="&#x140;" horiz-adv-x="296" d="M124 714V0H61V714H124ZM256 436V335H188V436H256Z"  />
<glyph unicode="&#x141;" horiz-adv-x="537" d="M140 714V353L383 521V465L140 298V58H540V0H72V251L-10 194V250L72 306V714H140Z"  />
<glyph unicode="&#x142;" horiz-adv-x="185" d="M124 714V447L191 502V447L124 392V0H61V340L-6 285V340L61 395V714H124Z"  />
<glyph unicode="&#x143;" horiz-adv-x="704" d="M147 714L563 110H565V714H633V0H557L141 604H139V0H71V714H147ZM505 920L373 779H322L427 920H505Z"  />
<glyph unicode="&#x144;" horiz-adv-x="537" d="M290 531Q390 531 434 483T478 335V0H415V323Q415 478 284 478Q211 478 167 428T122 296V0H59V516H122V427H124Q142 474 187 502T290 531ZM415 730L283 589H232L337 730H415Z"  />
<glyph unicode="&#x145;" horiz-adv-x="704" d="M147 714L563 110H565V714H633V0H557L141 604H139V0H71V714H147ZM397 -50V-131Q397 -166 374 -184T311 -203V-175Q347 -169 350 -141H311V-50H397Z"  />
<glyph unicode="&#x146;" horiz-adv-x="537" d="M290 531Q390 531 434 483T478 335V0H415V323Q415 478 284 478Q211 478 167 428T122 296V0H59V516H122V427H124Q142 474 187 502T290 531ZM313 -50V-131Q313 -166 290 -184T227 -203V-175Q263 -169 266 -141H227V-50H313Z"  />
<glyph unicode="&#x147;" horiz-adv-x="704" d="M147 714L563 110H565V714H633V0H557L141 604H139V0H71V714H147ZM275 920L361 818L449 920H507L393 779H324L210 920H275Z"  />
<glyph unicode="&#x148;" horiz-adv-x="537" d="M290 531Q390 531 434 483T478 335V0H415V323Q415 478 284 478Q211 478 167 428T122 296V0H59V516H122V427H124Q142 474 187 502T290 531ZM184 730L270 628L358 730H416L302 589H233L119 730H184Z"  />
<glyph unicode="&#x149;" horiz-adv-x="645" d="M398 531Q498 531 542 483T586 335V0H523V323Q523 478 392 478Q319 478 275 428T230 296V0H167V516H230V427H232Q250 474 295 502T398 531ZM123 714V607Q123 557 99 520T34 471V514Q55 520 68 546T81 600V608H39V714H123Z"  />
<glyph unicode="&#x14C;" horiz-adv-x="741" d="M371 729Q471 729 547 682T665 549T707 357Q707 191 615 88T371 -15Q216 -15 125 89T34 357Q34 524 126 626T371 729ZM102 357Q102 216 175 130T371 43Q492 43 565 129T639 357Q639 498 566 584T370 671Q247 671 175 584T102 357ZM537 873V828H208V873H537Z"  />
<glyph unicode="&#x14D;" horiz-adv-x="556" d="M278 531Q387 531 454 456T522 258Q522 139 456 62T278 -15Q167 -15 101 62T34 258Q34 377 100 454T278 531ZM97 258Q97 163 148 101T278 38Q357 38 408 100T459 258Q459 350 410 414T277 478Q196 478 147 415T97 258ZM445 683V638H116V683H445Z"  />
<glyph unicode="&#x14E;" horiz-adv-x="741" d="M371 729Q471 729 547 682T665 549T707 357Q707 191 615 88T371 -15Q216 -15 125 89T34 357Q34 524 126 626T371 729ZM102 357Q102 216 175 130T371 43Q492 43 565 129T639 357Q639 498 566 584T370 671Q247 671 175 584T102 357ZM268 914Q270 878 299 855T371 832Q411 832 441 854T477 914H516Q508 855 470 822T371 787Q309 787 272 820T229 914H268Z"  />
<glyph unicode="&#x14F;" horiz-adv-x="556" d="M278 531Q387 531 454 456T522 258Q522 139 456 62T278 -15Q167 -15 101 62T34 258Q34 377 100 454T278 531ZM97 258Q97 163 148 101T278 38Q357 38 408 100T459 258Q459 350 410 414T277 478Q196 478 147 415T97 258ZM176 724Q178 687 208 665T279 642Q319 642 349 664T385 724H424Q416 665 378 631T279 597Q218 597 181 630T137 724H176Z"  />
<glyph unicode="&#x150;" horiz-adv-x="741" d="M371 729Q471 729 547 682T665 549T707 357Q707 191 615 88T371 -15Q216 -15 125 89T34 357Q34 524 126 626T371 729ZM102 357Q102 216 175 130T371 43Q492 43 565 129T639 357Q639 498 566 584T370 671Q247 671 175 584T102 357ZM440 920L314 779H263L364 920H440ZM596 920L470 779H419L520 920H596Z"  />
<glyph unicode="&#x151;" horiz-adv-x="556" d="M278 531Q387 531 454 456T522 258Q522 139 456 62T278 -15Q167 -15 101 62T34 258Q34 377 100 454T278 531ZM97 258Q97 163 148 101T278 38Q357 38 408 100T459 258Q459 350 410 414T277 478Q196 478 147 415T97 258ZM348 730L222 589H171L272 730H348ZM504 730L378 589H327L428 730H504Z"  />
<glyph unicode="&#x152;" horiz-adv-x="1074" d="M375 729Q503 729 569 655V714H1043V656H637V398H1005V340H637V58H1046V0H569V70Q534 29 481 7T375 -15Q226 -15 132 90T37 357Q37 460 79 546T199 681T375 729ZM105 357Q105 218 180 131T375 43Q433 43 471 59T539 108T569 182V513Q569 562 564 575Q549 613 494 642T375 671Q254 671 180 582T105 357Z"  />
<glyph unicode="&#x153;" horiz-adv-x="889" d="M266 531Q410 531 450 404H452Q473 461 523 496T643 531Q753 531 808 461T863 241H479Q479 153 522 96T641 38Q762 38 799 166H862Q841 78 783 32T634 -15Q567 -15 516 21T450 116H448Q430 51 381 18T263 -15Q157 -15 97 57T36 258Q36 381 98 456T266 531ZM99 247Q99 149 144 94T264 38Q416 38 416 262Q416 478 264 478Q185 478 142 417T99 247ZM800 294Q800 376 755 427T639 478Q567 478 523 428T479 294H800Z"  />
<glyph unicode="&#x154;" horiz-adv-x="667" d="M397 714Q495 714 555 666T616 528Q616 456 580 408T477 346V344Q537 335 568 296T603 165L605 123Q609 31 635 0H560Q546 21 540 131Q534 236 502 276T408 317H140V0H72V714H397ZM395 375Q458 375 503 413T548 514Q548 583 508 619T395 656H140V375H395ZM460 920L328 779H277L382 920H460Z"  />
<glyph unicode="&#x155;" horiz-adv-x="315" d="M315 460H305Q226 460 175 408T123 274V0H60V516H118V395H120Q143 457 191 490T302 523H315V460ZM342 730L210 589H159L264 730H342Z"  />
<glyph unicode="&#x156;" horiz-adv-x="667" d="M397 714Q495 714 555 666T616 528Q616 456 580 408T477 346V344Q537 335 568 296T603 165L605 123Q609 31 635 0H560Q546 21 540 131Q534 236 502 276T408 317H140V0H72V714H397ZM395 375Q458 375 503 413T548 514Q548 583 508 619T395 656H140V375H395ZM384 -50V-131Q384 -166 361 -184T298 -203V-175Q334 -169 337 -141H298V-50H384Z"  />
<glyph unicode="&#x157;" horiz-adv-x="315" d="M315 460H305Q226 460 175 408T123 274V0H60V516H118V395H120Q143 457 191 490T302 523H315V460ZM136 -50V-131Q136 -166 113 -184T50 -203V-175Q86 -169 89 -141H50V-50H136Z"  />
<glyph unicode="&#x158;" horiz-adv-x="667" d="M397 714Q495 714 555 666T616 528Q616 456 580 408T477 346V344Q537 335 568 296T603 165L605 123Q609 31 635 0H560Q546 21 540 131Q534 236 502 276T408 317H140V0H72V714H397ZM395 375Q458 375 503 413T548 514Q548 583 508 619T395 656H140V375H395ZM226 920L312 818L400 920H458L344 779H275L161 920H226Z"  />
<glyph unicode="&#x159;" horiz-adv-x="315" d="M315 460H305Q226 460 175 408T123 274V0H60V516H118V395H120Q143 457 191 490T302 523H315V460ZM109 730L195 628L283 730H341L227 589H158L44 730H109Z"  />
<glyph unicode="&#x15A;" horiz-adv-x="630" d="M304 729Q423 729 496 669T569 507H501Q497 581 445 626T305 671Q222 671 175 635T127 529Q127 490 150 463T227 422L401 379Q505 353 549 307T594 189Q594 93 521 39T321 -15Q184 -15 110 46T36 217V235H104V229Q104 43 335 43Q414 43 470 83T526 188Q526 281 383 316L220 356Q140 376 100 416T59 528Q59 585 87 630T171 702T304 729ZM463 920L331 779H280L385 920H463Z"  />
<glyph unicode="&#x15B;" horiz-adv-x="481" d="M243 531Q327 531 378 488T432 365H369Q367 419 331 448T234 478Q178 478 145 454T112 389Q112 326 228 300Q348 273 375 259T419 226T443 186T450 140Q450 70 393 28T243 -15Q47 -15 31 167H94Q98 105 139 72T246 38Q309 38 348 65T387 135Q387 175 358 196T265 232L198 247Q122 264 86 296T49 386Q49 454 104 492T243 531ZM392 730L260 589H209L314 730H392Z"  />
<glyph unicode="&#x15C;" horiz-adv-x="630" d="M304 729Q423 729 496 669T569 507H501Q497 581 445 626T305 671Q222 671 175 635T127 529Q127 490 150 463T227 422L401 379Q505 353 549 307T594 189Q594 93 521 39T321 -15Q184 -15 110 46T36 217V235H104V229Q104 43 335 43Q414 43 470 83T526 188Q526 281 383 316L220 356Q140 376 100 416T59 528Q59 585 87 630T171 702T304 729ZM351 920L465 779H400L314 881L226 779H168L282 920H351Z"  />
<glyph unicode="&#x15D;" horiz-adv-x="481" d="M243 531Q327 531 378 488T432 365H369Q367 419 331 448T234 478Q178 478 145 454T112 389Q112 326 228 300Q348 273 375 259T419 226T443 186T450 140Q450 70 393 28T243 -15Q47 -15 31 167H94Q98 105 139 72T246 38Q309 38 348 65T387 135Q387 175 358 196T265 232L198 247Q122 264 86 296T49 386Q49 454 104 492T243 531ZM281 730L395 589H330L244 691L156 589H98L212 730H281Z"  />
<glyph unicode="&#x15E;" horiz-adv-x="630" d="M305 729Q423 729 496 669T569 507H501Q497 583 443 627T306 671Q220 671 174 634T127 529Q127 448 226 422L401 379Q499 355 546 310T594 189Q594 128 562 81T470 9T324 -15L292 -54Q304 -50 326 -50Q359 -50 383 -67T408 -117Q408 -156 377 -179T298 -203Q244 -203 204 -182L218 -150Q226 -154 249 -159T296 -164Q350 -164 350 -121Q350 -104 338 -94T306 -83Q274 -83 256 -91L240 -76L290 -14Q168 -6 102 53T36 218V235H104V229Q104 43 336 43Q414 43 470 83T526 188Q526 280 387 315L220 356Q135 376 97 418T59 527Q59 583 87 628T169 701T305 729Z"  />
<glyph unicode="&#x15F;" horiz-adv-x="481" d="M243 531Q326 531 377 489T432 365H369Q367 419 330 448T234 478Q179 478 146 454T112 389Q112 326 228 300L317 280Q450 249 450 140Q450 70 394 29T252 -15L220 -54Q234 -50 254 -50Q284 -50 310 -66T336 -117Q336 -156 305 -179T226 -203Q172 -203 132 -182L146 -150Q177 -164 225 -164Q278 -164 278 -121Q278 -104 266 -94T234 -83Q202 -83 184 -91L168 -76L217 -14Q45 -2 31 167H94Q97 107 138 73T246 38Q309 38 348 65T387 136Q387 173 359 195T269 231L202 246Q119 265 84 297T49 386Q49 453 102 492T243 531Z"  />
<glyph unicode="&#x160;" horiz-adv-x="630" d="M304 729Q423 729 496 669T569 507H501Q497 581 445 626T305 671Q222 671 175 635T127 529Q127 490 150 463T227 422L401 379Q505 353 549 307T594 189Q594 93 521 39T321 -15Q184 -15 110 46T36 217V235H104V229Q104 43 335 43Q414 43 470 83T526 188Q526 281 383 316L220 356Q140 376 100 416T59 528Q59 585 87 630T171 702T304 729ZM231 920L317 818L405 920H463L349 779H280L166 920H231Z"  />
<glyph unicode="&#x161;" horiz-adv-x="481" d="M243 531Q327 531 378 488T432 365H369Q367 419 331 448T234 478Q178 478 145 454T112 389Q112 326 228 300Q348 273 375 259T419 226T443 186T450 140Q450 70 393 28T243 -15Q47 -15 31 167H94Q98 105 139 72T246 38Q309 38 348 65T387 135Q387 175 358 196T265 232L198 247Q122 264 86 296T49 386Q49 454 104 492T243 531ZM161 730L247 628L335 730H393L279 589H210L96 730H161Z"  />
<glyph unicode="&#x162;" horiz-adv-x="556" d="M561 714V656H312V0H244V656H-5V714H561ZM321 -50V-131Q321 -166 298 -184T235 -203V-175Q271 -169 274 -141H235V-50H321Z"  />
<glyph unicode="&#x163;" horiz-adv-x="296" d="M160 671V516H265V463H160V111Q160 75 173 61T218 47Q237 47 265 50V-4Q225 -6 209 -6Q142 -6 120 21T97 106V463H7V516H97V671H160ZM222 -50V-131Q222 -166 199 -184T136 -203V-175Q172 -169 175 -141H136V-50H222Z"  />
<glyph unicode="&#x164;" horiz-adv-x="556" d="M561 714V656H312V0H244V656H-5V714H561ZM196 920L282 818L370 920H428L314 779H245L131 920H196Z"  />
<glyph unicode="&#x165;" horiz-adv-x="296" d="M160 671V516H265V463H160V111Q160 75 173 61T218 47Q237 47 265 50V-4Q225 -6 209 -6Q142 -6 120 21T97 106V463H7V516H97V671H160ZM356 714L270 573H223L278 714H356Z"  />
<glyph unicode="&#x166;" horiz-adv-x="556" d="M561 714V656H312V486H477V441H312V0H244V441H80V486H244V656H-5V714H561Z"  />
<glyph unicode="&#x167;" horiz-adv-x="296" d="M160 671V516H265V463H160V354H256V309H160V113Q160 82 167 70T187 52T218 47Q236 47 265 50V-4Q228 -6 208 -6Q160 -6 138 7T106 45T97 109V309H11V354H97V463H7V516H97V671H160Z"  />
<glyph unicode="&#x168;" horiz-adv-x="685" d="M133 714V271Q133 154 185 99T342 43Q451 43 501 99T552 272V714H620V259Q620 127 547 56T342 -15Q210 -15 138 57T65 259V714H133ZM499 900Q490 852 466 829T412 805Q380 805 337 828Q295 851 274 851Q236 851 224 800H185Q190 843 214 869T274 896Q307 896 349 874Q390 852 409 852Q429 852 441 863T461 900H499Z"  />
<glyph unicode="&#x169;" horiz-adv-x="537" d="M122 516V193Q122 108 155 73T259 38Q328 38 371 93T415 246V516H478V0H420V93H418Q393 42 347 14T240 -15Q59 -15 59 181V516H122ZM112 610Q118 655 143 680T201 706Q226 706 251 695T298 673T336 662Q354 662 367 672T388 710H426Q418 665 395 640T339 615Q311 615 281 630T233 653T201 661Q184 661 172 652T151 610H112Z"  />
<glyph unicode="&#x16A;" horiz-adv-x="685" d="M133 714V271Q133 154 185 99T342 43Q451 43 501 99T552 272V714H620V259Q620 127 547 56T342 -15Q210 -15 138 57T65 259V714H133ZM507 873V828H178V873H507Z"  />
<glyph unicode="&#x16B;" horiz-adv-x="537" d="M122 516V193Q122 108 155 73T259 38Q328 38 371 93T415 246V516H478V0H420V93H418Q393 42 347 14T240 -15Q59 -15 59 181V516H122ZM434 683V638H105V683H434Z"  />
<glyph unicode="&#x16C;" horiz-adv-x="685" d="M133 714V271Q133 154 185 99T342 43Q451 43 501 99T552 272V714H620V259Q620 127 547 56T342 -15Q210 -15 138 57T65 259V714H133ZM238 914Q240 878 269 855T341 832Q381 832 411 854T447 914H486Q478 855 440 822T341 787Q279 787 242 820T199 914H238Z"  />
<glyph unicode="&#x16D;" horiz-adv-x="537" d="M122 516V193Q122 108 155 73T259 38Q328 38 371 93T415 246V516H478V0H420V93H418Q393 42 347 14T240 -15Q59 -15 59 181V516H122ZM165 724Q167 687 197 665T268 642Q308 642 338 664T374 724H413Q405 665 367 631T268 597Q207 597 170 630T126 724H165Z"  />
<glyph unicode="&#x16E;" horiz-adv-x="685" d="M133 714V271Q133 154 185 99T342 43Q451 43 501 99T552 272V714H620V259Q620 127 547 56T342 -15Q210 -15 138 57T65 259V714H133ZM340 967Q385 967 416 936T447 860Q447 817 417 785T340 753Q296 753 265 785T233 860Q233 903 263 935T340 967ZM272 860Q272 831 291 812T340 792Q370 792 389 811T408 860Q408 888 390 908T339 928Q312 928 292 910T272 860Z"  />
<glyph unicode="&#x16F;" horiz-adv-x="537" d="M122 516V193Q122 108 155 73T259 38Q328 38 371 93T415 246V516H478V0H420V93H418Q393 42 347 14T240 -15Q59 -15 59 181V516H122ZM269 787Q313 787 344 755T376 680Q376 637 346 605T269 573Q225 573 194 604T162 680Q162 723 192 755T269 787ZM201 680Q201 651 220 632T269 612Q298 612 317 631T337 680Q337 707 319 727T268 748Q241 748 221 730T201 680Z"  />
<glyph unicode="&#x170;" horiz-adv-x="685" d="M133 714V271Q133 154 185 99T342 43Q451 43 501 99T552 272V714H620V259Q620 127 547 56T342 -15Q210 -15 138 57T65 259V714H133ZM410 920L284 779H233L334 920H410ZM566 920L440 779H389L490 920H566Z"  />
<glyph unicode="&#x171;" horiz-adv-x="537" d="M122 516V193Q122 108 155 73T259 38Q328 38 371 93T415 246V516H478V0H420V93H418Q393 42 347 14T240 -15Q59 -15 59 181V516H122ZM337 730L211 589H160L261 730H337ZM493 730L367 589H316L417 730H493Z"  />
<glyph unicode="&#x172;" horiz-adv-x="685" d="M133 714V272Q133 162 181 103T342 43Q453 43 502 101T552 272V714H620V259Q620 137 556 66T373 -14Q337 -44 323 -66T308 -116Q308 -143 322 -153T352 -164Q385 -164 407 -123L436 -136Q420 -171 398 -187T338 -203Q293 -203 270 -180T247 -121Q247 -92 267 -68T328 -15Q203 -11 134 60T65 258V714H133Z"  />
<glyph unicode="&#x173;" horiz-adv-x="537" d="M122 516V187Q122 109 155 74T259 38Q328 38 371 93T415 246V516H478V0H458Q417 -33 397 -59T376 -117Q376 -139 388 -151T420 -164Q453 -164 475 -123L504 -136Q490 -167 469 -185T406 -203Q363 -203 339 -181T315 -120Q315 -65 420 0V93H418Q394 42 347 14T240 -15Q145 -15 102 35T59 182V516H122Z"  />
<glyph unicode="&#x174;" horiz-adv-x="907" d="M73 714L235 89H237L411 714H496L671 89H673L836 714H904L707 0H635L454 639H452L272 0H198L0 714H73ZM489 920L603 779H538L452 881L364 779H306L420 920H489Z"  />
<glyph unicode="&#x175;" horiz-adv-x="741" d="M75 516L207 74H209L335 516H406L532 74H534L666 516H733L567 0H498L371 434H369L243 0H174L8 516H75ZM406 730L520 589H455L369 691L281 589H223L337 730H406Z"  />
<glyph unicode="&#x176;" horiz-adv-x="611" d="M71 714L306 352L540 714H621L339 294V0H271V294L-10 714H71ZM343 920L457 779H392L306 881L218 779H160L274 920H343Z"  />
<glyph unicode="&#x177;" horiz-adv-x="463" d="M69 516L239 76L398 516H461L237 -79Q211 -147 183 -169T104 -191Q68 -191 53 -186V-133Q73 -138 96 -138Q122 -138 138 -128T166 -99T208 2L2 516H69ZM273 730L387 589H322L236 691L148 589H90L204 730H273Z"  />
<glyph unicode="&#x178;" horiz-adv-x="611" d="M71 714L306 352L540 714H621L339 294V0H271V294L-10 714H71ZM252 901V800H184V901H252ZM429 901V800H361V901H429Z"  />
<glyph unicode="&#x179;" horiz-adv-x="574" d="M551 714V654L81 58H561V0H5V60L475 656H37V714H551ZM435 920L303 779H252L357 920H435Z"  />
<glyph unicode="&#x17A;" horiz-adv-x="463" d="M432 516V471L91 53H446V0H15V51L352 463H38V516H432ZM380 730L248 589H197L302 730H380Z"  />
<glyph unicode="&#x17B;" horiz-adv-x="574" d="M551 714V654L81 58H561V0H5V60L475 656H37V714H551ZM323 901V800H255V901H323Z"  />
<glyph unicode="&#x17C;" horiz-adv-x="463" d="M432 516V471L91 53H446V0H15V51L352 463H38V516H432ZM267 711V610H199V711H267Z"  />
<glyph unicode="&#x17D;" horiz-adv-x="574" d="M551 714V654L81 58H561V0H5V60L475 656H37V714H551ZM203 920L289 818L377 920H435L321 779H252L138 920H203Z"  />
<glyph unicode="&#x17E;" horiz-adv-x="463" d="M432 516V471L91 53H446V0H15V51L352 463H38V516H432ZM148 730L234 628L322 730H380L266 589H197L83 730H148Z"  />
<glyph unicode="&#x192;" horiz-adv-x="556" d="M429 714Q456 714 490 709L478 657Q456 661 437 661Q416 661 397 655T361 625T329 538L308 439H421L412 386H299L229 15Q214 -65 194 -101T141 -155T59 -173Q31 -173 7 -168L16 -114Q43 -120 65 -120Q142 -120 163 10L235 386H135L144 439H245L262 530Q277 600 295 637T345 694T429 714Z"  />
<glyph unicode="&#x218;" horiz-adv-x="630" d="M304 729Q423 729 496 669T569 507H501Q497 581 445 626T305 671Q222 671 175 635T127 529Q127 490 150 463T227 422L401 379Q505 353 549 307T594 189Q594 93 521 39T321 -15Q184 -15 110 46T36 217V235H104V229Q104 43 335 43Q414 43 470 83T526 188Q526 281 383 316L220 356Q140 376 100 416T59 528Q59 585 87 630T171 702T304 729ZM357 -50V-131Q357 -166 334 -184T271 -203V-175Q307 -169 310 -141H271V-50H357Z"  />
<glyph unicode="&#x219;" horiz-adv-x="481" d="M243 531Q327 531 378 488T432 365H369Q367 419 331 448T234 478Q178 478 145 454T112 389Q112 326 228 300Q348 273 375 259T419 226T443 186T450 140Q450 70 393 28T243 -15Q47 -15 31 167H94Q98 105 139 72T246 38Q309 38 348 65T387 135Q387 175 358 196T265 232L198 247Q122 264 86 296T49 386Q49 454 104 492T243 531ZM286 -50V-131Q286 -166 263 -184T200 -203V-175Q236 -169 239 -141H200V-50H286Z"  />
<glyph unicode="&#x21A;" horiz-adv-x="556" d="M561 714V656H312V0H244V656H-5V714H561ZM321 -50V-131Q321 -166 298 -184T235 -203V-175Q271 -169 274 -141H235V-50H321Z"  />
<glyph unicode="&#x21B;" horiz-adv-x="296" d="M160 671V516H265V463H160V111Q160 75 173 61T218 47Q237 47 265 50V-4Q225 -6 209 -6Q142 -6 120 21T97 106V463H7V516H97V671H160ZM222 -50V-131Q222 -166 199 -184T136 -203V-175Q172 -169 175 -141H136V-50H222Z"  />
<glyph unicode="&#x2C6;" horiz-adv-x="185" d="M130 730L244 589H179L93 691L5 589H-53L61 730H130Z"  />
<glyph unicode="&#x2C7;" horiz-adv-x="185" d="M5 730L91 628L179 730H237L123 589H54L-60 730H5Z"  />
<glyph unicode="&#x2C9;" horiz-adv-x="185" d="M257 683V638H-72V683H257Z"  />
<glyph unicode="&#x2D8;" horiz-adv-x="185" d="M-12 724Q-10 687 20 665T91 642Q131 642 161 664T197 724H236Q228 665 190 631T91 597Q30 597 -7 630T-51 724H-12Z"  />
<glyph unicode="&#x2D9;" horiz-adv-x="185" d="M127 711V610H59V711H127Z"  />
<glyph unicode="&#x2DA;" horiz-adv-x="185" d="M93 787Q137 787 168 755T200 680Q200 637 170 605T93 573Q49 573 18 604T-14 680Q-14 723 16 755T93 787ZM25 680Q25 651 44 632T93 612Q122 612 141 631T161 680Q161 707 143 727T92 748Q65 748 45 730T25 680Z"  />
<glyph unicode="&#x2DB;" horiz-adv-x="185" d="M189 0Q153 -29 130 -56T107 -117Q107 -139 119 -151T151 -164Q184 -164 206 -123L235 -136Q219 -171 196 -187T137 -203Q94 -203 70 -181T46 -120Q46 -92 69 -65T151 0H189Z"  />
<glyph unicode="&#x2DC;" horiz-adv-x="185" d="M-65 610Q-59 655 -34 680T24 706Q49 706 74 695T121 673T159 662Q177 662 190 672T211 710H249Q241 665 218 640T162 615Q134 615 104 630T56 653T24 661Q7 661 -5 652T-26 610H-65Z"  />
<glyph unicode="&#x2DD;" horiz-adv-x="185" d="M144 730L18 589H-33L68 730H144ZM300 730L174 589H123L224 730H300Z"  />
<glyph unicode="&#x394;" horiz-adv-x="630" d="M357 714L637 0H-7L281 714H357ZM88 58H541L316 646L88 58Z"  />
<glyph unicode="&#x3A9;" horiz-adv-x="759" d="M381 729Q475 729 551 684T670 561T714 392Q714 181 543 62V58H725V0H461V60Q555 126 600 206T645 392Q645 513 572 592T381 671Q261 671 187 596T112 393Q112 189 300 60V0H34V58H212V62Q130 119 87 203T43 392Q43 541 139 635T381 729Z"  />
<glyph unicode="&#x3BC;" horiz-adv-x="537" d="M122 516V190Q122 116 152 77T259 38Q330 38 372 94T415 249V516H478V0H420V93H418Q394 42 346 14T240 -15Q169 -15 122 20V-191H59V516H122Z"  />
<glyph unicode="&#x3C0;" horiz-adv-x="591" d="M564 516V463H482V92Q482 53 524 53Q543 53 551 57V4Q529 0 500 0Q455 0 437 22T419 88V463H161V0H98V463H23V516H564Z"  />
<glyph unicode="&#x2013;" horiz-adv-x="500" d="M500 304V246H0V304H500Z"  />
<glyph unicode="&#x2014;" horiz-adv-x="1000" d="M870 304V246H130V304H870Z"  />
<glyph unicode="&#x2018;" horiz-adv-x="278" d="M184 671Q164 663 151 639T137 586V577H179V471H95V579Q95 629 119 666T184 714V671Z"  />
<glyph unicode="&#x2019;" horiz-adv-x="278" d="M183 714V607Q183 557 159 520T94 471V514Q115 520 128 546T141 600V608H99V714H183Z"  />
<glyph unicode="&#x201A;" horiz-adv-x="278" d="M183 106V-1Q183 -48 160 -86T94 -137V-94Q114 -88 127 -63T141 -6V0H99V106H183Z"  />
<glyph unicode="&#x201C;" horiz-adv-x="370" d="M218 471V579Q218 628 243 666T307 714V671Q287 663 274 639T260 586V577H302V471H218ZM64 471V579Q64 628 89 666T153 714V671Q128 661 117 635T106 586V577H148V471H64Z"  />
<glyph unicode="&#x201D;" horiz-adv-x="370" d="M306 714V606Q306 556 282 519T217 471V514Q237 519 250 544T264 602V608H222V714H306ZM152 714V606Q152 556 128 519T63 471V514Q83 519 96 544T110 602V608H68V714H152Z"  />
<glyph unicode="&#x201E;" horiz-adv-x="370" d="M152 106V-1Q152 -48 129 -86T63 -137V-94Q84 -88 97 -62T110 -7V0H68V106H152ZM306 106V-1Q306 -48 283 -86T217 -137V-94Q238 -88 251 -62T264 -7V0H222V106H306Z"  />
<glyph unicode="&#x2020;" horiz-adv-x="556" d="M309 714V493H508V440H309V-151H246V440H48V493H246V714H309Z"  />
<glyph unicode="&#x2021;" horiz-adv-x="556" d="M309 714V516H508V463H309V100H508V47H309V-151H246V47H48V100H246V463H48V516H246V714H309Z"  />
<glyph unicode="&#x2022;" horiz-adv-x="500" d="M250 535Q326 535 377 482T429 357Q429 281 376 230T250 178Q176 178 124 229T72 357Q72 429 123 482T250 535Z"  />
<glyph unicode="&#x2026;" horiz-adv-x="1000" d="M209 106V0H125V106H209ZM542 106V0H458V106H542ZM875 106V0H791V106H875Z"  />
<glyph unicode="&#x2030;" horiz-adv-x="1111" d="M582 725H629L177 -34H129L582 725ZM214 706Q288 706 325 662T363 537Q363 454 325 411T214 368Q141 368 103 412T65 537Q65 619 103 662T214 706ZM118 537Q118 474 142 444T214 413Q309 413 310 537Q310 659 213 661Q118 661 118 537ZM547 323Q619 323 657 280T696 154Q696 72 659 29T547 -15Q474 -15 436 29T398 154Q398 232 434 277T547 323ZM901 323Q976 323 1013 279T1050 154Q1050 72 1013 29T901 -15Q826 -15 789 30T752 154Q753 320 901 323ZM451 154Q451 92 475 61T547 30Q642 30 643 154Q643 278 546 278Q451 278 451 154ZM805 154Q805 88 830 59T901 30Q996 30 997 154Q997 218 972 248T900 278Q805 278 805 154Z"  />
<glyph unicode="&#x2039;" horiz-adv-x="259" d="M186 431V364L92 275L186 186V119L53 244V306L186 431Z"  />
<glyph unicode="&#x203A;" horiz-adv-x="259" d="M206 306V244L73 119V186L167 275L73 364V431L206 306Z"  />
<glyph unicode="&#x2044;" horiz-adv-x="167" d="M287 725H334L-118 -34H-166L287 725Z"  />
<glyph unicode="&#x20AC;" horiz-adv-x="556" d="M370 712Q495 712 557 635L530 576Q464 655 370 655Q283 655 227 596T151 434H484L466 389H145Q142 364 142 352Q142 333 143 330H447L428 285H146Q155 209 186 153T263 69T367 41Q420 41 460 63T541 127V50Q464 -15 365 -15Q288 -15 228 20T130 122T81 285H15L34 330H78Q77 338 77 354Q77 364 79 389H15L33 434H84Q107 563 182 637T370 712Z"  />
<glyph unicode="&#x2113;" horiz-adv-x="500" d="M285 721Q328 721 356 690T384 598Q384 457 218 277V118Q218 71 239 49T296 26Q343 26 385 66L406 38Q352 -14 286 -14Q230 -14 199 18T167 109V240L107 175L85 203L167 287V553Q167 629 199 675T285 721ZM218 325Q341 471 341 593Q341 634 324 659T284 684Q252 684 235 649T218 561V325Z"  />
<glyph unicode="&#x2122;" horiz-adv-x="990" d="M403 714V669H269V302H216V669H82V714H403ZM561 714L694 380L823 714H908V302H855V666H853L707 302H677L531 666H529V302H476V714H561Z"  />
<glyph unicode="&#x2126;" horiz-adv-x="759" d="M381 729Q475 729 551 684T670 561T714 392Q714 181 543 62V58H725V0H461V60Q555 126 600 206T645 392Q645 513 572 592T381 671Q261 671 187 596T112 393Q112 189 300 60V0H34V58H212V62Q130 119 87 203T43 392Q43 541 139 635T381 729Z"  />
<glyph unicode="&#x212E;" horiz-adv-x="760" d="M381 706Q532 706 625 606T719 345H192V109Q269 32 381 32Q466 32 525 70T633 189L679 161Q620 68 550 27T381 -15Q233 -15 139 87T44 345Q44 501 137 603T381 706ZM192 393H572V582Q490 660 379 660Q270 660 192 582V393Z"  />
<glyph unicode="&#x2202;" horiz-adv-x="511" d="M218 721Q336 721 401 627T469 361Q469 179 409 84T237 -12Q148 -12 92 52T33 213Q34 308 89 367T232 427Q327 426 393 351Q394 380 394 396Q392 513 347 585T221 658Q164 658 107 611L65 661Q132 721 218 721ZM107 210Q107 145 142 97T239 48Q306 48 346 114T389 280Q325 363 240 365Q180 365 144 321T107 210Z"  />
<glyph unicode="&#x2206;" horiz-adv-x="630" d="M357 714L637 0H-7L281 714H357ZM88 58H541L316 646L88 58Z"  />
<glyph unicode="&#x220F;" horiz-adv-x="719" d="M650 786V-214H572V714H146V-214H68V786H650Z"  />
<glyph unicode="&#x2211;" horiz-adv-x="615" d="M577 786V714H140L441 290L122 -142H589V-214H25V-150L347 290L39 722V786H577Z"  />
<glyph unicode="&#x2212;" horiz-adv-x="600" d="M552 278V225H49V278H552Z"  />
<glyph unicode="&#x2215;" horiz-adv-x="167" d="M287 725H334L-118 -34H-166L287 725Z"  />
<glyph unicode="&#x2219;" horiz-adv-x="278" d="M139 375Q162 375 180 358T198 315Q198 292 181 275T139 257Q113 257 97 275T80 317Q80 340 98 357T139 375Z"  />
<glyph unicode="&#x221A;" horiz-adv-x="504" d="M514 786L303 -214H228L66 120L19 98L-9 158L103 210L254 -107L438 786H514Z"  />
<glyph unicode="&#x221E;" horiz-adv-x="759" d="M569 410Q636 410 676 366T717 255Q717 186 677 142T570 98Q482 98 380 207Q313 143 273 121T191 99Q126 99 84 141T42 252Q42 319 82 363T187 408Q233 408 275 384T380 294L423 337Q496 410 569 410ZM423 251Q463 211 499 189T573 166Q611 166 631 191T652 252Q652 289 632 315T569 342Q536 342 502 318T423 251ZM107 252Q107 214 129 190T190 166Q252 166 337 251Q243 341 187 341Q151 341 129 315T107 252Z"  />
<glyph unicode="&#x222B;" horiz-adv-x="554" d="M340 786Q372 786 396 772T420 730Q420 712 408 702T378 692Q361 692 342 716Q328 735 322 735Q291 735 291 644L293 548V6Q293 -105 263 -159T167 -213Q140 -213 119 -199T98 -161Q98 -146 109 -136T135 -125Q154 -125 170 -150Q181 -167 187 -167Q201 -167 208 -137T216 -56L215 -5V602Q215 786 340 786Z"  />
<glyph unicode="&#x2248;" horiz-adv-x="600" d="M565 417Q558 360 524 325T436 289Q401 289 360 302T289 327T225 349T163 360Q133 360 113 340T86 285H35Q43 344 76 378T164 413Q197 413 233 402T298 380T368 356T438 342Q466 342 486 362T514 417H565ZM565 220Q556 156 522 124T436 92Q403 92 363 104T292 129T225 152T162 163Q135 163 114 144T86 88H35Q43 145 75 180T164 216Q195 216 230 206T296 184T368 159T437 145Q497 146 514 220H565Z"  />
<glyph unicode="&#x2260;" horiz-adv-x="600" d="M431 528L477 503L405 378H552V325H374L291 181H552V128H260L170 -28L124 -3L199 128H49V181H230L313 325H49V378H344L431 528Z"  />
<glyph unicode="&#x2264;" horiz-adv-x="600" d="M551 473L108 307L551 141V86L48 280V334L551 528V473ZM551 53V0H48V53H551Z"  />
<glyph unicode="&#x2265;" horiz-adv-x="600" d="M49 528L552 334V280L49 86V141L492 307L49 473V528ZM552 53V0H49V53H552Z"  />
<glyph unicode="&#x25CA;" horiz-adv-x="593" d="M332 747L504 356L332 -35H260L89 356L260 747H332ZM165 356L296 41L428 356L296 671L165 356Z"  />
<glyph unicode="&#xE0D6;" horiz-adv-x="185" d="M124 516V-50Q124 -124 97 -157T15 -191Q-2 -191 -30 -189V-137Q-23 -138 0 -138Q36 -138 48 -121T61 -61V516H124Z"  />
<glyph unicode="&#xE300;" horiz-adv-x="185" d="M47 920L152 779H101L-31 920H47Z"  />
<glyph unicode="&#xE301;" horiz-adv-x="185" d="M216 920L84 779H33L138 920H216Z"  />
<glyph unicode="&#xE302;" horiz-adv-x="185" d="M130 920L244 779H179L93 881L5 779H-53L61 920H130Z"  />
<glyph unicode="&#xE303;" horiz-adv-x="185" d="M5 920L91 818L179 920H237L123 779H54L-60 920H5Z"  />
<glyph unicode="&#xE304;" horiz-adv-x="185" d="M249 900Q240 852 216 829T162 805Q130 805 87 828Q45 851 24 851Q-14 851 -26 800H-65Q-60 843 -36 869T24 896Q57 896 99 874Q140 852 159 852Q179 852 191 863T211 900H249Z"  />
<glyph unicode="&#xE305;" horiz-adv-x="185" d="M38 901V800H-30V901H38ZM215 901V800H147V901H215Z"  />
<glyph unicode="&#xE306;" horiz-adv-x="185" d="M257 873V828H-72V873H257Z"  />
<glyph unicode="&#xE307;" horiz-adv-x="185" d="M-12 914Q-10 878 19 855T91 832Q131 832 161 854T197 914H236Q228 855 190 822T91 787Q29 787 -8 820T-51 914H-12Z"  />
<glyph unicode="&#xE308;" horiz-adv-x="185" d="M93 967Q138 967 169 936T200 860Q200 817 170 785T93 753Q49 753 18 785T-14 860Q-14 903 16 935T93 967ZM25 860Q25 831 44 812T93 792Q123 792 142 811T161 860Q161 888 143 908T92 928Q65 928 45 910T25 860Z"  />
<glyph unicode="&#xE309;" horiz-adv-x="185" d="M144 920L18 779H-33L68 920H144ZM300 920L174 779H123L224 920H300Z"  />
<glyph unicode="&#xE30A;" horiz-adv-x="185" d="M127 901V800H59V901H127Z"  />
<glyph unicode="&#xE30B;" horiz-adv-x="185" d="M221 714L135 573H88L143 714H221Z"  />
<glyph unicode="&#xE30C;" horiz-adv-x="278" d="M183 -50V-131Q183 -166 160 -184T97 -203V-175Q133 -169 136 -141H97V-50H183Z"  />
<glyph unicode="&#xE30D;" horiz-adv-x="278" d="M180 748Q144 742 141 714H180V623H94V703Q94 772 180 776V748Z"  />
<glyph unicode="&#xFB01;" horiz-adv-x="444" d="M220 714Q250 714 272 710V656Q245 661 226 661Q186 661 172 642T157 575V516H259V463H157V0H94V463H6V516H94V566Q94 644 123 678T220 714ZM383 714V613H320V714H383ZM383 516V0H320V516H383Z"  />
<glyph unicode="&#xFB02;" horiz-adv-x="444" d="M220 714Q250 714 272 710V656Q245 661 226 661Q186 661 172 642T157 575V516H259V463H157V0H94V463H6V516H94V566Q94 644 123 678T220 714ZM383 714V0H320V714H383Z"  />


</font>
</defs>
<text x="40" y="40" font-family="Helvetica Neue LT W02 45 Light" font-size="30" fill="#933" >ABCDEFGHIJKLMNOPQRSTUVWXYZ abcdefghijklmnopqrstuvwxyz AÁÀÂÄÅÃÆ CÇ DÐ EÉÈÊË I Í Ì Î Ï NÑ</text>
<text x="40" y="80" font-family="Helvetica Neue LT W02 45 Light" font-size="30" fill="#933" >OÓÒÔÖÕØŒ SŠ UÚÙÛÜ YÝŸ ZŽ Þ aáàâäåãæ cç dð eéèêë i ı í ì î ï nñ oóòôöõøœ sšß uúùûü yýÿ zž</text>
<text x="40" y="120" font-family="Helvetica Neue LT W02 45 Light" font-size="30" fill="#933" >þ 1234567890 ½ ¼ ¾ % ‰ $¢£¥ƒ€¤ † ‡ § ¶ # ^~µ +×± &lt; = &gt; ÷¬ !¡?¿ &quot; &amp; &apos; * ° . , : ; () [ \ ] {} / |</text>
<text x="40" y="160" font-family="Helvetica Neue LT W02 45 Light" font-size="30" fill="#933" >¦ _ ‚ „ … ‹› «» ‘ ’ “ ” • ­ - – — @ © ® ™ ªº ¹²³ ´ ` ˆ ˜ ¨ ¯ · ¸</text>
</svg>
