[
    {"name": "Frankfurt",   "latitude": 50.110922,  "longitude": 8.682127},
    {"name": "Bremen",      "latitude": 53.079296,  "longitude": 8.801694},
    {"name": "Munich",      "latitude": 48.135125,  "longitude": 11.581980},
    {"name": "Berlin",      "latitude": 52.520007,  "longitude": 13.404954},
    {"name": "Hamburg",     "latitude": 53.551085,  "longitude": 9.993682},
    {"name": "Cologne",     "latitude": 50.937531,  "longitude": 6.960279},
    {"name": "Wien",        "latitude": 48.266740,  "longitude": 16.228179}
]
